lab6/Calculadora ALU/simulation/qsim/calculadora.msim.vcd
$comment
	File created using the following command:
		vcd file calculadora.msim.vcd -direction
$end
$date
	Fri Jun 23 19:33:19 2023
$end
$version
	ModelSim Version 10.1d
$end
$timescale
	1ps
$end
$scope module calculadora_vlg_vec_tst $end
$var reg 6 ! A [5:0] $end
$var reg 6 " B [5:0] $end
$var reg 1 # clk $end
$var reg 1 $ en $end
$var reg 1 % x $end
$var reg 1 & y $end
$var reg 1 ' z $end
$var wire 1 ( S [5] $end
$var wire 1 ) S [4] $end
$var wire 1 * S [3] $end
$var wire 1 + S [2] $end
$var wire 1 , S [1] $end
$var wire 1 - S [0] $end
$var wire 1 . sampler $end
$scope module i1 $end
$var wire 1 / gnd $end
$var wire 1 0 vcc $end
$var wire 1 1 unknown $end
$var tri1 1 2 devclrn $end
$var tri1 1 3 devpor $end
$var tri1 1 4 devoe $end
$var wire 1 5 alu0|extensor_al0|abext1|ib~0_combout $end
$var wire 1 6 alu0|sum_60|inst0_full_adder_6bits|inst1_fa|co~0_combout $end
$var wire 1 7 alu0|sum_60|inst0_full_adder_6bits|inst1_fa|co~1_combout $end
$var wire 1 8 alu0|sum_60|inst0_full_adder_6bits|inst3_fa|co~0_combout $end
$var wire 1 9 alu0|extensor_al0|abext5|ib~0_combout $end
$var wire 1 : alu0|extensor_al0|abext1|ia~4_combout $end
$var wire 1 ; clk~combout $end
$var wire 1 < clk~clkctrl_outclk $end
$var wire 1 = z~combout $end
$var wire 1 > x~combout $end
$var wire 1 ? reg_60|inst0|Q~2_combout $end
$var wire 1 @ reg_60|inst0|Q~3_combout $end
$var wire 1 A y~combout $end
$var wire 1 B reg_60|inst0|Q~4_combout $end
$var wire 1 C en~combout $end
$var wire 1 D reg_60|inst0|Q~regout $end
$var wire 1 E alu0|extensor_al0|abext1|ia~5_combout $end
$var wire 1 F alu0|sum_60|inst0_full_adder_6bits|inst0_fa|co~2_combout $end
$var wire 1 G alu0|sum_60|inst0_full_adder_6bits|inst0_fa|co~3_combout $end
$var wire 1 H reg_60|inst1|Q~0_combout $end
$var wire 1 I reg_60|inst1|Q~regout $end
$var wire 1 J alu0|extensor_al0|abext2|ia~4_combout $end
$var wire 1 K alu0|extensor_al0|abext2|ia~5_combout $end
$var wire 1 L alu0|extensor_al0|abext2|ib~0_combout $end
$var wire 1 M reg_60|inst2|Q~0_combout $end
$var wire 1 N reg_60|inst2|Q~regout $end
$var wire 1 O alu0|extensor_al0|abext3|ib~0_combout $end
$var wire 1 P alu0|sum_60|inst0_full_adder_6bits|inst2_fa|co~0_combout $end
$var wire 1 Q alu0|sum_60|inst0_full_adder_6bits|inst2_fa|co~1_combout $end
$var wire 1 R alu0|extensor_al0|abext3|ia~4_combout $end
$var wire 1 S alu0|extensor_al0|abext3|ia~5_combout $end
$var wire 1 T reg_60|inst3|Q~0_combout $end
$var wire 1 U reg_60|inst3|Q~regout $end
$var wire 1 V alu0|sum_60|inst0_full_adder_6bits|inst3_fa|co~1_combout $end
$var wire 1 W alu0|extensor_al0|abext4|ib~0_combout $end
$var wire 1 X alu0|extensor_al0|abext4|ia~4_combout $end
$var wire 1 Y alu0|extensor_al0|abext4|ia~5_combout $end
$var wire 1 Z reg_60|inst4|Q~0_combout $end
$var wire 1 [ reg_60|inst4|Q~regout $end
$var wire 1 \ alu0|extensor_al0|abext5|ia~4_combout $end
$var wire 1 ] alu0|extensor_al0|abext5|ia~3_combout $end
$var wire 1 ^ alu0|extensor_al0|abext5|ia~5_combout $end
$var wire 1 _ alu0|extensor_al0|abext4|ib~2_combout $end
$var wire 1 ` alu0|extensor_al0|abext4|ib~1_combout $end
$var wire 1 a alu0|sum_60|inst0_full_adder_6bits|inst4_fa|co~0_combout $end
$var wire 1 b alu0|sum_60|inst0_full_adder_6bits|inst5_fa|s~combout $end
$var wire 1 c reg_60|inst5|Q~regout $end
$var wire 1 d A~combout [5] $end
$var wire 1 e A~combout [4] $end
$var wire 1 f A~combout [3] $end
$var wire 1 g A~combout [2] $end
$var wire 1 h A~combout [1] $end
$var wire 1 i A~combout [0] $end
$var wire 1 j B~combout [5] $end
$var wire 1 k B~combout [4] $end
$var wire 1 l B~combout [3] $end
$var wire 1 m B~combout [2] $end
$var wire 1 n B~combout [1] $end
$var wire 1 o B~combout [0] $end
$upscope $end
$upscope $end
$enddefinitions $end
#0
$dumpvars
b1111 !
b101 "
0#
1$
0%
0&
0'
0-
0,
0+
0*
0)
0(
x.
0/
10
x1
12
13
14
15
06
17
08
19
0:
0;
0<
0=
0>
0?
0@
0A
0B
1C
0D
1E
1F
1G
0H
0I
1J
1K
0L
1M
0N
1O
1P
1Q
0R
1S
0T
0U
1V
1W
0X
0Y
1Z
0[
0\
0]
0^
0_
1`
0a
0b
0c
1i
1h
1g
1f
0e
0d
1o
0n
1m
0l
0k
0j
$end
#5000
1#
1;
1<
0.
1[
1N
1)
1+
#10000
0#
0;
0<
1.
#15000
1#
1;
1<
0.
#20000
0#
0;
0<
1.
#25000
1#
1;
1<
0.
#30000
0#
0;
0<
1.
#35000
1#
1;
1<
0.
#40000
0#
0;
0<
1.
#45000
1#
1;
1<
0.
#50000
0#
0;
0<
1.
#55000
1#
1;
1<
0.
#60000
0#
0;
0<
1.
#65000
1#
1;
1<
0.
#70000
0#
0;
0<
1.
#75000
1#
1;
1<
0.
#80000
0#
0;
0<
1.
#85000
1#
1;
1<
0.
#90000
0#
0;
0<
1.
#95000
1#
1;
1<
0.
#100000
1'
0#
1=
0;
0<
1.
0`
0W
1R
0P
0O
1L
1@
1:
09
18
16
05
1a
0Z
1T
0M
1b
1H
0b
#105000
1#
1;
1<
0.
0[
1U
0N
1I
0)
1*
0+
1,
#110000
0#
0;
0<
1.
#115000
1#
1;
1<
0.
#120000
0#
0;
0<
1.
#125000
1#
1;
1<
0.
#130000
0#
0;
0<
1.
#135000
1#
1;
1<
0.
#140000
0#
0;
0<
1.
#145000
1#
1;
1<
0.
#150000
0#
0;
0<
1.
#155000
1#
1;
1<
0.
#160000
0#
0;
0<
1.
#165000
1#
1;
1<
0.
#170000
0#
0;
0<
1.
#175000
1#
1;
1<
0.
#180000
0#
0;
0<
1.
#185000
1#
1;
1<
0.
#190000
0#
0;
0<
1.
#195000
1#
1;
1<
0.
#200000
1&
0'
0#
1A
0=
0;
0<
1.
1`
1W
1O
0J
1B
19
08
06
15
0@
0a
1Z
0T
1b
0H
0B
0b
#205000
1#
1;
1<
0.
1[
0U
0I
1)
0*
0,
#210000
0#
0;
0<
1.
#215000
1#
1;
1<
0.
#220000
0#
0;
0<
1.
#225000
1#
1;
1<
0.
#230000
0#
0;
0<
1.
#235000
1#
1;
1<
0.
#240000
0#
0;
0<
1.
#245000
1#
1;
1<
0.
#250000
0#
0;
0<
1.
#255000
1#
1;
1<
0.
#260000
0#
0;
0<
1.
#265000
1#
1;
1<
0.
#270000
0#
0;
0<
1.
#275000
1#
1;
1<
0.
#280000
0#
0;
0<
1.
#285000
1#
1;
1<
0.
#290000
0#
0;
0<
1.
#295000
1#
1;
1<
0.
#300000
1'
0#
1=
0;
0<
1.
1]
1X
0R
0F
1@
0:
0G
1B
1H
07
0Q
1M
0V
1T
0Z
#305000
1#
1;
1<
0.
0[
1U
1N
1I
1D
0)
1*
1+
1,
1-
#310000
0#
0;
0<
1.
#315000
1#
1;
1<
0.
#320000
0#
0;
0<
1.
#325000
1#
1;
1<
0.
#330000
0#
0;
0<
1.
#335000
1#
1;
1<
0.
#340000
0#
0;
0<
1.
#345000
1#
1;
1<
0.
#350000
0#
0;
0<
1.
#355000
1#
1;
1<
0.
#360000
0#
0;
0<
1.
#365000
1#
1;
1<
0.
#370000
0#
0;
0<
1.
#375000
1#
1;
1<
0.
#380000
0#
0;
0<
1.
#385000
1#
1;
1<
0.
#390000
0#
0;
0<
1.
#395000
1#
1;
1<
0.
#400000
1%
0&
0'
0#
1>
0A
0=
0;
0<
1.
1^
1Y
0S
0K
0E
0@
1?
0]
0X
1P
1J
1F
0B
1b
1Z
0T
0M
0H
1B
0^
0Y
1K
0b
0Z
1M
#405000
1#
1;
1<
0.
0U
0I
0*
0,
#410000
0#
0;
0<
1.
#415000
1#
1;
1<
0.
#420000
0#
0;
0<
1.
#425000
1#
1;
1<
0.
#430000
0#
0;
0<
1.
#435000
1#
1;
1<
0.
#440000
0#
0;
0<
1.
#445000
1#
1;
1<
0.
#450000
0#
0;
0<
1.
#455000
1#
1;
1<
0.
#460000
0#
0;
0<
1.
#465000
1#
1;
1<
0.
#470000
0#
0;
0<
1.
#475000
1#
1;
1<
0.
#480000
0#
0;
0<
1.
#485000
1#
1;
1<
0.
#490000
0#
0;
0<
1.
#495000
1#
1;
1<
0.
#500000
1'
0#
1=
0;
0<
1.
1R
0P
1:
18
16
1S
1E
1T
1H
#505000
1#
1;
1<
0.
1U
1I
1*
1,
#510000
0#
0;
0<
1.
#515000
1#
1;
1<
0.
#520000
0#
0;
0<
1.
#525000
1#
1;
1<
0.
#530000
0#
0;
0<
1.
#535000
1#
1;
1<
0.
#540000
0#
0;
0<
1.
#545000
1#
1;
1<
0.
#550000
0#
0;
0<
1.
#555000
1#
1;
1<
0.
#560000
0#
0;
0<
1.
#565000
1#
1;
1<
0.
#570000
0#
0;
0<
1.
#575000
1#
1;
1<
0.
#580000
0#
0;
0<
1.
#585000
1#
1;
1<
0.
#590000
0#
0;
0<
1.
#595000
1#
1;
1<
0.
#600000
1&
0'
0#
1A
0=
0;
0<
1.
0J
0B
08
06
0K
0M
#605000
1#
1;
1<
0.
0N
0D
0+
0-
#610000
0#
0;
0<
1.
#615000
1#
1;
1<
0.
#620000
0#
0;
0<
1.
#625000
1#
1;
1<
0.
#630000
0#
0;
0<
1.
#635000
1#
1;
1<
0.
#640000
0#
0;
0<
1.
#645000
1#
1;
1<
0.
#650000
0#
0;
0<
1.
#655000
1#
1;
1<
0.
#660000
0#
0;
0<
1.
#665000
1#
1;
1<
0.
#670000
0#
0;
0<
1.
#675000
1#
1;
1<
0.
#680000
0#
0;
0<
1.
#685000
1#
1;
1<
0.
#690000
0#
0;
0<
1.
#695000
1#
1;
1<
0.
#700000
1'
0#
1=
0;
0<
1.
1]
1X
0R
0F
0:
1^
1Y
0S
0E
1b
1Z
0T
0H
#705000
1#
1;
1<
0.
1c
1[
0U
0I
1(
1)
0*
0,
#710000
0#
0;
0<
1.
#715000
1#
1;
1<
0.
#720000
0#
0;
0<
1.
#725000
1#
1;
1<
0.
#730000
0#
0;
0<
1.
#735000
1#
1;
1<
0.
#740000
0#
0;
0<
1.
#745000
1#
1;
1<
0.
#750000
0#
0;
0<
1.
#755000
1#
1;
1<
0.
#760000
0#
0;
0<
1.
#765000
1#
1;
1<
0.
#770000
0#
0;
0<
1.
#775000
1#
1;
1<
0.
#780000
0#
0;
0<
1.
#785000
1#
1;
1<
0.
#790000
0#
0;
0<
1.
#795000
1#
1;
1<
0.
#800000
0$
0%
0&
0'
0#
0C
0>
0A
0=
0;
0<
1.
0^
0Y
1S
0L
1K
1E
0?
0]
0X
1P
1J
1F
1B
0b
0Z
1T
1Q
1H
0B
1G
1V
0T
0H
17
1Z
1M
#805000
1#
1;
1<
0.
#810000
0#
0;
0<
1.
#815000
1#
1;
1<
0.
#820000
0#
0;
0<
1.
#825000
1#
1;
1<
0.
#830000
0#
0;
0<
1.
#835000
1#
1;
1<
0.
#840000
0#
0;
0<
1.
#845000
1#
1;
1<
0.
#850000
0#
0;
0<
1.
#855000
1#
1;
1<
0.
#860000
0#
0;
0<
1.
#865000
1#
1;
1<
0.
#870000
0#
0;
0<
1.
#875000
1#
1;
1<
0.
#880000
0#
0;
0<
1.
#885000
1#
1;
1<
0.
#890000
0#
0;
0<
1.
#895000
1#
1;
1<
0.
#900000
1'
0#
1=
0;
0<
1.
0`
0W
1R
0P
0O
1L
1@
1:
09
18
16
05
1a
0Z
1T
0M
1b
1H
0b
#905000
1#
1;
1<
0.
#910000
0#
0;
0<
1.
#915000
1#
1;
1<
0.
#920000
0#
0;
0<
1.
#925000
1#
1;
1<
0.
#930000
0#
0;
0<
1.
#935000
1#
1;
1<
0.
#940000
0#
0;
0<
1.
#945000
1#
1;
1<
0.
#950000
0#
0;
0<
1.
#955000
1#
1;
1<
0.
#960000
0#
0;
0<
1.
#965000
1#
1;
1<
0.
#970000
0#
0;
0<
1.
#975000
1#
1;
1<
0.
#980000
0#
0;
0<
1.
#985000
1#
1;
1<
0.
#990000
0#
0;
0<
1.
#995000
1#
1;
1<
0.
