data_path_projrtl1/cd-labs-dev/Projeto_RTL/Banco de registreadores/Banco de registradores 1x8/Registradores 8x1/simulation/qsim/reg_8x1.msim.vcd
$comment
	File created using the following command:
		vcd file reg_8x1.msim.vcd -direction
$end
$date
	Thu Jun 15 23:18:44 2023
$end
$version
	ModelSim Version 10.1d
$end
$timescale
	1ps
$end
$scope module divide_freq_vlg_vec_tst $end
$var reg 1 ! clear $end
$var reg 1 " clk_60hz $end
$var wire 1 # clk_1hz $end
$var wire 1 $ sampler $end
$scope module i1 $end
$var wire 1 % gnd $end
$var wire 1 & vcc $end
$var wire 1 ' unknown $end
$var tri1 1 ( devclrn $end
$var tri1 1 ) devpor $end
$var tri1 1 * devoe $end
$var wire 1 + clk_60hz~combout $end
$var wire 1 , clk_60hz~clkctrl_outclk $end
$var wire 1 - div|mux06|mux0|o~0_combout $end
$var wire 1 . clear~combout $end
$var wire 1 / clear~clkctrl_outclk $end
$var wire 1 0 div|bit_register_6|inst0|q~regout $end
$var wire 1 1 div|bit_register_6|inst5|q~0_combout $end
$var wire 1 2 div|bit_register_6|inst5|q~regout $end
$var wire 1 3 div|mux06|mux1|o~0_combout $end
$var wire 1 4 div|mux06|mux1|o~combout $end
$var wire 1 5 div|bit_register_6|inst1|q~regout $end
$var wire 1 6 div|mux06|mux2|o~0_combout $end
$var wire 1 7 div|mux06|mux2|o~1_combout $end
$var wire 1 8 div|bit_register_6|inst2|q~regout $end
$var wire 1 9 div|adder06|adder3|co~combout $end
$var wire 1 : div|mux06|mux4|o~combout $end
$var wire 1 ; div|bit_register_6|inst4|q~regout $end
$var wire 1 < div|adder06|adder3|s~combout $end
$var wire 1 = div|mux06|mux3|o~combout $end
$var wire 1 > div|bit_register_6|inst3|q~regout $end
$var wire 1 ? div|comp06|eq~0_combout $end
$var wire 1 @ div|comp06|eq~combout $end
$upscope $end
$upscope $end
$enddefinitions $end
#0
$dumpvars
0!
0"
0#
x$
0%
1&
x'
1(
1)
1*
0+
0,
1-
0.
0/
00
01
02
03
04
05
06
07
08
09
0:
0;
0<
0=
0>
0?
0@
$end
#5000
1"
1+
1,
0$
10
14
0-
#10000
0"
0+
0,
1$
#15000
1"
1+
1,
0$
15
00
1-
#20000
0"
0+
0,
1$
#25000
1"
1+
1,
0$
10
16
04
0-
17
#30000
0"
0+
0,
1$
#35000
1"
1+
1,
0$
18
05
00
1-
#40000
0"
0+
0,
1$
#45000
1"
1+
1,
0$
10
14
0-
#50000
0"
0+
0,
1$
#55000
1"
1+
1,
0$
15
00
1-
#60000
0"
0+
0,
1$
#65000
1"
1+
1,
0$
10
1<
06
04
0-
1=
07
#70000
0"
0+
0,
1$
#75000
1"
1+
1,
0$
1>
08
05
00
1-
#80000
0"
0+
0,
1$
#85000
1"
1+
1,
0$
10
14
0-
#90000
0"
0+
0,
1$
#95000
1"
1+
1,
0$
15
00
1-
#100000
0"
0+
0,
1$
#105000
1"
1+
1,
0$
10
1?
16
04
0-
17
#110000
0"
0+
0,
1$
#115000
1"
1+
1,
0$
18
05
00
0?
1-
#120000
0"
0+
0,
1$
#125000
1"
1+
1,
0$
10
14
0-
#130000
0"
0+
0,
1$
#135000
1"
1+
1,
0$
15
00
1-
#140000
0"
0+
0,
1$
#145000
1"
1+
1,
0$
10
0<
19
06
04
0-
0=
1:
07
#150000
0"
0+
0,
1$
#155000
1"
1+
1,
0$
0>
1;
08
05
00
09
0:
11
1-
1:
01
#160000
0"
0+
0,
1$
#165000
1"
1+
1,
0$
10
14
0-
#170000
0"
0+
0,
1$
#175000
1"
1+
1,
0$
15
00
1-
#180000
0"
0+
0,
1$
#185000
1"
1+
1,
0$
10
16
04
0-
17
#190000
0"
0+
0,
1$
#195000
1"
1+
1,
0$
18
05
00
1-
#200000
0"
0+
0,
1$
#205000
1"
1+
1,
0$
10
14
0-
#210000
0"
0+
0,
1$
#215000
1"
1+
1,
0$
15
00
1-
#220000
0"
0+
0,
1$
#225000
1"
1+
1,
0$
10
1<
06
04
0-
1=
07
#230000
0"
0+
0,
1$
#235000
1"
1+
1,
0$
1>
08
05
00
1-
#240000
0"
0+
0,
1$
#245000
1"
1+
1,
0$
10
14
0-
#250000
0"
0+
0,
1$
#255000
1"
1+
1,
0$
15
00
1-
#260000
0"
0+
0,
1$
#265000
1"
1+
1,
0$
10
1?
16
04
0-
17
#270000
0"
0+
0,
1$
#275000
1"
1+
1,
0$
18
05
00
0?
1-
#280000
0"
0+
0,
1$
#285000
1"
1+
1,
0$
10
14
0-
#290000
0"
0+
0,
1$
#295000
1"
1+
1,
0$
15
00
1-
#300000
0"
0+
0,
1$
#305000
1"
1+
1,
0$
10
0<
19
06
04
0-
0=
0:
11
07
#310000
0"
0+
0,
1$
#315000
1"
1+
1,
0$
0>
0;
08
05
12
00
09
1:
1-
0:
#320000
0"
0+
0,
1$
#325000
1"
1+
1,
0$
10
14
0-
#330000
0"
0+
0,
1$
#335000
1"
1+
1,
0$
15
00
1-
#340000
0"
0+
0,
1$
#345000
1"
1+
1,
0$
10
16
04
0-
17
#350000
0"
0+
0,
1$
#355000
1"
1+
1,
0$
18
05
00
1-
#360000
0"
0+
0,
1$
#365000
1"
1+
1,
0$
10
14
0-
#370000
0"
0+
0,
1$
#375000
1"
1+
1,
0$
15
00
1-
#380000
0"
0+
0,
1$
#385000
1"
1+
1,
0$
10
1<
06
04
0-
1=
07
#390000
0"
0+
0,
1$
#395000
1"
1+
1,
0$
1>
08
05
00
1-
#400000
0"
0+
0,
1$
#405000
1"
1+
1,
0$
10
14
0-
#410000
0"
0+
0,
1$
#415000
1"
1+
1,
0$
15
00
1-
#420000
0"
0+
0,
1$
#425000
1"
1+
1,
0$
10
1?
16
04
0-
17
#430000
0"
0+
0,
1$
#435000
1"
1+
1,
0$
18
05
00
0?
1-
#440000
0"
0+
0,
1$
#445000
1"
1+
1,
0$
10
14
0-
#450000
0"
0+
0,
1$
#455000
1"
1+
1,
0$
15
00
1-
#460000
0"
0+
0,
1$
#465000
1"
1+
1,
0$
10
0<
19
06
04
0-
0=
1:
07
#470000
0"
0+
0,
1$
#475000
1"
1+
1,
0$
0>
1;
08
05
00
09
0:
13
01
1-
1:
11
#480000
0"
0+
0,
1$
#485000
1"
1+
1,
0$
10
14
0-
#490000
0"
0+
0,
1$
#495000
1"
1+
1,
0$
15
00
1-
#500000
0"
0+
0,
1$
#505000
1"
1+
1,
0$
10
16
04
0-
17
#510000
0"
0+
0,
1$
#515000
1"
1+
1,
0$
18
05
00
1-
#520000
0"
0+
0,
1$
#525000
1"
1+
1,
0$
10
14
0-
#530000
0"
0+
0,
1$
#535000
1"
1+
1,
0$
15
00
1-
#540000
0"
0+
0,
1$
#545000
1"
1+
1,
0$
10
1<
06
04
0-
1=
07
#550000
0"
0+
0,
1$
#555000
1"
1+
1,
0$
1>
08
05
00
1-
#560000
0"
0+
0,
1$
#565000
1"
1+
1,
0$
10
14
0-
#570000
0"
0+
0,
1$
#575000
1"
1+
1,
0$
15
00
1-
#580000
0"
0+
0,
1$
#585000
1"
1+
1,
0$
10
1?
16
04
0-
1@
14
1-
1#
#590000
0"
0+
0,
1$
#595000
1"
1+
1,
0$
#600000
0"
0+
0,
1$
#605000
1"
1+
1,
0$
#610000
0"
0+
0,
1$
#615000
1"
1+
1,
0$
#620000
0"
0+
0,
1$
#625000
1"
1+
1,
0$
#630000
0"
0+
0,
1$
#635000
1"
1+
1,
0$
#640000
0"
0+
0,
1$
#645000
1"
1+
1,
0$
#650000
0"
0+
0,
1$
#655000
1"
1+
1,
0$
#660000
0"
0+
0,
1$
#665000
1"
1+
1,
0$
#670000
0"
0+
0,
1$
#675000
1"
1+
1,
0$
#680000
0"
0+
0,
1$
#685000
1"
1+
1,
0$
#690000
0"
0+
0,
1$
#695000
1"
1+
1,
0$
#700000
0"
0+
0,
1$
#705000
1"
1+
1,
0$
#710000
0"
0+
0,
1$
#715000
1"
1+
1,
0$
#720000
0"
0+
0,
1$
#725000
1"
1+
1,
0$
#730000
0"
0+
0,
1$
#735000
1"
1+
1,
0$
#740000
0"
0+
0,
1$
#745000
1"
1+
1,
0$
#750000
0"
0+
0,
1$
#755000
1"
1+
1,
0$
#760000
0"
0+
0,
1$
#765000
1"
1+
1,
0$
#770000
0"
0+
0,
1$
#775000
1"
1+
1,
0$
#780000
0"
0+
0,
1$
#785000
1"
1+
1,
0$
#790000
0"
0+
0,
1$
#795000
1"
1+
1,
0$
#800000
0"
0+
0,
1$
#805000
1"
1+
1,
0$
#810000
0"
0+
0,
1$
#815000
1"
1+
1,
0$
#820000
0"
0+
0,
1$
#825000
1"
1+
1,
0$
#830000
0"
0+
0,
1$
#835000
1"
1+
1,
0$
#840000
0"
0+
0,
1$
#845000
1"
1+
1,
0$
#850000
0"
0+
0,
1$
#855000
1"
1+
1,
0$
#860000
0"
0+
0,
1$
#865000
1"
1+
1,
0$
#870000
0"
0+
0,
1$
#875000
1"
1+
1,
0$
#880000
0"
0+
0,
1$
#885000
1"
1+
1,
0$
#890000
0"
0+
0,
1$
#895000
1"
1+
1,
0$
#900000
0"
0+
0,
1$
#905000
1"
1+
1,
0$
#910000
0"
0+
0,
1$
#915000
1"
1+
1,
0$
#920000
0"
0+
0,
1$
#925000
1"
1+
1,
0$
#930000
0"
0+
0,
1$
#935000
1"
1+
1,
0$
#940000
0"
0+
0,
1$
#945000
1"
1+
1,
0$
#950000
0"
0+
0,
1$
#955000
1"
1+
1,
0$
#960000
0"
0+
0,
1$
#965000
1"
1+
1,
0$
#970000
0"
0+
0,
1$
#975000
1"
1+
1,
0$
#980000
0"
0+
0,
1$
#985000
1"
1+
1,
0$
#990000
0"
0+
0,
1$
#995000
1"
1+
1,
0$
#1000000
0"
0+
0,
1$
#1005000
1"
1+
1,
0$
#1010000
0"
0+
0,
1$
#1015000
1"
1+
1,
0$
#1020000
0"
0+
0,
1$
#1025000
1"
1+
1,
0$
#1030000
0"
0+
0,
1$
#1035000
1"
1+
1,
0$
#1040000
0"
0+
0,
1$
#1045000
1"
1+
1,
0$
#1050000
0"
0+
0,
1$
#1055000
1"
1+
1,
0$
#1060000
0"
0+
0,
1$
#1065000
1"
1+
1,
0$
#1070000
0"
0+
0,
1$
#1075000
1"
1+
1,
0$
#1080000
0"
0+
0,
1$
#1085000
1"
1+
1,
0$
#1090000
0"
0+
0,
1$
#1095000
1"
1+
1,
0$
#1100000
0"
0+
0,
1$
#1105000
1"
1+
1,
0$
#1110000
0"
0+
0,
1$
#1115000
1"
1+
1,
0$
#1120000
0"
0+
0,
1$
#1125000
1"
1+
1,
0$
#1130000
0"
0+
0,
1$
#1135000
1"
1+
1,
0$
#1140000
0"
0+
0,
1$
#1145000
1"
1+
1,
0$
#1150000
0"
0+
0,
1$
#1155000
1"
1+
1,
0$
#1160000
0"
0+
0,
1$
#1165000
1"
1+
1,
0$
#1170000
0"
0+
0,
1$
#1175000
1"
1+
1,
0$
#1180000
0"
0+
0,
1$
#1185000
1"
1+
1,
0$
#1190000
0"
0+
0,
1$
#1195000
1"
1+
1,
0$
#1200000
0"
0+
0,
1$
#1205000
1"
1+
1,
0$
#1210000
0"
0+
0,
1$
#1215000
1"
1+
1,
0$
#1220000
0"
0+
0,
1$
#1225000
1"
1+
1,
0$
#1230000
0"
0+
0,
1$
#1235000
1"
1+
1,
0$
#1240000
0"
0+
0,
1$
#1245000
1"
1+
1,
0$
#1250000
0"
0+
0,
1$
#1255000
1"
1+
1,
0$
#1260000
0"
0+
0,
1$
#1265000
1"
1+
1,
0$
#1270000
0"
0+
0,
1$
#1275000
1"
1+
1,
0$
#1280000
0"
0+
0,
1$
#1285000
1"
1+
1,
0$
#1290000
0"
0+
0,
1$
#1295000
1"
1+
1,
0$
#1300000
0"
0+
0,
1$
#1305000
1"
1+
1,
0$
#1310000
0"
0+
0,
1$
#1315000
1"
1+
1,
0$
#1320000
0"
0+
0,
1$
#1325000
1"
1+
1,
0$
#1330000
0"
0+
0,
1$
#1335000
1"
1+
1,
0$
#1340000
0"
0+
0,
1$
#1345000
1"
1+
1,
0$
#1350000
0"
0+
0,
1$
#1355000
1"
1+
1,
0$
#1360000
0"
0+
0,
1$
#1365000
1"
1+
1,
0$
#1370000
0"
0+
0,
1$
#1375000
1"
1+
1,
0$
#1380000
0"
0+
0,
1$
#1385000
1"
1+
1,
0$
#1390000
0"
0+
0,
1$
#1395000
1"
1+
1,
0$
#1400000
0"
0+
0,
1$
#1405000
1"
1+
1,
0$
#1410000
0"
0+
0,
1$
#1415000
1"
1+
1,
0$
#1420000
0"
0+
0,
1$
#1425000
1"
1+
1,
0$
#1430000
0"
0+
0,
1$
#1435000
1"
1+
1,
0$
#1440000
0"
0+
0,
1$
#1445000
1"
1+
1,
0$
#1450000
0"
0+
0,
1$
#1455000
1"
1+
1,
0$
#1460000
0"
0+
0,
1$
#1465000
1"
1+
1,
0$
#1470000
0"
0+
0,
1$
#1475000
1"
1+
1,
0$
#1480000
0"
0+
0,
1$
#1485000
1"
1+
1,
0$
#1490000
0"
0+
0,
1$
#1495000
1"
1+
1,
0$
#1500000
0"
0+
0,
1$
#1505000
1"
1+
1,
0$
#1510000
0"
0+
0,
1$
#1515000
1"
1+
1,
0$
#1520000
0"
0+
0,
1$
#1525000
1"
1+
1,
0$
#1530000
0"
0+
0,
1$
#1535000
1"
1+
1,
0$
#1540000
0"
0+
0,
1$
#1545000
1"
1+
1,
0$
#1550000
0"
0+
0,
1$
#1555000
1"
1+
1,
0$
#1560000
0"
0+
0,
1$
#1565000
1"
1+
1,
0$
#1570000
0"
0+
0,
1$
#1575000
1"
1+
1,
0$
#1580000
0"
0+
0,
1$
#1585000
1"
1+
1,
0$
#1590000
0"
0+
0,
1$
#1595000
1"
1+
1,
0$
#1600000
0"
0+
0,
1$
#1605000
1"
1+
1,
0$
#1610000
0"
0+
0,
1$
#1615000
1"
1+
1,
0$
#1620000
0"
0+
0,
1$
#1625000
1"
1+
1,
0$
#1630000
0"
0+
0,
1$
#1635000
1"
1+
1,
0$
#1640000
0"
0+
0,
1$
#1645000
1"
1+
1,
0$
#1650000
0"
0+
0,
1$
#1655000
1"
1+
1,
0$
#1660000
0"
0+
0,
1$
#1665000
1"
1+
1,
0$
#1670000
0"
0+
0,
1$
#1675000
1"
1+
1,
0$
#1680000
0"
0+
0,
1$
#1685000
1"
1+
1,
0$
#1690000
0"
0+
0,
1$
#1695000
1"
1+
1,
0$
#1700000
0"
0+
0,
1$
#1705000
1"
1+
1,
0$
#1710000
0"
0+
0,
1$
#1715000
1"
1+
1,
0$
#1720000
0"
0+
0,
1$
#1725000
1"
1+
1,
0$
#1730000
0"
0+
0,
1$
#1735000
1"
1+
1,
0$
#1740000
0"
0+
0,
1$
#1745000
1"
1+
1,
0$
#1750000
0"
0+
0,
1$
#1755000
1"
1+
1,
0$
#1760000
0"
0+
0,
1$
#1765000
1"
1+
1,
0$
#1770000
0"
0+
0,
1$
#1775000
1"
1+
1,
0$
#1780000
0"
0+
0,
1$
#1785000
1"
1+
1,
0$
#1790000
0"
0+
0,
1$
#1795000
1"
1+
1,
0$
#1800000
0"
0+
0,
1$
#1805000
1"
1+
1,
0$
#1810000
0"
0+
0,
1$
#1815000
1"
1+
1,
0$
#1820000
0"
0+
0,
1$
#1825000
1"
1+
1,
0$
#1830000
0"
0+
0,
1$
#1835000
1"
1+
1,
0$
#1840000
0"
0+
0,
1$
#1845000
1"
1+
1,
0$
#1850000
0"
0+
0,
1$
#1855000
1"
1+
1,
0$
#1860000
0"
0+
0,
1$
#1865000
1"
1+
1,
0$
#1870000
0"
0+
0,
1$
#1875000
1"
1+
1,
0$
#1880000
0"
0+
0,
1$
#1885000
1"
1+
1,
0$
#1890000
0"
0+
0,
1$
#1895000
1"
1+
1,
0$
#1900000
0"
0+
0,
1$
#1905000
1"
1+
1,
0$
#1910000
0"
0+
0,
1$
#1915000
1"
1+
1,
0$
#1920000
0"
0+
0,
1$
#1925000
1"
1+
1,
0$
#1930000
0"
0+
0,
1$
#1935000
1"
1+
1,
0$
#1940000
0"
0+
0,
1$
#1945000
1"
1+
1,
0$
#1950000
0"
0+
0,
1$
#1955000
1"
1+
1,
0$
#1960000
0"
0+
0,
1$
#1965000
1"
1+
1,
0$
#1970000
0"
0+
0,
1$
#1975000
1"
1+
1,
0$
#1980000
0"
0+
0,
1$
#1985000
1"
1+
1,
0$
#1990000
0"
0+
0,
1$
#1995000
1"
1+
1,
0$
#2000000
0"
0+
0,
1$
#2005000
1"
1+
1,
0$
#2010000
0"
0+
0,
1$
#2015000
1"
1+
1,
0$
#2020000
0"
0+
0,
1$
#2025000
1"
1+
1,
0$
#2030000
0"
0+
0,
1$
#2035000
1"
1+
1,
0$
#2040000
0"
0+
0,
1$
#2045000
1"
1+
1,
0$
#2050000
0"
0+
0,
1$
#2055000
1"
1+
1,
0$
#2060000
0"
0+
0,
1$
#2065000
1"
1+
1,
0$
#2070000
0"
0+
0,
1$
#2075000
1"
1+
1,
0$
#2080000
0"
0+
0,
1$
#2085000
1"
1+
1,
0$
#2090000
0"
0+
0,
1$
#2095000
1"
1+
1,
0$
#2100000
0"
0+
0,
1$
#2105000
1"
1+
1,
0$
#2110000
0"
0+
0,
1$
#2115000
1"
1+
1,
0$
#2120000
0"
0+
0,
1$
#2125000
1"
1+
1,
0$
#2130000
0"
0+
0,
1$
#2135000
1"
1+
1,
0$
#2140000
0"
0+
0,
1$
#2145000
1"
1+
1,
0$
#2150000
0"
0+
0,
1$
#2155000
1"
1+
1,
0$
#2160000
0"
0+
0,
1$
#2165000
1"
1+
1,
0$
#2170000
0"
0+
0,
1$
#2175000
1"
1+
1,
0$
#2180000
0"
0+
0,
1$
#2185000
1"
1+
1,
0$
#2190000
0"
0+
0,
1$
#2195000
1"
1+
1,
0$
#2200000
0"
0+
0,
1$
#2205000
1"
1+
1,
0$
#2210000
0"
0+
0,
1$
#2215000
1"
1+
1,
0$
#2220000
0"
0+
0,
1$
#2225000
1"
1+
1,
0$
#2230000
0"
0+
0,
1$
#2235000
1"
1+
1,
0$
#2240000
0"
0+
0,
1$
#2245000
1"
1+
1,
0$
#2250000
0"
0+
0,
1$
#2255000
1"
1+
1,
0$
#2260000
0"
0+
0,
1$
#2265000
1"
1+
1,
0$
#2270000
0"
0+
0,
1$
#2275000
1"
1+
1,
0$
#2280000
0"
0+
0,
1$
#2285000
1"
1+
1,
0$
#2290000
0"
0+
0,
1$
#2295000
1"
1+
1,
0$
#2300000
0"
0+
0,
1$
#2305000
1"
1+
1,
0$
#2310000
0"
0+
0,
1$
#2315000
1"
1+
1,
0$
#2320000
0"
0+
0,
1$
#2325000
1"
1+
1,
0$
#2330000
0"
0+
0,
1$
#2335000
1"
1+
1,
0$
#2340000
0"
0+
0,
1$
#2345000
1"
1+
1,
0$
#2350000
0"
0+
0,
1$
#2355000
1"
1+
1,
0$
#2360000
0"
0+
0,
1$
#2365000
1"
1+
1,
0$
#2370000
0"
0+
0,
1$
#2375000
1"
1+
1,
0$
#2380000
0"
0+
0,
1$
#2385000
1"
1+
1,
0$
#2390000
0"
0+
0,
1$
#2395000
1"
1+
1,
0$
#2400000
0"
0+
0,
1$
#2405000
1"
1+
1,
0$
#2410000
0"
0+
0,
1$
#2415000
1"
1+
1,
0$
#2420000
0"
0+
0,
1$
#2425000
1"
1+
1,
0$
#2430000
0"
0+
0,
1$
#2435000
1"
1+
1,
0$
#2440000
0"
0+
0,
1$
#2445000
1"
1+
1,
0$
#2450000
0"
0+
0,
1$
#2455000
1"
1+
1,
0$
#2460000
0"
0+
0,
1$
#2465000
1"
1+
1,
0$
#2470000
0"
0+
0,
1$
#2475000
1"
1+
1,
0$
#2480000
0"
0+
0,
1$
#2485000
1"
1+
1,
0$
#2490000
0"
0+
0,
1$
#2495000
1"
1+
1,
0$
#2500000
0"
0+
0,
1$
#2505000
1"
1+
1,
0$
#2510000
0"
0+
0,
1$
#2515000
1"
1+
1,
0$
#2520000
0"
0+
0,
1$
#2525000
1"
1+
1,
0$
#2530000
0"
0+
0,
1$
#2535000
1"
1+
1,
0$
#2540000
0"
0+
0,
1$
#2545000
1"
1+
1,
0$
#2550000
0"
0+
0,
1$
#2555000
1"
1+
1,
0$
#2560000
0"
0+
0,
1$
#2565000
1"
1+
1,
0$
#2570000
0"
0+
0,
1$
#2575000
1"
1+
1,
0$
#2580000
0"
0+
0,
1$
#2585000
1"
1+
1,
0$
#2590000
0"
0+
0,
1$
#2595000
1"
1+
1,
0$
#2600000
0"
0+
0,
1$
#2605000
1"
1+
1,
0$
#2610000
0"
0+
0,
1$
#2615000
1"
1+
1,
0$
#2620000
0"
0+
0,
1$
#2625000
1"
1+
1,
0$
#2630000
0"
0+
0,
1$
#2635000
1"
1+
1,
0$
#2640000
0"
0+
0,
1$
#2645000
1"
1+
1,
0$
#2650000
0"
0+
0,
1$
#2655000
1"
1+
1,
0$
#2660000
0"
0+
0,
1$
#2665000
1"
1+
1,
0$
#2670000
0"
0+
0,
1$
#2675000
1"
1+
1,
0$
#2680000
0"
0+
0,
1$
#2685000
1"
1+
1,
0$
#2690000
0"
0+
0,
1$
#2695000
1"
1+
1,
0$
#2700000
0"
0+
0,
1$
#2705000
1"
1+
1,
0$
#2710000
0"
0+
0,
1$
#2715000
1"
1+
1,
0$
#2720000
0"
0+
0,
1$
#2725000
1"
1+
1,
0$
#2730000
0"
0+
0,
1$
#2735000
1"
1+
1,
0$
#2740000
0"
0+
0,
1$
#2745000
1"
1+
1,
0$
#2750000
0"
0+
0,
1$
#2755000
1"
1+
1,
0$
#2760000
0"
0+
0,
1$
#2765000
1"
1+
1,
0$
#2770000
0"
0+
0,
1$
#2775000
1"
1+
1,
0$
#2780000
0"
0+
0,
1$
#2785000
1"
1+
1,
0$
#2790000
0"
0+
0,
1$
#2795000
1"
1+
1,
0$
#2800000
0"
0+
0,
1$
#2805000
1"
1+
1,
0$
#2810000
0"
0+
0,
1$
#2815000
1"
1+
1,
0$
#2820000
0"
0+
0,
1$
#2825000
1"
1+
1,
0$
#2830000
0"
0+
0,
1$
#2835000
1"
1+
1,
0$
#2840000
0"
0+
0,
1$
#2845000
1"
1+
1,
0$
#2850000
0"
0+
0,
1$
#2855000
1"
1+
1,
0$
#2860000
0"
0+
0,
1$
#2865000
1"
1+
1,
0$
#2870000
0"
0+
0,
1$
#2875000
1"
1+
1,
0$
#2880000
0"
0+
0,
1$
#2885000
1"
1+
1,
0$
#2890000
0"
0+
0,
1$
#2895000
1"
1+
1,
0$
#2900000
0"
0+
0,
1$
#2905000
1"
1+
1,
0$
#2910000
0"
0+
0,
1$
#2915000
1"
1+
1,
0$
#2920000
0"
0+
0,
1$
#2925000
1"
1+
1,
0$
#2930000
0"
0+
0,
1$
#2935000
1"
1+
1,
0$
#2940000
0"
0+
0,
1$
#2945000
1"
1+
1,
0$
#2950000
0"
0+
0,
1$
#2955000
1"
1+
1,
0$
#2960000
0"
0+
0,
1$
#2965000
1"
1+
1,
0$
#2970000
0"
0+
0,
1$
#2975000
1"
1+
1,
0$
#2980000
0"
0+
0,
1$
#2985000
1"
1+
1,
0$
#2990000
0"
0+
0,
1$
#2995000
1"
1+
1,
0$
#3000000
0"
0+
0,
1$
#3005000
1"
1+
1,
0$
#3010000
0"
0+
0,
1$
#3015000
1"
1+
1,
0$
#3020000
0"
0+
0,
1$
#3025000
1"
1+
1,
0$
#3030000
0"
0+
0,
1$
#3035000
1"
1+
1,
0$
#3040000
0"
0+
0,
1$
#3045000
1"
1+
1,
0$
#3050000
0"
0+
0,
1$
#3055000
1"
1+
1,
0$
#3060000
0"
0+
0,
1$
#3065000
1"
1+
1,
0$
#3070000
0"
0+
0,
1$
#3075000
1"
1+
1,
0$
#3080000
0"
0+
0,
1$
#3085000
1"
1+
1,
0$
#3090000
0"
0+
0,
1$
#3095000
1"
1+
1,
0$
#3100000
0"
0+
0,
1$
#3105000
1"
1+
1,
0$
#3110000
0"
0+
0,
1$
#3115000
1"
1+
1,
0$
#3120000
0"
0+
0,
1$
#3125000
1"
1+
1,
0$
#3130000
0"
0+
0,
1$
#3135000
1"
1+
1,
0$
#3140000
0"
0+
0,
1$
#3145000
1"
1+
1,
0$
#3150000
0"
0+
0,
1$
#3155000
1"
1+
1,
0$
#3160000
0"
0+
0,
1$
#3165000
1"
1+
1,
0$
#3170000
0"
0+
0,
1$
#3175000
1"
1+
1,
0$
#3180000
0"
0+
0,
1$
#3185000
1"
1+
1,
0$
#3190000
0"
0+
0,
1$
#3195000
1"
1+
1,
0$
#3200000
0"
0+
0,
1$
#3205000
1"
1+
1,
0$
#3210000
0"
0+
0,
1$
#3215000
1"
1+
1,
0$
#3220000
0"
0+
0,
1$
#3225000
1"
1+
1,
0$
#3230000
0"
0+
0,
1$
#3235000
1"
1+
1,
0$
#3240000
0"
0+
0,
1$
#3245000
1"
1+
1,
0$
#3250000
0"
0+
0,
1$
#3255000
1"
1+
1,
0$
#3260000
0"
0+
0,
1$
#3265000
1"
1+
1,
0$
#3270000
0"
0+
0,
1$
#3275000
1"
1+
1,
0$
#3280000
0"
0+
0,
1$
#3285000
1"
1+
1,
0$
#3290000
0"
0+
0,
1$
#3295000
1"
1+
1,
0$
#3300000
0"
0+
0,
1$
#3305000
1"
1+
1,
0$
#3310000
0"
0+
0,
1$
#3315000
1"
1+
1,
0$
#3320000
0"
0+
0,
1$
#3325000
1"
1+
1,
0$
#3330000
0"
0+
0,
1$
#3335000
1"
1+
1,
0$
#3340000
0"
0+
0,
1$
#3345000
1"
1+
1,
0$
#3350000
0"
0+
0,
1$
#3355000
1"
1+
1,
0$
#3360000
0"
0+
0,
1$
#3365000
1"
1+
1,
0$
#3370000
0"
0+
0,
1$
#3375000
1"
1+
1,
0$
#3380000
0"
0+
0,
1$
#3385000
1"
1+
1,
0$
#3390000
0"
0+
0,
1$
#3395000
1"
1+
1,
0$
#3400000
0"
0+
0,
1$
#3405000
1"
1+
1,
0$
#3410000
0"
0+
0,
1$
#3415000
1"
1+
1,
0$
#3420000
0"
0+
0,
1$
#3425000
1"
1+
1,
0$
#3430000
0"
0+
0,
1$
#3435000
1"
1+
1,
0$
#3440000
0"
0+
0,
1$
#3445000
1"
1+
1,
0$
#3450000
0"
0+
0,
1$
#3455000
1"
1+
1,
0$
#3460000
0"
0+
0,
1$
#3465000
1"
1+
1,
0$
#3470000
0"
0+
0,
1$
#3475000
1"
1+
1,
0$
#3480000
0"
0+
0,
1$
#3485000
1"
1+
1,
0$
#3490000
0"
0+
0,
1$
#3495000
1"
1+
1,
0$
#3500000
0"
0+
0,
1$
#3505000
1"
1+
1,
0$
#3510000
0"
0+
0,
1$
#3515000
1"
1+
1,
0$
#3520000
0"
0+
0,
1$
#3525000
1"
1+
1,
0$
#3530000
0"
0+
0,
1$
#3535000
1"
1+
1,
0$
#3540000
0"
0+
0,
1$
#3545000
1"
1+
1,
0$
#3550000
0"
0+
0,
1$
#3555000
1"
1+
1,
0$
#3560000
0"
0+
0,
1$
#3565000
1"
1+
1,
0$
#3570000
0"
0+
0,
1$
#3575000
1"
1+
1,
0$
#3580000
0"
0+
0,
1$
#3585000
1"
1+
1,
0$
#3590000
0"
0+
0,
1$
#3595000
1"
1+
1,
0$
#3600000
0"
0+
0,
1$
#3605000
1"
1+
1,
0$
#3610000
0"
0+
0,
1$
#3615000
1"
1+
1,
0$
#3620000
0"
0+
0,
1$
#3625000
1"
1+
1,
0$
#3630000
0"
0+
0,
1$
#3635000
1"
1+
1,
0$
#3640000
0"
0+
0,
1$
#3645000
1"
1+
1,
0$
#3650000
0"
0+
0,
1$
#3655000
1"
1+
1,
0$
#3660000
0"
0+
0,
1$
#3665000
1"
1+
1,
0$
#3670000
0"
0+
0,
1$
#3675000
1"
1+
1,
0$
#3680000
0"
0+
0,
1$
#3685000
1"
1+
1,
0$
#3690000
0"
0+
0,
1$
#3695000
1"
1+
1,
0$
#3700000
0"
0+
0,
1$
#3705000
1"
1+
1,
0$
#3710000
0"
0+
0,
1$
#3715000
1"
1+
1,
0$
#3720000
0"
0+
0,
1$
#3725000
1"
1+
1,
0$
#3730000
0"
0+
0,
1$
#3735000
1"
1+
1,
0$
#3740000
0"
0+
0,
1$
#3745000
1"
1+
1,
0$
#3750000
0"
0+
0,
1$
#3755000
1"
1+
1,
0$
#3760000
0"
0+
0,
1$
#3765000
1"
1+
1,
0$
#3770000
0"
0+
0,
1$
#3775000
1"
1+
1,
0$
#3780000
0"
0+
0,
1$
#3785000
1"
1+
1,
0$
#3790000
0"
0+
0,
1$
#3795000
1"
1+
1,
0$
#3800000
0"
0+
0,
1$
#3805000
1"
1+
1,
0$
#3810000
0"
0+
0,
1$
#3815000
1"
1+
1,
0$
#3820000
0"
0+
0,
1$
#3825000
1"
1+
1,
0$
#3830000
0"
0+
0,
1$
#3835000
1"
1+
1,
0$
#3840000
0"
0+
0,
1$
#3845000
1"
1+
1,
0$
#3850000
0"
0+
0,
1$
#3855000
1"
1+
1,
0$
#3860000
0"
0+
0,
1$
#3865000
1"
1+
1,
0$
#3870000
0"
0+
0,
1$
#3875000
1"
1+
1,
0$
#3880000
0"
0+
0,
1$
#3885000
1"
1+
1,
0$
#3890000
0"
0+
0,
1$
#3895000
1"
1+
1,
0$
#3900000
0"
0+
0,
1$
#3905000
1"
1+
1,
0$
#3910000
0"
0+
0,
1$
#3915000
1"
1+
1,
0$
#3920000
0"
0+
0,
1$
#3925000
1"
1+
1,
0$
#3930000
0"
0+
0,
1$
#3935000
1"
1+
1,
0$
#3940000
0"
0+
0,
1$
#3945000
1"
1+
1,
0$
#3950000
0"
0+
0,
1$
#3955000
1"
1+
1,
0$
#3960000
0"
0+
0,
1$
#3965000
1"
1+
1,
0$
