Projeto_RTL/Counter/simulation/qsim/counter.msim.vcd
$comment
	File created using the following command:
		vcd file counter.msim.vcd -direction
$end
$date
	Wed Jun 14 02:59:11 2023
$end
$version
	ModelSim Version 10.1d
$end
$timescale
	1ps
$end
$scope module timer_vlg_vec_tst $end
$var reg 1 ! CLK $end
$var reg 1 " RESET $end
$var wire 1 # OUT_DATA [21] $end
$var wire 1 $ OUT_DATA [20] $end
$var wire 1 % OUT_DATA [19] $end
$var wire 1 & OUT_DATA [18] $end
$var wire 1 ' OUT_DATA [17] $end
$var wire 1 ( OUT_DATA [16] $end
$var wire 1 ) OUT_DATA [15] $end
$var wire 1 * OUT_DATA [14] $end
$var wire 1 + OUT_DATA [13] $end
$var wire 1 , OUT_DATA [12] $end
$var wire 1 - OUT_DATA [11] $end
$var wire 1 . OUT_DATA [10] $end
$var wire 1 / OUT_DATA [9] $end
$var wire 1 0 OUT_DATA [8] $end
$var wire 1 1 OUT_DATA [7] $end
$var wire 1 2 OUT_DATA [6] $end
$var wire 1 3 OUT_DATA [5] $end
$var wire 1 4 OUT_DATA [4] $end
$var wire 1 5 OUT_DATA [3] $end
$var wire 1 6 OUT_DATA [2] $end
$var wire 1 7 OUT_DATA [1] $end
$var wire 1 8 OUT_DATA [0] $end
$var wire 1 9 T $end
$var wire 1 : sampler $end
$scope module i1 $end
$var wire 1 ; gnd $end
$var wire 1 < vcc $end
$var wire 1 = unknown $end
$var tri1 1 > devclrn $end
$var tri1 1 ? devpor $end
$var tri1 1 @ devoe $end
$var wire 1 A divfrq|div|bit_register_6|inst5|Q~regout $end
$var wire 1 B counter0|days|bit_register_5|inst4|Q~2_combout $end
$var wire 1 C counter0|minutes|adder06|adder1|co~1_combout $end
$var wire 1 D counter0|hours|adder0|adder1|co~1_combout $end
$var wire 1 E divfrq|div|bit_register_6|inst0|Q~regout $end
$var wire 1 F divfrq|div|mux06|mux0|o~0_combout $end
$var wire 1 G divfrq|div|adder06|adder5|s~combout $end
$var wire 1 H CLK~combout $end
$var wire 1 I RESET~combout $end
$var wire 1 J counter0|seconds|bit_register_6|inst0|Q~0_combout $end
$var wire 1 K counter0|seconds|bit_register_6|inst0|Q~regout $end
$var wire 1 L counter0|seconds|bit_register_6|inst1|Q~0_combout $end
$var wire 1 M counter0|seconds|bit_register_6|inst1|Q~regout $end
$var wire 1 N counter0|seconds|bit_register_6|inst3|Q~0_combout $end
$var wire 1 O counter0|seconds|bit_register_6|inst3|Q~1_combout $end
$var wire 1 P counter0|seconds|bit_register_6|inst3|Q~regout $end
$var wire 1 Q counter0|seconds|comp06|eq~0_combout $end
$var wire 1 R counter0|seconds|adder06|adder3|co~combout $end
$var wire 1 S counter0|seconds|bit_register_6|inst4|Q~0_combout $end
$var wire 1 T counter0|seconds|bit_register_6|inst4|Q~regout $end
$var wire 1 U counter0|seconds|bit_register_6|inst5|Q~0_combout $end
$var wire 1 V counter0|seconds|bit_register_6|inst5|Q~1_combout $end
$var wire 1 W counter0|seconds|bit_register_6|inst5|Q~regout $end
$var wire 1 X counter0|seconds|comp06|eq~combout $end
$var wire 1 Y counter0|minutes|bit_register_6|inst0|Q~0_combout $end
$var wire 1 Z counter0|minutes|bit_register_6|inst0|Q~regout $end
$var wire 1 [ counter0|minutes|adder06|adder1|co~0_combout $end
$var wire 1 \ counter0|minutes|bit_register_6|inst1|Q~0_combout $end
$var wire 1 ] counter0|minutes|bit_register_6|inst1|Q~regout $end
$var wire 1 ^ counter0|minutes|adder06|adder1|co~2_combout $end
$var wire 1 _ counter0|minutes|bit_register_6|inst2|Q~0_combout $end
$var wire 1 ` counter0|minutes|bit_register_6|inst2|Q~regout $end
$var wire 1 a counter0|minutes|bit_register_6|inst3|Q~0_combout $end
$var wire 1 b counter0|minutes|bit_register_6|inst3|Q~1_combout $end
$var wire 1 c counter0|minutes|bit_register_6|inst3|Q~2_combout $end
$var wire 1 d counter0|minutes|bit_register_6|inst3|Q~regout $end
$var wire 1 e counter0|minutes|comp06|eq~0_combout $end
$var wire 1 f counter0|minutes|bit_register_6|inst5|Q~0_combout $end
$var wire 1 g counter0|minutes|bit_register_6|inst5|Q~1_combout $end
$var wire 1 h counter0|minutes|bit_register_6|inst5|Q~2_combout $end
$var wire 1 i counter0|minutes|bit_register_6|inst5|Q~3_combout $end
$var wire 1 j counter0|minutes|bit_register_6|inst5|Q~regout $end
$var wire 1 k counter0|minutes|bit_register_6|inst4|Q~0_combout $end
$var wire 1 l counter0|minutes|bit_register_6|inst4|Q~regout $end
$var wire 1 m counter0|minutes|comp06|eq~combout $end
$var wire 1 n counter0|hours|register_5|inst0|Q~0_combout $end
$var wire 1 o counter0|hours|register_5|inst0|Q~regout $end
$var wire 1 p counter0|hours|adder0|adder1|co~0_combout $end
$var wire 1 q counter0|hours|register_5|inst1|Q~0_combout $end
$var wire 1 r counter0|hours|register_5|inst1|Q~regout $end
$var wire 1 s counter0|hours|adder0|adder1|co~2_combout $end
$var wire 1 t counter0|hours|register_5|inst2|Q~0_combout $end
$var wire 1 u counter0|hours|register_5|inst2|Q~regout $end
$var wire 1 v counter0|hours|comp0|eq~0_combout $end
$var wire 1 w counter0|hours|comp0|eq~combout $end
$var wire 1 x counter0|hours|register_5|inst4|Q~0_combout $end
$var wire 1 y counter0|hours|register_5|inst4|Q~1_combout $end
$var wire 1 z counter0|hours|register_5|inst3|Q~0_combout $end
$var wire 1 { counter0|hours|register_5|inst3|Q~regout $end
$var wire 1 | counter0|hours|register_5|inst4|Q~2_combout $end
$var wire 1 } counter0|hours|register_5|inst4|Q~3_combout $end
$var wire 1 ~ counter0|hours|register_5|inst4|Q~regout $end
$var wire 1 !! counter0|days|adder0|adder1|co~1_combout $end
$var wire 1 "! counter0|days|bit_register_5|inst1|Q~0_combout $end
$var wire 1 #! counter0|days|bit_register_5|inst1|Q~regout $end
$var wire 1 $! counter0|days|adder0|adder1|co~0_combout $end
$var wire 1 %! counter0|days|bit_register_5|inst2|Q~0_combout $end
$var wire 1 &! counter0|days|bit_register_5|inst2|Q~regout $end
$var wire 1 '! counter0|days|bit_register_5|inst4|Q~0_combout $end
$var wire 1 (! counter0|days|bit_register_5|inst4|Q~1_combout $end
$var wire 1 )! counter0|days|bit_register_5|inst3|Q~0_combout $end
$var wire 1 *! counter0|days|bit_register_5|inst3|Q~regout $end
$var wire 1 +! counter0|days|comp0|eq~0_combout $end
$var wire 1 ,! counter0|days|bit_register_5|inst4|Q~3_combout $end
$var wire 1 -! counter0|days|bit_register_5|inst4|Q~regout $end
$var wire 1 .! counter0|days|comp0|eq~combout $end
$var wire 1 /! divfrq|div|adder06|adder1|s~combout $end
$var wire 1 0! divfrq|div|bit_register_6|inst1|Q~regout $end
$var wire 1 1! divfrq|div|adder06|adder2|s~combout $end
$var wire 1 2! divfrq|div|bit_register_6|inst2|Q~regout $end
$var wire 1 3! divfrq|div|adder06|adder2|co~combout $end
$var wire 1 4! divfrq|div|adder06|adder4|s~combout $end
$var wire 1 5! divfrq|div|bit_register_6|inst4|Q~regout $end
$var wire 1 6! divfrq|div|adder06|adder3|s~combout $end
$var wire 1 7! divfrq|div|bit_register_6|inst3|Q~regout $end
$var wire 1 8! divfrq|div|comp06|eq~0_combout $end
$var wire 1 9! divfrq|div|comp06|eq~combout $end
$var wire 1 :! divfrq|div|comp06|eq~clkctrl_outclk $end
$var wire 1 ;! counter0|seconds|bit_register_6|inst2|Q~0_combout $end
$var wire 1 <! counter0|seconds|bit_register_6|inst2|Q~1_combout $end
$var wire 1 =! counter0|seconds|bit_register_6|inst2|Q~regout $end
$var wire 1 >! counter0|days|bit_register_5|inst0|Q~0_combout $end
$var wire 1 ?! counter0|days|bit_register_5|inst0|Q~regout $end
$upscope $end
$upscope $end
$enddefinitions $end
#0
$dumpvars
0!
1"
08
07
06
05
04
03
02
01
00
0/
0.
0-
0,
0+
0*
0)
0(
0'
0&
0%
0$
0#
09
x:
0;
1<
x=
1>
1?
1@
0A
0B
0C
0D
0E
1F
0G
0H
1I
1J
0K
0L
0M
0N
0O
0P
0Q
0R
0S
0T
0U
0V
0W
0X
0Y
0Z
0[
0\
0]
0^
0_
0`
0a
0b
0c
0d
0e
0f
0g
0h
0i
0j
0k
0l
0m
0n
0o
0p
0q
0r
0s
0t
0u
0v
0w
0x
0y
0z
0{
0|
0}
0~
0!!
0"!
0#!
0$!
0%!
0&!
0'!
0(!
0)!
0*!
0+!
0,!
0-!
0.!
0/!
00!
01!
02!
03!
04!
05!
06!
07!
08!
09!
0:!
0;!
0<!
0=!
0>!
0?!
$end
#5000
1!
1H
0:
1E
1/!
0F
#10000
0!
0H
1:
#15000
1!
1H
0:
10!
0E
1F
#20000
0!
0H
1:
#25000
1!
1H
0:
1E
11!
0/!
0F
#30000
0!
0H
1:
#35000
1!
1H
0:
12!
00!
0E
1F
#40000
0!
0H
1:
#45000
1!
1H
0:
1E
1/!
0F
#50000
0!
0H
1:
#55000
1!
1H
0:
10!
0E
1F
#60000
0!
0H
1:
#65000
1!
1H
0:
1E
16!
13!
01!
0/!
0F
#70000
0!
0H
1:
#75000
1!
1H
0:
17!
02!
00!
0E
14!
03!
1F
04!
#80000
0!
0H
1:
#85000
1!
1H
0:
1E
1/!
0F
#90000
0!
0H
1:
#95000
1!
1H
0:
10!
0E
1F
#100000
0!
0H
1:
#105000
1!
1H
0:
1E
18!
11!
0/!
0F
#110000
0!
0H
1:
#115000
1!
1H
0:
12!
00!
0E
08!
1F
#120000
0!
0H
1:
#125000
1!
1H
0:
1E
1/!
0F
#130000
0!
0H
1:
#135000
1!
1H
0:
10!
0E
1F
#140000
0!
0H
1:
#145000
1!
1H
0:
1E
06!
13!
01!
0/!
0F
14!
#150000
0!
0H
1:
#155000
1!
1H
0:
07!
15!
02!
00!
0E
03!
1F
#160000
0!
0H
1:
#165000
1!
1H
0:
1E
1/!
0F
#170000
0!
0H
1:
#175000
1!
1H
0:
10!
0E
1F
#180000
0!
0H
1:
#185000
1!
1H
0:
1E
11!
0/!
0F
#190000
0!
0H
1:
#195000
1!
1H
0:
12!
00!
0E
1F
#200000
0!
0H
1:
#205000
1!
1H
0:
1E
1/!
0F
#210000
0!
0H
1:
#215000
1!
1H
0:
10!
0E
1F
#220000
0!
0H
1:
#225000
1!
1H
0:
1E
16!
13!
01!
0/!
0F
#230000
0!
0H
1:
#235000
1!
1H
0:
17!
02!
00!
0E
04!
1G
03!
1F
14!
0G
#240000
0!
0H
1:
#245000
1!
1H
0:
1E
1/!
0F
#250000
0!
0H
1:
#255000
1!
1H
0:
10!
0E
1F
#260000
0!
0H
1:
#265000
1!
1H
0:
1E
18!
11!
0/!
0F
#270000
0!
0H
1:
#275000
1!
1H
0:
12!
00!
0E
08!
1F
#280000
0!
0H
1:
#285000
1!
1H
0:
1E
1/!
0F
#290000
0!
0H
1:
#295000
1!
1H
0:
10!
0E
1F
#300000
0!
0H
1:
#305000
1!
1H
0:
1E
06!
13!
01!
0/!
0F
04!
1G
#310000
0!
0H
1:
#315000
1!
1H
0:
07!
05!
02!
00!
0E
1A
03!
1F
#320000
0!
0H
1:
#325000
1!
1H
0:
1E
1/!
0F
#330000
0!
0H
1:
#335000
1!
1H
0:
10!
0E
1F
#340000
0!
0H
1:
#345000
1!
1H
0:
1E
11!
0/!
0F
#350000
0!
0H
1:
#355000
1!
1H
0:
12!
00!
0E
1F
#360000
0!
0H
1:
#365000
1!
1H
0:
1E
1/!
0F
#370000
0!
0H
1:
#375000
1!
1H
0:
10!
0E
1F
#380000
0!
0H
1:
#385000
1!
1H
0:
1E
16!
13!
01!
0/!
0F
#390000
0!
0H
1:
#395000
1!
1H
0:
17!
02!
00!
0E
14!
03!
1F
04!
#400000
0!
0H
1:
#405000
1!
1H
0:
1E
1/!
0F
#410000
0!
0H
1:
#415000
1!
1H
0:
10!
0E
1F
#420000
0!
0H
1:
#425000
1!
1H
0:
1E
18!
11!
0/!
0F
#430000
0!
0H
1:
#435000
1!
1H
0:
12!
00!
0E
08!
1F
#440000
0!
0H
1:
#445000
1!
1H
0:
1E
1/!
0F
#450000
0!
0H
1:
#455000
1!
1H
0:
10!
0E
1F
#460000
0!
0H
1:
#465000
1!
1H
0:
1E
06!
13!
01!
0/!
0F
14!
#470000
0!
0H
1:
#475000
1!
1H
0:
07!
15!
02!
00!
0E
03!
1F
#480000
0!
0H
1:
#485000
1!
1H
0:
1E
1/!
0F
#490000
0!
0H
1:
#495000
1!
1H
0:
10!
0E
1F
#500000
0"
0!
0I
0H
1:
0J
#505000
1!
1H
0:
1E
11!
0/!
0F
#510000
0!
0H
1:
#515000
1!
1H
0:
12!
00!
0E
1F
#520000
0!
0H
1:
#525000
1!
1H
0:
1E
1/!
0F
#530000
0!
0H
1:
#535000
1!
1H
0:
10!
0E
1F
#540000
0!
0H
1:
#545000
1!
1H
0:
1E
16!
13!
01!
0/!
0F
#550000
0!
0H
1:
#555000
1!
1H
0:
17!
02!
00!
0E
04!
0G
03!
1F
14!
1G
#560000
0!
0H
1:
#565000
1!
1H
0:
1E
1/!
0F
#570000
0!
0H
1:
#575000
1!
1H
0:
10!
0E
1F
#580000
0!
0H
1:
#585000
1!
1H
0:
1E
18!
11!
0/!
0F
19!
1:!
#590000
0!
0H
1:
#595000
1!
1H
0:
07!
05!
00!
0E
0A
08!
06!
04!
0G
09!
01!
0:!
1F
#600000
0!
0H
1:
#605000
1!
1H
0:
1E
1/!
0F
#610000
0!
0H
1:
#615000
1!
1H
0:
10!
0E
1F
#620000
0!
0H
1:
#625000
1!
1H
0:
1E
11!
0/!
0F
#630000
0!
0H
1:
#635000
1!
1H
0:
12!
00!
0E
1F
#640000
0!
0H
1:
#645000
1!
1H
0:
1E
1/!
0F
#650000
0!
0H
1:
#655000
1!
1H
0:
10!
0E
1F
#660000
0!
0H
1:
#665000
1!
1H
0:
1E
16!
13!
01!
0/!
0F
#670000
0!
0H
1:
#675000
1!
1H
0:
17!
02!
00!
0E
14!
03!
1F
04!
#680000
0!
0H
1:
#685000
1!
1H
0:
1E
1/!
0F
#690000
0!
0H
1:
#695000
1!
1H
0:
10!
0E
1F
#700000
0!
0H
1:
#705000
1!
1H
0:
1E
18!
11!
0/!
0F
#710000
0!
0H
1:
#715000
1!
1H
0:
12!
00!
0E
08!
1F
#720000
0!
0H
1:
#725000
1!
1H
0:
1E
1/!
0F
#730000
0!
0H
1:
#735000
1!
1H
0:
10!
0E
1F
#740000
0!
0H
1:
#745000
1!
1H
0:
1E
06!
13!
01!
0/!
0F
14!
#750000
0!
0H
1:
#755000
1!
1H
0:
07!
15!
02!
00!
0E
03!
1F
#760000
0!
0H
1:
#765000
1!
1H
0:
1E
1/!
0F
#770000
0!
0H
1:
#775000
1!
1H
0:
10!
0E
1F
#780000
0!
0H
1:
#785000
1!
1H
0:
1E
11!
0/!
0F
#790000
0!
0H
1:
#795000
1!
1H
0:
12!
00!
0E
1F
#800000
0!
0H
1:
#805000
1!
1H
0:
1E
1/!
0F
#810000
0!
0H
1:
#815000
1!
1H
0:
10!
0E
1F
#820000
0!
0H
1:
#825000
1!
1H
0:
1E
16!
13!
01!
0/!
0F
#830000
0!
0H
1:
#835000
1!
1H
0:
17!
02!
00!
0E
04!
1G
03!
1F
14!
0G
#840000
0!
0H
1:
#845000
1!
1H
0:
1E
1/!
0F
#850000
0!
0H
1:
#855000
1!
1H
0:
10!
0E
1F
#860000
0!
0H
1:
#865000
1!
1H
0:
1E
18!
11!
0/!
0F
#870000
0!
0H
1:
#875000
1!
1H
0:
12!
00!
0E
08!
1F
#880000
0!
0H
1:
#885000
1!
1H
0:
1E
1/!
0F
#890000
0!
0H
1:
#895000
1!
1H
0:
10!
0E
1F
#900000
0!
0H
1:
#905000
1!
1H
0:
1E
06!
13!
01!
0/!
0F
04!
1G
#910000
0!
0H
1:
#915000
1!
1H
0:
07!
05!
02!
00!
0E
1A
03!
1F
#920000
0!
0H
1:
#925000
1!
1H
0:
1E
1/!
0F
#930000
0!
0H
1:
#935000
1!
1H
0:
10!
0E
1F
#940000
0!
0H
1:
#945000
1!
1H
0:
1E
11!
0/!
0F
#950000
0!
0H
1:
#955000
1!
1H
0:
12!
00!
0E
1F
#960000
0!
0H
1:
#965000
1!
1H
0:
1E
1/!
0F
#970000
0!
0H
1:
#975000
1!
1H
0:
10!
0E
1F
#980000
0!
0H
1:
#985000
1!
1H
0:
1E
16!
13!
01!
0/!
0F
#990000
0!
0H
1:
#995000
1!
1H
0:
17!
02!
00!
0E
14!
03!
1F
04!
#1000000
1"
0!
1I
0H
1:
1J
#1005000
1!
1H
0:
1E
1/!
0F
#1010000
0!
0H
1:
#1015000
1!
1H
0:
10!
0E
1F
#1020000
0!
0H
1:
#1025000
1!
1H
0:
1E
18!
11!
0/!
0F
#1030000
0!
0H
1:
#1035000
1!
1H
0:
12!
00!
0E
08!
1F
#1040000
0!
0H
1:
#1045000
1!
1H
0:
1E
1/!
0F
#1050000
0!
0H
1:
#1055000
1!
1H
0:
10!
0E
1F
#1060000
0!
0H
1:
#1065000
1!
1H
0:
1E
06!
13!
01!
0/!
0F
14!
#1070000
0!
0H
1:
#1075000
1!
1H
0:
07!
15!
02!
00!
0E
03!
1F
#1080000
0!
0H
1:
#1085000
1!
1H
0:
1E
1/!
0F
#1090000
0!
0H
1:
#1095000
1!
1H
0:
10!
0E
1F
#1100000
0!
0H
1:
#1105000
1!
1H
0:
1E
11!
0/!
0F
#1110000
0!
0H
1:
#1115000
1!
1H
0:
12!
00!
0E
1F
#1120000
0!
0H
1:
#1125000
1!
1H
0:
1E
1/!
0F
#1130000
0!
0H
1:
#1135000
1!
1H
0:
10!
0E
1F
#1140000
0!
0H
1:
#1145000
1!
1H
0:
1E
16!
13!
01!
0/!
0F
#1150000
0!
0H
1:
#1155000
1!
1H
0:
17!
02!
00!
0E
04!
0G
03!
1F
14!
1G
#1160000
0!
0H
1:
#1165000
1!
1H
0:
1E
1/!
0F
#1170000
0!
0H
1:
#1175000
1!
1H
0:
10!
0E
1F
#1180000
0!
0H
1:
#1185000
1!
1H
0:
1E
18!
11!
0/!
0F
19!
1:!
1K
1L
0J
18
#1190000
0!
0H
1:
#1195000
1!
1H
0:
07!
05!
00!
0E
0A
08!
06!
04!
0G
09!
01!
0:!
1F
#1200000
0!
0H
1:
#1205000
1!
1H
0:
1E
1/!
0F
#1210000
0!
0H
1:
#1215000
1!
1H
0:
10!
0E
1F
#1220000
0!
0H
1:
#1225000
1!
1H
0:
1E
11!
0/!
0F
#1230000
0!
0H
1:
#1235000
1!
1H
0:
12!
00!
0E
1F
#1240000
0!
0H
1:
#1245000
1!
1H
0:
1E
1/!
0F
#1250000
0!
0H
1:
#1255000
1!
1H
0:
10!
0E
1F
#1260000
0!
0H
1:
#1265000
1!
1H
0:
1E
16!
13!
01!
0/!
0F
#1270000
0!
0H
1:
#1275000
1!
1H
0:
17!
02!
00!
0E
14!
03!
1F
04!
#1280000
0!
0H
1:
#1285000
1!
1H
0:
1E
1/!
0F
#1290000
0!
0H
1:
#1295000
1!
1H
0:
10!
0E
1F
#1300000
0!
0H
1:
#1305000
1!
1H
0:
1E
18!
11!
0/!
0F
#1310000
0!
0H
1:
#1315000
1!
1H
0:
12!
00!
0E
08!
1F
#1320000
0!
0H
1:
#1325000
1!
1H
0:
1E
1/!
0F
#1330000
0!
0H
1:
#1335000
1!
1H
0:
10!
0E
1F
#1340000
0!
0H
1:
#1345000
1!
1H
0:
1E
06!
13!
01!
0/!
0F
14!
#1350000
0!
0H
1:
#1355000
1!
1H
0:
07!
15!
02!
00!
0E
03!
1F
#1360000
0!
0H
1:
#1365000
1!
1H
0:
1E
1/!
0F
#1370000
0!
0H
1:
#1375000
1!
1H
0:
10!
0E
1F
#1380000
0!
0H
1:
#1385000
1!
1H
0:
1E
11!
0/!
0F
#1390000
0!
0H
1:
#1395000
1!
1H
0:
12!
00!
0E
1F
#1400000
0!
0H
1:
#1405000
1!
1H
0:
1E
1/!
0F
#1410000
0!
0H
1:
#1415000
1!
1H
0:
10!
0E
1F
#1420000
0!
0H
1:
#1425000
1!
1H
0:
1E
16!
13!
01!
0/!
0F
#1430000
0!
0H
1:
#1435000
1!
1H
0:
17!
02!
00!
0E
04!
1G
03!
1F
14!
0G
#1440000
0!
0H
1:
#1445000
1!
1H
0:
1E
1/!
0F
#1450000
0!
0H
1:
#1455000
1!
1H
0:
10!
0E
1F
#1460000
0!
0H
1:
#1465000
1!
1H
0:
1E
18!
11!
0/!
0F
#1470000
0!
0H
1:
#1475000
1!
1H
0:
12!
00!
0E
08!
1F
#1480000
0!
0H
1:
#1485000
1!
1H
0:
1E
1/!
0F
#1490000
0!
0H
1:
#1495000
1!
1H
0:
10!
0E
1F
#1500000
0"
0!
0I
0H
1:
0L
1J
#1505000
1!
1H
0:
1E
06!
13!
01!
0/!
0F
04!
1G
#1510000
0!
0H
1:
#1515000
1!
1H
0:
07!
05!
02!
00!
0E
1A
03!
1F
#1520000
0!
0H
1:
#1525000
1!
1H
0:
1E
1/!
0F
#1530000
0!
0H
1:
#1535000
1!
1H
0:
10!
0E
1F
#1540000
0!
0H
1:
#1545000
1!
1H
0:
1E
11!
0/!
0F
#1550000
0!
0H
1:
#1555000
1!
1H
0:
12!
00!
0E
1F
#1560000
0!
0H
1:
#1565000
1!
1H
0:
1E
1/!
0F
#1570000
0!
0H
1:
#1575000
1!
1H
0:
10!
0E
1F
#1580000
0!
0H
1:
#1585000
1!
1H
0:
1E
16!
13!
01!
0/!
0F
#1590000
0!
0H
1:
#1595000
1!
1H
0:
17!
02!
00!
0E
14!
03!
1F
04!
#1600000
0!
0H
1:
#1605000
1!
1H
0:
1E
1/!
0F
#1610000
0!
0H
1:
#1615000
1!
1H
0:
10!
0E
1F
#1620000
0!
0H
1:
#1625000
1!
1H
0:
1E
18!
11!
0/!
0F
#1630000
0!
0H
1:
#1635000
1!
1H
0:
12!
00!
0E
08!
1F
#1640000
0!
0H
1:
#1645000
1!
1H
0:
1E
1/!
0F
#1650000
0!
0H
1:
#1655000
1!
1H
0:
10!
0E
1F
#1660000
0!
0H
1:
#1665000
1!
1H
0:
1E
06!
13!
01!
0/!
0F
14!
#1670000
0!
0H
1:
#1675000
1!
1H
0:
07!
15!
02!
00!
0E
03!
1F
#1680000
0!
0H
1:
#1685000
1!
1H
0:
1E
1/!
0F
#1690000
0!
0H
1:
#1695000
1!
1H
0:
10!
0E
1F
#1700000
0!
0H
1:
#1705000
1!
1H
0:
1E
11!
0/!
0F
#1710000
0!
0H
1:
#1715000
1!
1H
0:
12!
00!
0E
1F
#1720000
0!
0H
1:
#1725000
1!
1H
0:
1E
1/!
0F
#1730000
0!
0H
1:
#1735000
1!
1H
0:
10!
0E
1F
#1740000
0!
0H
1:
#1745000
1!
1H
0:
1E
16!
13!
01!
0/!
0F
#1750000
0!
0H
1:
#1755000
1!
1H
0:
17!
02!
00!
0E
04!
0G
03!
1F
14!
1G
#1760000
0!
0H
1:
#1765000
1!
1H
0:
1E
1/!
0F
#1770000
0!
0H
1:
#1775000
1!
1H
0:
10!
0E
1F
#1780000
0!
0H
1:
#1785000
1!
1H
0:
1E
18!
11!
0/!
0F
19!
1:!
#1790000
0!
0H
1:
#1795000
1!
1H
0:
07!
05!
00!
0E
0A
08!
06!
04!
0G
09!
01!
0:!
1F
#1800000
0!
0H
1:
#1805000
1!
1H
0:
1E
1/!
0F
#1810000
0!
0H
1:
#1815000
1!
1H
0:
10!
0E
1F
#1820000
0!
0H
1:
#1825000
1!
1H
0:
1E
11!
0/!
0F
#1830000
0!
0H
1:
#1835000
1!
1H
0:
12!
00!
0E
1F
#1840000
0!
0H
1:
#1845000
1!
1H
0:
1E
1/!
0F
#1850000
0!
0H
1:
#1855000
1!
1H
0:
10!
0E
1F
#1860000
0!
0H
1:
#1865000
1!
1H
0:
1E
16!
13!
01!
0/!
0F
#1870000
0!
0H
1:
#1875000
1!
1H
0:
17!
02!
00!
0E
14!
03!
1F
04!
#1880000
0!
0H
1:
#1885000
1!
1H
0:
1E
1/!
0F
#1890000
0!
0H
1:
#1895000
1!
1H
0:
10!
0E
1F
#1900000
0!
0H
1:
#1905000
1!
1H
0:
1E
18!
11!
0/!
0F
#1910000
0!
0H
1:
#1915000
1!
1H
0:
12!
00!
0E
08!
1F
#1920000
0!
0H
1:
#1925000
1!
1H
0:
1E
1/!
0F
#1930000
0!
0H
1:
#1935000
1!
1H
0:
10!
0E
1F
#1940000
0!
0H
1:
#1945000
1!
1H
0:
1E
06!
13!
01!
0/!
0F
14!
#1950000
0!
0H
1:
#1955000
1!
1H
0:
07!
15!
02!
00!
0E
03!
1F
#1960000
0!
0H
1:
#1965000
1!
1H
0:
1E
1/!
0F
#1970000
0!
0H
1:
#1975000
1!
1H
0:
10!
0E
1F
#1980000
0!
0H
1:
#1985000
1!
1H
0:
1E
11!
0/!
0F
#1990000
0!
0H
1:
#1995000
1!
1H
0:
12!
00!
0E
1F
#2000000
1"
0!
1I
0H
1:
1L
0J
#2005000
1!
1H
0:
1E
1/!
0F
#2010000
0!
0H
1:
#2015000
1!
1H
0:
10!
0E
1F
#2020000
0!
0H
1:
#2025000
1!
1H
0:
1E
16!
13!
01!
0/!
0F
#2030000
0!
0H
1:
#2035000
1!
1H
0:
17!
02!
00!
0E
04!
1G
03!
1F
14!
0G
#2040000
0!
0H
1:
#2045000
1!
1H
0:
1E
1/!
0F
#2050000
0!
0H
1:
#2055000
1!
1H
0:
10!
0E
1F
#2060000
0!
0H
1:
#2065000
1!
1H
0:
1E
18!
11!
0/!
0F
#2070000
0!
0H
1:
#2075000
1!
1H
0:
12!
00!
0E
08!
1F
#2080000
0!
0H
1:
#2085000
1!
1H
0:
1E
1/!
0F
#2090000
0!
0H
1:
#2095000
1!
1H
0:
10!
0E
1F
#2100000
0!
0H
1:
#2105000
1!
1H
0:
1E
06!
13!
01!
0/!
0F
04!
1G
#2110000
0!
0H
1:
#2115000
1!
1H
0:
07!
05!
02!
00!
0E
1A
03!
1F
#2120000
0!
0H
1:
#2125000
1!
1H
0:
1E
1/!
0F
#2130000
0!
0H
1:
#2135000
1!
1H
0:
10!
0E
1F
#2140000
0!
0H
1:
#2145000
1!
1H
0:
1E
11!
0/!
0F
#2150000
0!
0H
1:
#2155000
1!
1H
0:
12!
00!
0E
1F
#2160000
0!
0H
1:
#2165000
1!
1H
0:
1E
1/!
0F
#2170000
0!
0H
1:
#2175000
1!
1H
0:
10!
0E
1F
#2180000
0!
0H
1:
#2185000
1!
1H
0:
1E
16!
13!
01!
0/!
0F
#2190000
0!
0H
1:
#2195000
1!
1H
0:
17!
02!
00!
0E
14!
03!
1F
04!
#2200000
0!
0H
1:
#2205000
1!
1H
0:
1E
1/!
0F
#2210000
0!
0H
1:
#2215000
1!
1H
0:
10!
0E
1F
#2220000
0!
0H
1:
#2225000
1!
1H
0:
1E
18!
11!
0/!
0F
#2230000
0!
0H
1:
#2235000
1!
1H
0:
12!
00!
0E
08!
1F
#2240000
0!
0H
1:
#2245000
1!
1H
0:
1E
1/!
0F
#2250000
0!
0H
1:
#2255000
1!
1H
0:
10!
0E
1F
#2260000
0!
0H
1:
#2265000
1!
1H
0:
1E
06!
13!
01!
0/!
0F
14!
#2270000
0!
0H
1:
#2275000
1!
1H
0:
07!
15!
02!
00!
0E
03!
1F
#2280000
0!
0H
1:
#2285000
1!
1H
0:
1E
1/!
0F
#2290000
0!
0H
1:
#2295000
1!
1H
0:
10!
0E
1F
#2300000
0!
0H
1:
#2305000
1!
1H
0:
1E
11!
0/!
0F
#2310000
0!
0H
1:
#2315000
1!
1H
0:
12!
00!
0E
1F
#2320000
0!
0H
1:
#2325000
1!
1H
0:
1E
1/!
0F
#2330000
0!
0H
1:
#2335000
1!
1H
0:
10!
0E
1F
#2340000
0!
0H
1:
#2345000
1!
1H
0:
1E
16!
13!
01!
0/!
0F
#2350000
0!
0H
1:
#2355000
1!
1H
0:
17!
02!
00!
0E
04!
0G
03!
1F
14!
1G
#2360000
0!
0H
1:
#2365000
1!
1H
0:
1E
1/!
0F
#2370000
0!
0H
1:
#2375000
1!
1H
0:
10!
0E
1F
#2380000
0!
0H
1:
#2385000
1!
1H
0:
1E
18!
11!
0/!
0F
19!
1:!
1M
0K
1J
17
08
#2390000
0!
0H
1:
#2395000
1!
1H
0:
07!
05!
00!
0E
0A
08!
06!
04!
0G
09!
01!
0:!
1F
#2400000
0!
0H
1:
#2405000
1!
1H
0:
1E
1/!
0F
#2410000
0!
0H
1:
#2415000
1!
1H
0:
10!
0E
1F
#2420000
0!
0H
1:
#2425000
1!
1H
0:
1E
11!
0/!
0F
#2430000
0!
0H
1:
#2435000
1!
1H
0:
12!
00!
0E
1F
#2440000
0!
0H
1:
#2445000
1!
1H
0:
1E
1/!
0F
#2450000
0!
0H
1:
#2455000
1!
1H
0:
10!
0E
1F
#2460000
0!
0H
1:
#2465000
1!
1H
0:
1E
16!
13!
01!
0/!
0F
#2470000
0!
0H
1:
#2475000
1!
1H
0:
17!
02!
00!
0E
14!
03!
1F
04!
#2480000
0!
0H
1:
#2485000
1!
1H
0:
1E
1/!
0F
#2490000
0!
0H
1:
#2495000
1!
1H
0:
10!
0E
1F
#2500000
0"
0!
0I
0H
1:
0J
#2505000
1!
1H
0:
1E
18!
11!
0/!
0F
#2510000
0!
0H
1:
#2515000
1!
1H
0:
12!
00!
0E
08!
1F
#2520000
0!
0H
1:
#2525000
1!
1H
0:
1E
1/!
0F
#2530000
0!
0H
1:
#2535000
1!
1H
0:
10!
0E
1F
#2540000
0!
0H
1:
#2545000
1!
1H
0:
1E
06!
13!
01!
0/!
0F
14!
#2550000
0!
0H
1:
