Processador/Control Unit/Controller/simulation/qsim/controle.msim.vcd
$comment
	File created using the following command:
		vcd file controle.msim.vcd -direction
$end
$date
	Wed Jul 19 05:52:51 2023
$end
$version
	ModelSim Version 10.1d
$end
$timescale
	1ps
$end
$scope module controle_vlg_vec_tst $end
$var reg 1 ! clock $end
$var reg 1 " comp_ab $end
$var reg 16 # ir [15:0] $end
$var reg 1 $ rf_rp_zero $end
$var wire 1 % alu_s0 $end
$var wire 1 & alu_s1 $end
$var wire 1 ' d_addr [7] $end
$var wire 1 ( d_addr [6] $end
$var wire 1 ) d_addr [5] $end
$var wire 1 * d_addr [4] $end
$var wire 1 + d_addr [3] $end
$var wire 1 , d_addr [2] $end
$var wire 1 - d_addr [1] $end
$var wire 1 . d_addr [0] $end
$var wire 1 / d_rd $end
$var wire 1 0 d_wr $end
$var wire 1 1 i_rd $end
$var wire 1 2 ir_ld $end
$var wire 1 3 pc_clr $end
$var wire 1 4 pc_inc $end
$var wire 1 5 pc_ld $end
$var wire 1 6 rf_rp_addr [3] $end
$var wire 1 7 rf_rp_addr [2] $end
$var wire 1 8 rf_rp_addr [1] $end
$var wire 1 9 rf_rp_addr [0] $end
$var wire 1 : rf_rp_rd $end
$var wire 1 ; rf_rq_addr [3] $end
$var wire 1 < rf_rq_addr [2] $end
$var wire 1 = rf_rq_addr [1] $end
$var wire 1 > rf_rq_addr [0] $end
$var wire 1 ? rf_rq_rd $end
$var wire 1 @ rf_s0 $end
$var wire 1 A rf_s1 $end
$var wire 1 B rf_w_addr [3] $end
$var wire 1 C rf_w_addr [2] $end
$var wire 1 D rf_w_addr [1] $end
$var wire 1 E rf_w_addr [0] $end
$var wire 1 F rf_w_data [7] $end
$var wire 1 G rf_w_data [6] $end
$var wire 1 H rf_w_data [5] $end
$var wire 1 I rf_w_data [4] $end
$var wire 1 J rf_w_data [3] $end
$var wire 1 K rf_w_data [2] $end
$var wire 1 L rf_w_data [1] $end
$var wire 1 M rf_w_data [0] $end
$var wire 1 N rf_w_wr $end
$var wire 1 O sampler $end
$scope module i1 $end
$var wire 1 P gnd $end
$var wire 1 Q vcc $end
$var wire 1 R unknown $end
$var tri1 1 S devclrn $end
$var tri1 1 T devpor $end
$var tri1 1 U devoe $end
$var wire 1 V ctr|cl|n3~0_combout $end
$var wire 1 W ctr|cl|n1~1_combout $end
$var wire 1 X rf_rp_zero~combout $end
$var wire 1 Y ctr|cl|n0~0_combout $end
$var wire 1 Z ctr|cl|n0~8_combout $end
$var wire 1 [ ctr|cl|ir_ld~0_combout $end
$var wire 1 \ comp_ab~combout $end
$var wire 1 ] ctr|cl|n1~0_combout $end
$var wire 1 ^ ctr|cl|n1~2_combout $end
$var wire 1 _ ctr|cl|n1~3_combout $end
$var wire 1 ` ctr|reg|FF1|q_reg~regout $end
$var wire 1 a ctr|cl|n0~4_combout $end
$var wire 1 b ctr|cl|n0~5_combout $end
$var wire 1 c ctr|cl|n0~2_combout $end
$var wire 1 d ctr|cl|n0~3_combout $end
$var wire 1 e ctr|cl|n0~1_combout $end
$var wire 1 f ctr|cl|n0~6_combout $end
$var wire 1 g ctr|reg|FF0|q_reg~regout $end
$var wire 1 h ctr|cl|n0~7_combout $end
$var wire 1 i ctr|cl|n3~1_combout $end
$var wire 1 j ctr|cl|n3~combout $end
$var wire 1 k ctr|reg|FF3|q_reg~regout $end
$var wire 1 l ctr|cl|n0~9_combout $end
$var wire 1 m ctr|cl|n2~0_combout $end
$var wire 1 n ctr|reg|FF2|q_reg~regout $end
$var wire 1 o ctr|cl|pc_ld~0_combout $end
$var wire 1 p ctr|cl|pc_clr~0_combout $end
$var wire 1 q ctr|cl|pc_inc~combout $end
$var wire 1 r ctr|cl|rf_w_wr~0_combout $end
$var wire 1 s ctr|cl|rf_rp_rd~0_combout $end
$var wire 1 t ctr|cl|rf_rq_rd~0_combout $end
$var wire 1 u ctr|cl|rf_s0~0_combout $end
$var wire 1 v ctr|cl|rf_s1~0_combout $end
$var wire 1 w ctr|cl|d_wr~combout $end
$var wire 1 x ctr|cl|alu_s0~0_combout $end
$var wire 1 y clock~combout $end
$var wire 1 z clock~clkctrl_outclk $end
$var wire 1 { dp|Rc|FF0|q_reg~feeder_combout $end
$var wire 1 | dp|Rc|FF0|q_reg~regout $end
$var wire 1 } dp|Rc|FF1|q_reg~feeder_combout $end
$var wire 1 ~ dp|Rc|FF1|q_reg~regout $end
$var wire 1 !! dp|Rc|FF2|q_reg~feeder_combout $end
$var wire 1 "! dp|Rc|FF2|q_reg~regout $end
$var wire 1 #! dp|Rc|FF3|q_reg~feeder_combout $end
$var wire 1 $! dp|Rc|FF3|q_reg~regout $end
$var wire 1 %! dp|Ra|FF0|q_reg~feeder_combout $end
$var wire 1 &! dp|Ra|FF0|q_reg~regout $end
$var wire 1 '! dp|Ra|FF1|q_reg~feeder_combout $end
$var wire 1 (! dp|Ra|FF1|q_reg~regout $end
$var wire 1 )! dp|Ra|FF2|q_reg~feeder_combout $end
$var wire 1 *! dp|Ra|FF2|q_reg~regout $end
$var wire 1 +! dp|Ra|FF3|q_reg~feeder_combout $end
$var wire 1 ,! dp|Ra|FF3|q_reg~regout $end
$var wire 1 -! dp|Rb|FF0|q_reg~feeder_combout $end
$var wire 1 .! dp|Rb|FF0|q_reg~regout $end
$var wire 1 /! dp|Rb|FF1|q_reg~feeder_combout $end
$var wire 1 0! dp|Rb|FF1|q_reg~regout $end
$var wire 1 1! dp|Rb|FF2|q_reg~feeder_combout $end
$var wire 1 2! dp|Rb|FF2|q_reg~regout $end
$var wire 1 3! dp|Rb|FF3|q_reg~feeder_combout $end
$var wire 1 4! dp|Rb|FF3|q_reg~regout $end
$var wire 1 5! dp|d|FF0|q_reg~feeder_combout $end
$var wire 1 6! dp|d|FF0|q_reg~regout $end
$var wire 1 7! dp|d|FF1|q_reg~feeder_combout $end
$var wire 1 8! dp|d|FF1|q_reg~regout $end
$var wire 1 9! dp|d|FF2|q_reg~feeder_combout $end
$var wire 1 :! dp|d|FF2|q_reg~regout $end
$var wire 1 ;! dp|d|FF3|q_reg~feeder_combout $end
$var wire 1 <! dp|d|FF3|q_reg~regout $end
$var wire 1 =! dp|d|FF4|q_reg~feeder_combout $end
$var wire 1 >! dp|d|FF4|q_reg~regout $end
$var wire 1 ?! dp|d|FF5|q_reg~feeder_combout $end
$var wire 1 @! dp|d|FF5|q_reg~regout $end
$var wire 1 A! dp|d|FF6|q_reg~feeder_combout $end
$var wire 1 B! dp|d|FF6|q_reg~regout $end
$var wire 1 C! dp|d|FF7|q_reg~feeder_combout $end
$var wire 1 D! dp|d|FF7|q_reg~regout $end
$var wire 1 E! ir~combout [15] $end
$var wire 1 F! ir~combout [14] $end
$var wire 1 G! ir~combout [13] $end
$var wire 1 H! ir~combout [12] $end
$var wire 1 I! ir~combout [11] $end
$var wire 1 J! ir~combout [10] $end
$var wire 1 K! ir~combout [9] $end
$var wire 1 L! ir~combout [8] $end
$var wire 1 M! ir~combout [7] $end
$var wire 1 N! ir~combout [6] $end
$var wire 1 O! ir~combout [5] $end
$var wire 1 P! ir~combout [4] $end
$var wire 1 Q! ir~combout [3] $end
$var wire 1 R! ir~combout [2] $end
$var wire 1 S! ir~combout [1] $end
$var wire 1 T! ir~combout [0] $end
$upscope $end
$upscope $end
$enddefinitions $end
#0
$dumpvars
0!
0"
b11000000000010 #
0$
0%
0&
0.
0-
0,
0+
0*
0)
0(
0'
0/
00
01
02
13
04
05
09
08
07
06
0:
0>
0=
0<
0;
0?
0@
0A
0E
0D
0C
0B
0M
0L
0K
0J
0I
0H
0G
0F
0N
xO
0P
1Q
xR
1S
1T
1U
0V
0W
0X
0Y
0Z
0[
0\
0]
0^
0_
0`
0a
0b
1c
0d
0e
1f
0g
0h
0i
0j
0k
0l
0m
0n
0o
0p
0q
0r
0s
0t
0u
0v
1w
0x
0y
0z
0{
0|
1}
0~
0!!
0"!
0#!
0$!
0%!
0&!
0'!
0(!
0)!
0*!
0+!
0,!
0-!
0.!
0/!
00!
01!
02!
03!
04!
05!
06!
17!
08!
09!
0:!
0;!
0<!
0=!
0>!
0?!
0@!
0A!
0B!
0C!
0D!
0T!
1S!
0R!
0Q!
0P!
0O!
0N!
0M!
0L!
0K!
0J!
0I!
1H!
1G!
0F!
0E!
$end
#10000
1!
1y
1z
0O
18!
1~
1g
1p
1b
1[
1-
1L
1D
0f
1q
1^
11
12
03
1_
14
#20000
0!
0y
0z
1O
#30000
1!
1y
1z
0O
0g
1`
0b
0[
1Y
1a
1f
0q
0^
1Z
1b
01
02
1m
0f
04
#40000
0!
0y
0z
1O
#50000
1!
1y
1z
0O
1n
1v
1r
0b
0Y
1f
0Z
1A
1N
0m
0_
#60000
0!
0y
0z
1O
#70000
1!
1y
1z
0O
0n
1g
0`
0v
0r
1[
0a
1q
1^
1b
0A
0N
11
12
1_
0f
14
#80000
0!
0y
0z
1O
#90000
1!
1y
1z
0O
0g
1`
0b
0[
1Y
1a
1f
0q
0^
1Z
1b
01
02
1m
0f
04
#100000
0!
0y
0z
1O
#110000
1!
1y
1z
0O
1n
1v
1r
0b
0Y
1f
0Z
1A
1N
0m
0_
#120000
0!
0y
0z
1O
#130000
1!
1y
1z
0O
0n
1g
0`
0v
0r
1[
0a
1q
1^
1b
0A
0N
11
12
1_
0f
14
#140000
0!
0y
0z
1O
#150000
1!
1y
1z
0O
0g
1`
0b
0[
1Y
1a
1f
0q
0^
1Z
1b
01
02
1m
0f
04
#160000
0!
0y
0z
1O
#170000
1!
1y
1z
0O
1n
1v
1r
0b
0Y
1f
0Z
1A
1N
0m
0_
#180000
0!
0y
0z
1O
#190000
1!
1y
1z
0O
0n
1g
0`
0v
0r
1[
0a
1q
1^
1b
0A
0N
11
12
1_
0f
14
#200000
0!
0y
0z
1O
#210000
1!
1y
1z
0O
0g
1`
0b
0[
1Y
1a
1f
0q
0^
1Z
1b
01
02
1m
0f
04
#220000
0!
0y
0z
1O
#230000
1!
1y
1z
0O
1n
1v
1r
0b
0Y
1f
0Z
1A
1N
0m
0_
#240000
0!
0y
0z
1O
#250000
1!
1y
1z
0O
0n
1g
0`
0v
0r
1[
0a
1q
1^
1b
0A
0N
11
12
1_
0f
14
#260000
0!
0y
0z
1O
#270000
1!
1y
1z
0O
0g
1`
0b
0[
1Y
1a
1f
0q
0^
1Z
1b
01
02
1m
0f
04
#280000
0!
0y
0z
1O
#290000
1!
1y
1z
0O
1n
1v
1r
0b
0Y
1f
0Z
1A
1N
0m
0_
#300000
0!
0y
0z
1O
#310000
1!
1y
1z
0O
0n
1g
0`
0v
0r
1[
0a
1q
1^
1b
0A
0N
11
12
1_
0f
14
#320000
0!
0y
0z
1O
#330000
1!
1y
1z
0O
0g
1`
0b
0[
1Y
1a
1f
0q
0^
1Z
1b
01
02
1m
0f
04
#340000
0!
0y
0z
1O
#350000
1!
1y
1z
0O
1n
1v
1r
0b
0Y
1f
0Z
1A
1N
0m
0_
#360000
0!
0y
0z
1O
#370000
1!
1y
1z
0O
0n
1g
0`
0v
0r
1[
0a
1q
1^
1b
0A
0N
11
12
1_
0f
14
#380000
0!
0y
0z
1O
#390000
1!
1y
1z
0O
0g
1`
0b
0[
1Y
1a
1f
0q
0^
1Z
1b
01
02
1m
0f
04
#400000
0!
0y
0z
1O
#410000
1!
1y
1z
0O
1n
1v
1r
0b
0Y
1f
0Z
1A
1N
0m
0_
#420000
0!
0y
0z
1O
#430000
1!
1y
1z
0O
0n
1g
0`
0v
0r
1[
0a
1q
1^
1b
0A
0N
11
12
1_
0f
14
#440000
0!
0y
0z
1O
#450000
1!
1y
1z
0O
0g
1`
0b
0[
1Y
1a
1f
0q
0^
1Z
1b
01
02
1m
0f
04
#460000
0!
0y
0z
1O
#470000
1!
1y
1z
0O
1n
1v
1r
0b
0Y
1f
0Z
1A
1N
0m
0_
#480000
0!
0y
0z
1O
#490000
1!
1y
1z
0O
0n
1g
0`
0v
0r
1[
0a
1q
1^
1b
0A
0N
11
12
1_
0f
14
#500000
0!
0y
0z
1O
#510000
1!
1y
1z
0O
0g
1`
0b
0[
1Y
1a
1f
0q
0^
1Z
1b
01
02
1m
0f
04
#520000
0!
0y
0z
1O
#530000
1!
1y
1z
0O
1n
1v
1r
0b
0Y
1f
0Z
1A
1N
0m
0_
#540000
0!
0y
0z
1O
#550000
1!
1y
1z
0O
0n
1g
0`
0v
0r
1[
0a
1q
1^
1b
0A
0N
11
12
1_
0f
14
#560000
0!
0y
0z
1O
#570000
1!
1y
1z
0O
0g
1`
0b
0[
1Y
1a
1f
0q
0^
1Z
1b
01
02
1m
0f
04
#580000
0!
0y
0z
1O
#590000
1!
1y
1z
0O
1n
1v
1r
0b
0Y
1f
0Z
1A
1N
0m
0_
#600000
0!
0y
0z
1O
#610000
1!
1y
1z
0O
0n
1g
0`
0v
0r
1[
0a
1q
1^
1b
0A
0N
11
12
1_
0f
14
#620000
0!
0y
0z
1O
#630000
1!
1y
1z
0O
0g
1`
0b
0[
1Y
1a
1f
0q
0^
1Z
1b
01
02
1m
0f
04
#640000
0!
0y
0z
1O
#650000
1!
1y
1z
0O
1n
1v
1r
0b
0Y
1f
0Z
1A
1N
0m
0_
#660000
0!
0y
0z
1O
#670000
1!
1y
1z
0O
0n
1g
0`
0v
0r
1[
0a
1q
1^
1b
0A
0N
11
12
1_
0f
14
#680000
0!
0y
0z
1O
#690000
1!
1y
1z
0O
0g
1`
0b
0[
1Y
1a
1f
0q
0^
1Z
1b
01
02
1m
0f
04
#700000
0!
0y
0z
1O
#710000
1!
1y
1z
0O
1n
1v
1r
0b
0Y
1f
0Z
1A
1N
0m
0_
#720000
0!
0y
0z
1O
#730000
1!
1y
1z
0O
0n
1g
0`
0v
0r
1[
0a
1q
1^
1b
0A
0N
11
12
1_
0f
14
#740000
0!
0y
0z
1O
#750000
1!
1y
1z
0O
0g
1`
0b
0[
1Y
1a
1f
0q
0^
1Z
1b
01
02
1m
0f
04
#760000
0!
0y
0z
1O
#770000
1!
1y
1z
0O
1n
1v
1r
0b
0Y
1f
0Z
1A
1N
0m
0_
#780000
0!
0y
0z
1O
#790000
1!
1y
1z
0O
0n
1g
0`
0v
0r
1[
0a
1q
1^
1b
0A
0N
11
12
1_
0f
14
#800000
0!
0y
0z
1O
#810000
1!
1y
1z
0O
0g
1`
0b
0[
1Y
1a
1f
0q
0^
1Z
1b
01
02
1m
0f
04
#820000
0!
0y
0z
1O
#830000
1!
1y
1z
0O
1n
1v
1r
0b
0Y
1f
0Z
1A
1N
0m
0_
#840000
0!
0y
0z
1O
#850000
1!
1y
1z
0O
0n
1g
0`
0v
0r
1[
0a
1q
1^
1b
0A
0N
11
12
1_
0f
14
#860000
0!
0y
0z
1O
#870000
1!
1y
1z
0O
0g
1`
0b
0[
1Y
1a
1f
0q
0^
1Z
1b
01
02
1m
0f
04
#880000
0!
0y
0z
1O
#890000
1!
1y
1z
0O
1n
1v
1r
0b
0Y
1f
0Z
1A
1N
0m
0_
#900000
0!
0y
0z
1O
#910000
1!
1y
1z
0O
0n
1g
0`
0v
0r
1[
0a
1q
1^
1b
0A
0N
11
12
1_
0f
14
#920000
0!
0y
0z
1O
#930000
1!
1y
1z
0O
0g
1`
0b
0[
1Y
1a
1f
0q
0^
1Z
1b
01
02
1m
0f
04
#940000
0!
0y
0z
1O
#950000
1!
1y
1z
0O
1n
1v
1r
0b
0Y
1f
0Z
1A
1N
0m
0_
#960000
0!
0y
0z
1O
#970000
1!
1y
1z
0O
0n
1g
0`
0v
0r
1[
0a
1q
1^
1b
0A
0N
11
12
1_
0f
14
#980000
0!
0y
0z
1O
#990000
1!
1y
1z
0O
0g
1`
0b
0[
1Y
1a
1f
0q
0^
1Z
1b
01
02
1m
0f
04
