Processador/Control Unit/Controller/Controller/simulation/qsim/controlador.msim.vcd
$comment
	File created using the following command:
		vcd file controlador.msim.vcd -direction
$end
$date
	Tue Jul 18 23:28:16 2023
$end
$version
	ModelSim Version 10.1d
$end
$timescale
	1ps
$end
$scope module controlador_vlg_vec_tst $end
$var reg 1 ! clk $end
$var reg 1 " comp_ab $end
$var reg 1 # op0 $end
$var reg 1 $ op1 $end
$var reg 1 % op2 $end
$var reg 1 & op3 $end
$var reg 1 ' rf_rp_zero $end
$var wire 1 ( alu_s0 $end
$var wire 1 ) alu_s1 $end
$var wire 1 * d_rd $end
$var wire 1 + d_wr $end
$var wire 1 , i_rd $end
$var wire 1 - ir_ld $end
$var wire 1 . pc_clr $end
$var wire 1 / pc_inc $end
$var wire 1 0 pc_ld $end
$var wire 1 1 rf_rp_rd $end
$var wire 1 2 rf_rq_rd $end
$var wire 1 3 rf_s0 $end
$var wire 1 4 rf_s1 $end
$var wire 1 5 rf_w_wr $end
$var wire 1 6 sampler $end
$scope module i1 $end
$var wire 1 7 gnd $end
$var wire 1 8 vcc $end
$var wire 1 9 unknown $end
$var tri1 1 : devclrn $end
$var tri1 1 ; devpor $end
$var tri1 1 < devoe $end
$var wire 1 = cl|n0~2_combout $end
$var wire 1 > cl|n3~0_combout $end
$var wire 1 ? cl|n0~7_combout $end
$var wire 1 @ cl|n1~1_combout $end
$var wire 1 A clk~combout $end
$var wire 1 B clk~clkctrl_outclk $end
$var wire 1 C rf_rp_zero~combout $end
$var wire 1 D op2~combout $end
$var wire 1 E comp_ab~combout $end
$var wire 1 F cl|n0~1_combout $end
$var wire 1 G op0~combout $end
$var wire 1 H cl|n0~3_combout $end
$var wire 1 I cl|n0~8_combout $end
$var wire 1 J op1~combout $end
$var wire 1 K op3~combout $end
$var wire 1 L cl|n1~0_combout $end
$var wire 1 M cl|ir_ld~0_combout $end
$var wire 1 N cl|n1~2_combout $end
$var wire 1 O cl|n1~3_combout $end
$var wire 1 P reg|FF1|q_reg~regout $end
$var wire 1 Q cl|n0~4_combout $end
$var wire 1 R cl|n0~5_combout $end
$var wire 1 S cl|n0~6_combout $end
$var wire 1 T reg|FF0|q_reg~regout $end
$var wire 1 U cl|n0~9_combout $end
$var wire 1 V cl|n2~0_combout $end
$var wire 1 W reg|FF2|q_reg~regout $end
$var wire 1 X cl|n0~0_combout $end
$var wire 1 Y cl|n3~1_combout $end
$var wire 1 Z cl|n3~combout $end
$var wire 1 [ reg|FF3|q_reg~regout $end
$var wire 1 \ cl|pc_ld~0_combout $end
$var wire 1 ] cl|pc_clr~0_combout $end
$var wire 1 ^ cl|pc_inc~combout $end
$var wire 1 _ cl|rf_w_wr~0_combout $end
$var wire 1 ` cl|rf_rp_rd~0_combout $end
$var wire 1 a cl|rf_rq_rd~0_combout $end
$var wire 1 b cl|rf_s0~0_combout $end
$var wire 1 c cl|rf_s1~0_combout $end
$var wire 1 d cl|d_wr~combout $end
$var wire 1 e cl|alu_s0~0_combout $end
$upscope $end
$upscope $end
$enddefinitions $end
#0
$dumpvars
0!
1"
0#
1$
1%
0&
0'
0(
0)
0*
0+
0,
0-
1.
1/
00
01
02
03
04
05
x6
07
18
x9
1:
1;
1<
0=
1>
0?
1@
0A
0B
0C
1D
1E
0F
0G
0H
0I
1J
0K
1L
0M
0N
0O
0P
0Q
0R
1S
0T
0U
0V
0W
0X
0Y
0Z
0[
0\
0]
1^
0_
0`
0a
0b
0c
1d
0e
$end
#5000
1!
1A
1B
06
1T
1]
1R
1M
0S
1N
1,
1-
0.
1O
#10000
0!
0A
0B
16
#15000
1!
1A
1B
06
0T
1P
1X
0R
0M
1Q
1Y
1U
1S
1R
0,
0-
1Z
0S
#20000
0!
0A
0B
16
#25000
1!
1A
1B
06
1[
1a
1`
0Y
0U
1S
0Q
1F
0R
12
11
#30000
0!
0A
0B
16
#35000
1!
1A
1B
06
1T
0a
1\
0X
1R
0N
0F
02
10
0O
0Z
#40000
0!
0A
0B
16
#45000
1!
1A
1B
06
0[
0P
0`
0\
0S
1M
1N
01
00
1,
1-
1O
#50000
0!
0A
0B
16
#55000
1!
1A
1B
06
0T
1P
1X
0R
0M
1Q
1Y
1U
1S
1R
0,
0-
1Z
0S
#60000
0!
0A
0B
16
#65000
1!
1A
1B
06
1[
1a
1`
0Y
0U
1S
0Q
1F
0R
12
11
#70000
0!
0A
0B
16
#75000
1!
1A
1B
06
1T
0a
1\
0X
1R
0N
0F
02
10
0O
0Z
#80000
0!
0A
0B
16
#85000
1!
1A
1B
06
0[
0P
0`
0\
0S
1M
1N
01
00
1,
1-
1O
#90000
0!
0A
0B
16
#95000
1!
1A
1B
06
0T
1P
1X
0R
0M
1Q
1Y
1U
1S
1R
0,
0-
1Z
0S
#100000
0!
0A
0B
16
#105000
1!
1A
1B
06
1[
1a
1`
0Y
0U
1S
0Q
1F
0R
12
11
#110000
0!
0A
0B
16
#115000
1!
1A
1B
06
1T
0a
1\
0X
1R
0N
0F
02
10
0O
0Z
#120000
0!
0A
0B
16
#125000
1!
1A
1B
06
0[
0P
0`
0\
0S
1M
1N
01
00
1,
1-
1O
#130000
0!
0A
0B
16
#135000
1!
1A
1B
06
0T
1P
1X
0R
0M
1Q
1Y
1U
1S
1R
0,
0-
1Z
0S
#140000
0!
0A
0B
16
#145000
1!
1A
1B
06
1[
1a
1`
0Y
0U
1S
0Q
1F
0R
12
11
#150000
0!
0A
0B
16
#155000
1!
1A
1B
06
1T
0a
1\
0X
1R
0N
0F
02
10
0O
0Z
#160000
0!
0A
0B
16
#165000
1!
1A
1B
06
0[
0P
0`
0\
0S
1M
1N
01
00
1,
1-
1O
#170000
0!
0A
0B
16
#175000
1!
1A
1B
06
0T
1P
1X
0R
0M
1Q
1Y
1U
1S
1R
0,
0-
1Z
0S
#180000
0!
0A
0B
16
#185000
1!
1A
1B
06
1[
1a
1`
0Y
0U
1S
0Q
1F
0R
12
11
#190000
0!
0A
0B
16
#195000
1!
1A
1B
06
1T
0a
1\
0X
1R
0N
0F
02
10
0O
0Z
#200000
0!
0A
0B
16
#205000
1!
1A
1B
06
0[
0P
0`
0\
0S
1M
1N
01
00
1,
1-
1O
#210000
0!
0A
0B
16
#215000
1!
1A
1B
06
0T
1P
1X
0R
0M
1Q
1Y
1U
1S
1R
0,
0-
1Z
0S
#220000
0!
0A
0B
16
#225000
1!
1A
1B
06
1[
1a
1`
0Y
0U
1S
0Q
1F
0R
12
11
#230000
0!
0A
0B
16
#235000
1!
1A
1B
06
1T
0a
1\
0X
1R
0N
0F
02
10
0O
0Z
#240000
0!
0A
0B
16
#245000
1!
1A
1B
06
0[
0P
0`
0\
0S
1M
1N
01
00
1,
1-
1O
#250000
0!
0A
0B
16
#255000
1!
1A
1B
06
0T
1P
1X
0R
0M
1Q
1Y
1U
1S
1R
0,
0-
1Z
0S
#260000
0!
0A
0B
16
#265000
1!
1A
1B
06
1[
1a
1`
0Y
0U
1S
0Q
1F
0R
12
11
#270000
0!
0A
0B
16
#275000
1!
1A
1B
06
1T
0a
1\
0X
1R
0N
0F
02
10
0O
0Z
#280000
0!
0A
0B
16
#285000
1!
1A
1B
06
0[
0P
0`
0\
0S
1M
1N
01
00
1,
1-
1O
#290000
0!
0A
0B
16
#295000
1!
1A
1B
06
0T
1P
1X
0R
0M
1Q
1Y
1U
1S
1R
0,
0-
1Z
0S
#300000
0!
0A
0B
16
#305000
1!
1A
1B
06
1[
1a
1`
0Y
0U
1S
0Q
1F
0R
12
11
#310000
0!
0A
0B
16
#315000
1!
1A
1B
06
1T
0a
1\
0X
1R
0N
0F
02
10
0O
0Z
#320000
0!
0A
0B
16
#325000
1!
1A
1B
06
0[
0P
0`
0\
0S
1M
1N
01
00
1,
1-
1O
#330000
0!
0A
0B
16
#335000
1!
1A
1B
06
0T
1P
1X
0R
0M
1Q
1Y
1U
1S
1R
0,
0-
1Z
0S
#340000
0!
0A
0B
16
#345000
1!
1A
1B
06
1[
1a
1`
0Y
0U
1S
0Q
1F
0R
12
11
#350000
0!
0A
0B
16
#355000
1!
1A
1B
06
1T
0a
1\
0X
1R
0N
0F
02
10
0O
0Z
#360000
0!
0A
0B
16
#365000
1!
1A
1B
06
0[
0P
0`
0\
0S
1M
1N
01
00
1,
1-
1O
#370000
0!
0A
0B
16
#375000
1!
1A
1B
06
0T
1P
1X
0R
0M
1Q
1Y
1U
1S
1R
0,
0-
1Z
0S
#380000
0!
0A
0B
16
#385000
1!
1A
1B
06
1[
1a
1`
0Y
0U
1S
0Q
1F
0R
12
11
#390000
0!
0A
0B
16
#395000
1!
1A
1B
06
1T
0a
1\
0X
1R
0N
0F
02
10
0O
0Z
#400000
0!
0A
0B
16
#405000
1!
1A
1B
06
0[
0P
0`
0\
0S
1M
1N
01
00
1,
1-
1O
#410000
0!
0A
0B
16
#415000
1!
1A
1B
06
0T
1P
1X
0R
0M
1Q
1Y
1U
1S
1R
0,
0-
1Z
0S
#420000
0!
0A
0B
16
#425000
1!
1A
1B
06
1[
1a
1`
0Y
0U
1S
0Q
1F
0R
12
11
#430000
0!
0A
0B
16
#435000
1!
1A
1B
06
1T
0a
1\
0X
1R
0N
0F
02
10
0O
0Z
#440000
0!
0A
0B
16
#445000
1!
1A
1B
06
0[
0P
0`
0\
0S
1M
1N
01
00
1,
1-
1O
#450000
0!
0A
0B
16
#455000
1!
1A
1B
06
0T
1P
1X
0R
0M
1Q
1Y
1U
1S
1R
0,
0-
1Z
0S
#460000
0!
0A
0B
16
#465000
1!
1A
1B
06
1[
1a
1`
0Y
0U
1S
0Q
1F
0R
12
11
#470000
0!
0A
0B
16
#475000
1!
1A
1B
06
1T
0a
1\
0X
1R
0N
0F
02
10
0O
0Z
#480000
0!
0A
0B
16
#485000
1!
1A
1B
06
0[
0P
0`
0\
0S
1M
1N
01
00
1,
1-
1O
#490000
0!
0A
0B
16
#495000
1!
1A
1B
06
0T
1P
1X
0R
0M
1Q
1Y
1U
1S
1R
0,
0-
1Z
0S
#500000
0!
0A
0B
16
#505000
1!
1A
1B
06
1[
1a
1`
0Y
0U
1S
0Q
1F
0R
12
11
#510000
0!
0A
0B
16
#515000
1!
1A
1B
06
1T
0a
1\
0X
1R
0N
0F
02
10
0O
0Z
#520000
0!
0A
0B
16
#525000
1!
1A
1B
06
0[
0P
0`
0\
0S
1M
1N
01
00
1,
1-
1O
#530000
0!
0A
0B
16
#535000
1!
1A
1B
06
0T
1P
1X
0R
0M
1Q
1Y
1U
1S
1R
0,
0-
1Z
0S
#540000
0!
0A
0B
16
#545000
1!
1A
1B
06
1[
1a
1`
0Y
0U
1S
0Q
1F
0R
12
11
#550000
0!
0A
0B
16
#555000
1!
1A
1B
06
1T
0a
1\
0X
1R
0N
0F
02
10
0O
0Z
#560000
0!
0A
0B
16
#565000
1!
1A
1B
06
0[
0P
0`
0\
0S
1M
1N
01
00
1,
1-
1O
#570000
0!
0A
0B
16
#575000
1!
1A
1B
06
0T
1P
1X
0R
0M
1Q
1Y
1U
1S
1R
0,
0-
1Z
0S
#580000
0!
0A
0B
16
#585000
1!
1A
1B
06
1[
1a
1`
0Y
0U
1S
0Q
1F
0R
12
11
#590000
0!
0A
0B
16
#595000
1!
1A
1B
06
1T
0a
1\
0X
1R
0N
0F
02
10
0O
0Z
#600000
0!
0A
0B
16
#605000
1!
1A
1B
06
0[
0P
0`
0\
0S
1M
1N
01
00
1,
1-
1O
#610000
0!
0A
0B
16
#615000
1!
1A
1B
06
0T
1P
1X
0R
0M
1Q
1Y
1U
1S
1R
0,
0-
1Z
0S
#620000
0!
0A
0B
16
#625000
1!
1A
1B
06
1[
1a
1`
0Y
0U
1S
0Q
1F
0R
12
11
#630000
0!
0A
0B
16
#635000
1!
1A
1B
06
1T
0a
1\
0X
1R
0N
0F
02
10
0O
0Z
#640000
0!
0A
0B
16
#645000
1!
1A
1B
06
0[
0P
0`
0\
0S
1M
1N
01
00
1,
1-
1O
#650000
0!
0A
0B
16
#655000
1!
1A
1B
06
0T
1P
1X
0R
0M
1Q
1Y
1U
1S
1R
0,
0-
1Z
0S
#660000
0!
0A
0B
16
#665000
1!
1A
1B
06
1[
1a
1`
0Y
0U
1S
0Q
1F
0R
12
11
#670000
0!
0A
0B
16
#675000
1!
1A
1B
06
1T
0a
1\
0X
1R
0N
0F
02
10
0O
0Z
#680000
0!
0A
0B
16
#685000
1!
1A
1B
06
0[
0P
0`
0\
0S
1M
1N
01
00
1,
1-
1O
#690000
0!
0A
0B
16
#695000
1!
1A
1B
06
0T
1P
1X
0R
0M
1Q
1Y
1U
1S
1R
0,
0-
1Z
0S
#700000
0!
0A
0B
16
#705000
1!
1A
1B
06
1[
1a
1`
0Y
0U
1S
0Q
1F
0R
12
11
#710000
0!
0A
0B
16
#715000
1!
1A
1B
06
1T
0a
1\
0X
1R
0N
0F
02
10
0O
0Z
#720000
0!
0A
0B
16
#725000
1!
1A
1B
06
0[
0P
0`
0\
0S
1M
1N
01
00
1,
1-
1O
#730000
0!
0A
0B
16
#735000
1!
1A
1B
06
0T
1P
1X
0R
0M
1Q
1Y
1U
1S
1R
0,
0-
1Z
0S
#740000
0!
0A
0B
16
#745000
1!
1A
1B
06
1[
1a
1`
0Y
0U
1S
0Q
1F
0R
12
11
#750000
0!
0A
0B
16
#755000
1!
1A
1B
06
1T
0a
1\
0X
1R
0N
0F
02
10
0O
0Z
#760000
0!
0A
0B
16
#765000
1!
1A
1B
06
0[
0P
0`
0\
0S
1M
1N
01
00
1,
1-
1O
#770000
0!
0A
0B
16
#775000
1!
1A
1B
06
0T
1P
1X
0R
0M
1Q
1Y
1U
1S
1R
0,
0-
1Z
0S
#780000
0!
0A
0B
16
#785000
1!
1A
1B
06
1[
1a
1`
0Y
0U
1S
0Q
1F
0R
12
11
#790000
0!
0A
0B
16
#795000
1!
1A
1B
06
1T
0a
1\
0X
1R
0N
0F
02
10
0O
0Z
#800000
0!
0A
0B
16
#805000
1!
1A
1B
06
0[
0P
0`
0\
0S
1M
1N
01
00
1,
1-
1O
#810000
0!
0A
0B
16
#815000
1!
1A
1B
06
0T
1P
1X
0R
0M
1Q
1Y
1U
1S
1R
0,
0-
1Z
0S
#820000
0!
0A
0B
16
#825000
1!
1A
1B
06
1[
1a
1`
0Y
0U
1S
0Q
1F
0R
12
11
#830000
0!
0A
0B
16
#835000
1!
1A
1B
06
1T
0a
1\
0X
1R
0N
0F
02
10
0O
0Z
#840000
0!
0A
0B
16
#845000
1!
1A
1B
06
0[
0P
0`
0\
0S
1M
1N
01
00
1,
1-
1O
#850000
0!
0A
0B
16
#855000
1!
1A
1B
06
0T
1P
1X
0R
0M
1Q
1Y
1U
1S
1R
0,
0-
1Z
0S
#860000
0!
0A
0B
16
#865000
1!
1A
1B
06
1[
1a
1`
0Y
0U
1S
0Q
1F
0R
12
11
#870000
0!
0A
0B
16
#875000
1!
1A
1B
06
1T
0a
1\
0X
1R
0N
0F
02
10
0O
0Z
#880000
0!
0A
0B
16
#885000
1!
1A
1B
06
0[
0P
0`
0\
0S
1M
1N
01
00
1,
1-
1O
#890000
0!
0A
0B
16
#895000
1!
1A
1B
06
0T
1P
1X
0R
0M
1Q
1Y
1U
1S
1R
0,
0-
1Z
0S
#900000
0!
0A
0B
16
#905000
1!
1A
1B
06
1[
1a
1`
0Y
0U
1S
0Q
1F
0R
12
11
#910000
0!
0A
0B
16
#915000
1!
1A
1B
06
1T
0a
1\
0X
1R
0N
0F
02
10
0O
0Z
#920000
0!
0A
0B
16
#925000
1!
1A
1B
06
0[
0P
0`
0\
0S
1M
1N
01
00
1,
1-
1O
#930000
0!
0A
0B
16
#935000
1!
1A
1B
06
0T
1P
1X
0R
0M
1Q
1Y
1U
1S
1R
0,
0-
1Z
0S
#940000
0!
0A
0B
16
#945000
1!
1A
1B
06
1[
1a
1`
0Y
0U
1S
0Q
1F
0R
12
11
#950000
0!
0A
0B
16
#955000
1!
1A
1B
06
1T
0a
1\
0X
1R
0N
0F
02
10
0O
0Z
#960000
0!
0A
0B
16
#965000
1!
1A
1B
06
0[
0P
0`
0\
0S
1M
1N
01
00
1,
1-
1O
#970000
0!
0A
0B
16
#975000
1!
1A
1B
06
0T
1P
1X
0R
0M
1Q
1Y
1U
1S
1R
0,
0-
1Z
0S
#980000
0!
0A
0B
16
#985000
1!
1A
1B
06
1[
1a
1`
0Y
0U
1S
0Q
1F
0R
12
11
#990000
0!
0A
0B
16
#995000
1!
1A
1B
06
1T
0a
1\
0X
1R
0N
0F
02
10
0O
0Z
