Processador/Control Unit/simulation/qsim/unid_control.msim.vcd
$comment
	File created using the following command:
		vcd file unid_control.msim.vcd -direction
$end
$date
	Wed Jul 19 05:45:02 2023
$end
$version
	ModelSim Version 10.1d
$end
$timescale
	1ps
$end
$scope module unid_control_vlg_vec_tst $end
$var reg 1 ! clk $end
$var reg 1 " comp_ab $end
$var reg 16 # data_rom [15:0] $end
$var reg 1 $ rf_rp_zero $end
$var wire 1 % alu_s0 $end
$var wire 1 & alu_s1 $end
$var wire 1 ' d_addr [7] $end
$var wire 1 ( d_addr [6] $end
$var wire 1 ) d_addr [5] $end
$var wire 1 * d_addr [4] $end
$var wire 1 + d_addr [3] $end
$var wire 1 , d_addr [2] $end
$var wire 1 - d_addr [1] $end
$var wire 1 . d_addr [0] $end
$var wire 1 / d_rd $end
$var wire 1 0 d_wr $end
$var wire 1 1 pc_addr [3] $end
$var wire 1 2 pc_addr [2] $end
$var wire 1 3 pc_addr [1] $end
$var wire 1 4 pc_addr [0] $end
$var wire 1 5 rd $end
$var wire 1 6 rf_rp_addr [3] $end
$var wire 1 7 rf_rp_addr [2] $end
$var wire 1 8 rf_rp_addr [1] $end
$var wire 1 9 rf_rp_addr [0] $end
$var wire 1 : rf_rp_rd $end
$var wire 1 ; rf_rq_addr [3] $end
$var wire 1 < rf_rq_addr [2] $end
$var wire 1 = rf_rq_addr [1] $end
$var wire 1 > rf_rq_addr [0] $end
$var wire 1 ? rf_rq_rd $end
$var wire 1 @ rf_s0 $end
$var wire 1 A rf_s1 $end
$var wire 1 B rf_w_addr [3] $end
$var wire 1 C rf_w_addr [2] $end
$var wire 1 D rf_w_addr [1] $end
$var wire 1 E rf_w_addr [0] $end
$var wire 1 F rf_w_data [7] $end
$var wire 1 G rf_w_data [6] $end
$var wire 1 H rf_w_data [5] $end
$var wire 1 I rf_w_data [4] $end
$var wire 1 J rf_w_data [3] $end
$var wire 1 K rf_w_data [2] $end
$var wire 1 L rf_w_data [1] $end
$var wire 1 M rf_w_data [0] $end
$var wire 1 N rf_w_wr $end
$var wire 1 O sampler $end
$scope module i1 $end
$var wire 1 P gnd $end
$var wire 1 Q vcc $end
$var wire 1 R unknown $end
$var tri1 1 S devclrn $end
$var tri1 1 T devpor $end
$var tri1 1 U devoe $end
$var wire 1 V ctrl0|ctr0|cl|n0~8_combout $end
$var wire 1 W comp_ab~combout $end
$var wire 1 X clk~combout $end
$var wire 1 Y clk~clkctrl_outclk $end
$var wire 1 Z ctrl0|ctr0|cl|ir_ld~0_combout $end
$var wire 1 [ ctrl0|ctr0|cl|n0~3_combout $end
$var wire 1 \ ctrl0|ctr0|cl|n1~0_combout $end
$var wire 1 ] ctrl0|ctr0|cl|n1~1_combout $end
$var wire 1 ^ ctrl0|ctr0|reg|FF1|q_reg~regout $end
$var wire 1 _ ctrl0|ctr0|cl|n0~5_combout $end
$var wire 1 ` ctrl0|ctr0|cl|n0~6_combout $end
$var wire 1 a ctrl0|ctr0|cl|n0~4_combout $end
$var wire 1 b ctrl0|ctr0|cl|n0~7_combout $end
$var wire 1 c ctrl0|ctr0|reg|FF0|q_reg~regout $end
$var wire 1 d ctrl0|ctr0|cl|n0~0_combout $end
$var wire 1 e ctrl0|ctr0|cl|n0~1_combout $end
$var wire 1 f rf_rp_zero~combout $end
$var wire 1 g ctrl0|ctr0|cl|n3~0_combout $end
$var wire 1 h ctrl0|ctr0|cl|n3~combout $end
$var wire 1 i ctrl0|ctr0|reg|FF3|q_reg~regout $end
$var wire 1 j ctrl0|ctr0|cl|n0~2_combout $end
$var wire 1 k ctrl0|ctr0|cl|n2~0_combout $end
$var wire 1 l ctrl0|ctr0|reg|FF2|q_reg~regout $end
$var wire 1 m pc0|counter[0]~2_combout $end
$var wire 1 n ctrl0|ctr0|cl|pc_clr~0_combout $end
$var wire 1 o ctrl0|ctr0|cl|pc_ld~0_combout $end
$var wire 1 p pc0|counter[1]~3_combout $end
$var wire 1 q pc0|counter[1]~4_combout $end
$var wire 1 r pc0|counter[2]~8_combout $end
$var wire 1 s pc0|counter[2]~5_combout $end
$var wire 1 t pc0|counter[3]~6_combout $end
$var wire 1 u pc0|counter[3]~7_combout $end
$var wire 1 v ctrl0|ctr0|cl|rf_w_wr~0_combout $end
$var wire 1 w ctrl0|ctr0|cl|rf_rp_rd~0_combout $end
$var wire 1 x ctrl0|ctr0|cl|rf_rq_rd~0_combout $end
$var wire 1 y ctrl0|ctr0|cl|rf_s0~0_combout $end
$var wire 1 z ctrl0|ctr0|cl|rf_s1~0_combout $end
$var wire 1 { ctrl0|ctr0|cl|d_wr~combout $end
$var wire 1 | ctrl0|ctr0|cl|alu_s0~0_combout $end
$var wire 1 } ctrl0|dp|Ra|FF0|q_reg~feeder_combout $end
$var wire 1 ~ ctrl0|dp|Ra|FF0|q_reg~regout $end
$var wire 1 !! ir0|IR_reg[9]~feeder_combout $end
$var wire 1 "! ctrl0|dp|Ra|FF1|q_reg~feeder_combout $end
$var wire 1 #! ctrl0|dp|Ra|FF1|q_reg~regout $end
$var wire 1 $! ir0|IR_reg[10]~feeder_combout $end
$var wire 1 %! ctrl0|dp|Ra|FF2|q_reg~feeder_combout $end
$var wire 1 &! ctrl0|dp|Ra|FF2|q_reg~regout $end
$var wire 1 '! ir0|IR_reg[11]~feeder_combout $end
$var wire 1 (! ctrl0|dp|Ra|FF3|q_reg~feeder_combout $end
$var wire 1 )! ctrl0|dp|Ra|FF3|q_reg~regout $end
$var wire 1 *! ir0|IR_reg[4]~feeder_combout $end
$var wire 1 +! ctrl0|dp|Rb|FF0|q_reg~feeder_combout $end
$var wire 1 ,! ctrl0|dp|Rb|FF0|q_reg~regout $end
$var wire 1 -! ctrl0|dp|Rb|FF1|q_reg~feeder_combout $end
$var wire 1 .! ctrl0|dp|Rb|FF1|q_reg~regout $end
$var wire 1 /! ir0|IR_reg[6]~feeder_combout $end
$var wire 1 0! ctrl0|dp|Rb|FF2|q_reg~feeder_combout $end
$var wire 1 1! ctrl0|dp|Rb|FF2|q_reg~regout $end
$var wire 1 2! ir0|IR_reg[7]~feeder_combout $end
$var wire 1 3! ctrl0|dp|Rb|FF3|q_reg~feeder_combout $end
$var wire 1 4! ctrl0|dp|Rb|FF3|q_reg~regout $end
$var wire 1 5! ctrl0|dp|Rc|FF0|q_reg~feeder_combout $end
$var wire 1 6! ctrl0|dp|Rc|FF0|q_reg~regout $end
$var wire 1 7! ctrl0|dp|Rc|FF1|q_reg~regout $end
$var wire 1 8! ir0|IR_reg[2]~feeder_combout $end
$var wire 1 9! ctrl0|dp|Rc|FF2|q_reg~feeder_combout $end
$var wire 1 :! ctrl0|dp|Rc|FF2|q_reg~regout $end
$var wire 1 ;! ir0|IR_reg[3]~feeder_combout $end
$var wire 1 <! ctrl0|dp|Rc|FF3|q_reg~feeder_combout $end
$var wire 1 =! ctrl0|dp|Rc|FF3|q_reg~regout $end
$var wire 1 >! ctrl0|dp|d|FF0|q_reg~feeder_combout $end
$var wire 1 ?! ctrl0|dp|d|FF0|q_reg~regout $end
$var wire 1 @! ctrl0|dp|d|FF1|q_reg~regout $end
$var wire 1 A! ctrl0|dp|d|FF2|q_reg~feeder_combout $end
$var wire 1 B! ctrl0|dp|d|FF2|q_reg~regout $end
$var wire 1 C! ctrl0|dp|d|FF3|q_reg~feeder_combout $end
$var wire 1 D! ctrl0|dp|d|FF3|q_reg~regout $end
$var wire 1 E! ctrl0|dp|d|FF4|q_reg~feeder_combout $end
$var wire 1 F! ctrl0|dp|d|FF4|q_reg~regout $end
$var wire 1 G! ctrl0|dp|d|FF5|q_reg~feeder_combout $end
$var wire 1 H! ctrl0|dp|d|FF5|q_reg~regout $end
$var wire 1 I! ctrl0|dp|d|FF6|q_reg~feeder_combout $end
$var wire 1 J! ctrl0|dp|d|FF6|q_reg~regout $end
$var wire 1 K! ctrl0|dp|d|FF7|q_reg~feeder_combout $end
$var wire 1 L! ctrl0|dp|d|FF7|q_reg~regout $end
$var wire 1 M! data_rom~combout [15] $end
$var wire 1 N! data_rom~combout [14] $end
$var wire 1 O! data_rom~combout [13] $end
$var wire 1 P! data_rom~combout [12] $end
$var wire 1 Q! data_rom~combout [11] $end
$var wire 1 R! data_rom~combout [10] $end
$var wire 1 S! data_rom~combout [9] $end
$var wire 1 T! data_rom~combout [8] $end
$var wire 1 U! data_rom~combout [7] $end
$var wire 1 V! data_rom~combout [6] $end
$var wire 1 W! data_rom~combout [5] $end
$var wire 1 X! data_rom~combout [4] $end
$var wire 1 Y! data_rom~combout [3] $end
$var wire 1 Z! data_rom~combout [2] $end
$var wire 1 [! data_rom~combout [1] $end
$var wire 1 \! data_rom~combout [0] $end
$var wire 1 ]! ir0|IR_reg [15] $end
$var wire 1 ^! ir0|IR_reg [14] $end
$var wire 1 _! ir0|IR_reg [13] $end
$var wire 1 `! ir0|IR_reg [12] $end
$var wire 1 a! ir0|IR_reg [11] $end
$var wire 1 b! ir0|IR_reg [10] $end
$var wire 1 c! ir0|IR_reg [9] $end
$var wire 1 d! ir0|IR_reg [8] $end
$var wire 1 e! ir0|IR_reg [7] $end
$var wire 1 f! ir0|IR_reg [6] $end
$var wire 1 g! ir0|IR_reg [5] $end
$var wire 1 h! ir0|IR_reg [4] $end
$var wire 1 i! ir0|IR_reg [3] $end
$var wire 1 j! ir0|IR_reg [2] $end
$var wire 1 k! ir0|IR_reg [1] $end
$var wire 1 l! ir0|IR_reg [0] $end
$var wire 1 m! pc0|counter [3] $end
$var wire 1 n! pc0|counter [2] $end
$var wire 1 o! pc0|counter [1] $end
$var wire 1 p! pc0|counter [0] $end
$upscope $end
$upscope $end
$enddefinitions $end
#0
$dumpvars
0!
0"
b11000000000010 #
0$
0J!
0K!
0L!
0\!
1[!
0Z!
0Y!
0X!
0W!
0V!
0U!
0T!
0S!
0R!
0Q!
1P!
1O!
0N!
0M!
0l!
0k!
0j!
0i!
0h!
0g!
0f!
0e!
0d!
0c!
0b!
0a!
0`!
0_!
0^!
0]!
0p!
0o!
0n!
0m!
0%
0&
0.
0-
0,
0+
0*
0)
0(
0'
0/
00
04
03
02
01
05
09
08
07
06
0:
0>
0=
0<
0;
0?
0@
0A
0E
0D
0C
0B
0M
0L
0K
0J
0I
0H
0G
0F
0N
xO
0P
1Q
xR
1S
1T
1U
0V
0W
0X
0Y
0Z
0[
0\
0]
0^
0_
0`
0a
1b
0c
0d
0e
0f
0g
0h
0i
0j
0k
0l
0m
1n
0o
0p
0q
0r
0s
1t
0u
0v
0w
0x
0y
0z
1{
0|
0}
0~
0!!
0"!
0#!
0$!
0%!
0&!
0'!
0(!
0)!
0*!
0+!
0,!
0-!
0.!
0/!
00!
01!
02!
03!
04!
05!
06!
07!
08!
09!
0:!
0;!
0<!
0=!
0>!
0?!
0@!
0A!
0B!
0C!
0D!
0E!
0F!
0G!
0H!
0I!
$end
#5000
1!
1X
1Y
0O
1c
0n
1`
1Z
0b
1p
1\
15
1q
1]
#10000
0!
0X
0Y
1O
#15000
1!
1X
1Y
0O
1k!
1o!
1_!
0c
1^
1`!
0t
1s
0q
1d
0`
0Z
1_
13
1j
1b
0p
0\
1`
05
1k
0s
1q
0b
#20000
0!
0X
0Y
1O
#25000
1!
1X
1Y
0O
1@!
17!
1l
1z
1v
0d
0`
1-
1L
1=
0j
1b
1A
1N
0k
0]
#30000
0!
0X
0Y
1O
#35000
1!
1X
1Y
0O
0l
1c
0^
0z
0v
1Z
0_
1p
1\
1`
0A
0N
15
1s
0q
1]
0b
#40000
0!
0X
0Y
1O
#45000
1!
1X
1Y
0O
1n!
0o!
0c
1^
1u
1t
1q
1d
0`
0Z
1_
12
03
0u
1j
1b
0p
0\
1`
05
1k
0q
0b
#50000
0!
0X
0Y
1O
#55000
1!
1X
1Y
0O
1l
1z
1v
0d
0`
0j
1b
1A
1N
0k
0]
#60000
0!
0X
0Y
1O
#65000
1!
1X
1Y
0O
0l
1c
0^
0z
0v
1Z
0_
1p
1\
1`
0A
0N
15
1q
1]
0b
#70000
0!
0X
0Y
1O
#75000
1!
1X
1Y
0O
1o!
0c
1^
0t
0s
0q
1d
0`
0Z
1_
13
1u
1j
1b
0p
0\
1`
05
1k
0u
1s
1q
0b
#80000
0!
0X
0Y
1O
#85000
1!
1X
1Y
0O
1l
1z
1v
0d
0`
0j
1b
1A
1N
0k
0]
#90000
0!
0X
0Y
1O
#95000
1!
1X
1Y
0O
0l
1c
0^
0z
0v
1Z
0_
1p
1\
1`
0A
0N
15
1u
0s
0q
1]
0b
#100000
0!
0X
0Y
1O
#105000
1!
1X
1Y
0O
1m!
0n!
0o!
0c
1^
1t
1q
1d
0`
0Z
1_
11
02
03
1j
1b
0p
0\
1`
05
1k
0q
0b
#110000
0!
0X
0Y
1O
#115000
1!
1X
1Y
0O
1l
1z
1v
0d
0`
0j
1b
1A
1N
0k
0]
#120000
0!
0X
0Y
1O
#125000
1!
1X
1Y
0O
0l
1c
0^
0z
0v
1Z
0_
1p
1\
1`
0A
0N
15
1q
1]
0b
#130000
0!
0X
0Y
1O
#135000
1!
1X
1Y
0O
1o!
0c
1^
0t
1s
0q
1d
0`
0Z
1_
13
1j
1b
0p
0\
1`
05
1k
0s
1q
0b
#140000
0!
0X
0Y
1O
#145000
1!
1X
1Y
0O
1l
1z
1v
0d
0`
0j
1b
1A
1N
0k
0]
#150000
0!
0X
0Y
1O
#155000
1!
1X
1Y
0O
0l
1c
0^
0z
0v
1Z
0_
1p
1\
1`
0A
0N
15
1s
0q
1]
0b
#160000
0!
0X
0Y
1O
#165000
1!
1X
1Y
0O
1n!
0o!
0c
1^
0u
1t
1q
1d
0`
0Z
1_
12
03
1u
1j
1b
0p
0\
1`
05
1k
0q
0b
#170000
0!
0X
0Y
1O
#175000
1!
1X
1Y
0O
1l
1z
1v
0d
0`
0j
1b
1A
1N
0k
0]
#180000
0!
0X
0Y
1O
#185000
1!
1X
1Y
0O
0l
1c
0^
0z
0v
1Z
0_
1p
1\
1`
0A
0N
15
1q
1]
0b
#190000
0!
0X
0Y
1O
#195000
1!
1X
1Y
0O
1o!
0c
1^
0t
0s
0q
1d
0`
0Z
1_
13
0u
1j
1b
0p
0\
1`
05
1k
1u
1s
1q
0b
#200000
0!
0X
0Y
1O
#205000
1!
1X
1Y
0O
1l
1z
1v
0d
0`
0j
1b
1A
1N
0k
0]
#210000
0!
0X
0Y
1O
#215000
1!
1X
1Y
0O
0l
1c
0^
0z
0v
1Z
0_
1p
1\
1`
0A
0N
15
0u
0s
0q
1]
0b
#220000
0!
0X
0Y
1O
#225000
1!
1X
1Y
0O
0m!
0n!
0o!
0c
1^
1t
1q
1d
0`
0Z
1_
01
02
03
1j
1b
0p
0\
1`
05
1k
0q
0b
#230000
0!
0X
0Y
1O
#235000
1!
1X
1Y
0O
1l
1z
1v
0d
0`
0j
1b
1A
1N
0k
0]
#240000
0!
0X
0Y
1O
#245000
1!
1X
1Y
0O
0l
1c
0^
0z
0v
1Z
0_
1p
1\
1`
0A
0N
15
1q
1]
0b
#250000
0!
0X
0Y
1O
#255000
1!
1X
1Y
0O
1o!
0c
1^
0t
1s
0q
1d
0`
0Z
1_
13
1j
1b
0p
0\
1`
05
1k
0s
1q
0b
#260000
0!
0X
0Y
1O
#265000
1!
1X
1Y
0O
1l
1z
1v
0d
0`
0j
1b
1A
1N
0k
0]
#270000
0!
0X
0Y
1O
#275000
1!
1X
1Y
0O
0l
1c
0^
0z
0v
1Z
0_
1p
1\
1`
0A
0N
15
1s
0q
1]
0b
#280000
0!
0X
0Y
1O
#285000
1!
1X
1Y
0O
1n!
0o!
0c
1^
1u
1t
1q
1d
0`
0Z
1_
12
03
0u
1j
1b
0p
0\
1`
05
1k
0q
0b
#290000
0!
0X
0Y
1O
#295000
1!
1X
1Y
0O
1l
1z
1v
0d
0`
0j
1b
1A
1N
0k
0]
#300000
0!
0X
0Y
1O
#305000
1!
1X
1Y
0O
0l
1c
0^
0z
0v
1Z
0_
1p
1\
1`
0A
0N
15
1q
1]
0b
#310000
0!
0X
0Y
1O
#315000
1!
1X
1Y
0O
1o!
0c
1^
0t
0s
0q
1d
0`
0Z
1_
13
1u
1j
1b
0p
0\
1`
05
1k
0u
1s
1q
0b
#320000
0!
0X
0Y
1O
#325000
1!
1X
1Y
0O
1l
1z
1v
0d
0`
0j
1b
1A
1N
0k
0]
#330000
0!
0X
0Y
1O
#335000
1!
1X
1Y
0O
0l
1c
0^
0z
0v
1Z
0_
1p
1\
1`
0A
0N
15
1u
0s
0q
1]
0b
#340000
0!
0X
0Y
1O
#345000
1!
1X
1Y
0O
1m!
0n!
0o!
0c
1^
1t
1q
1d
0`
0Z
1_
11
02
03
1j
1b
0p
0\
1`
05
1k
0q
0b
#350000
0!
0X
0Y
1O
#355000
1!
1X
1Y
0O
1l
1z
1v
0d
0`
0j
1b
1A
1N
0k
0]
#360000
0!
0X
0Y
1O
#365000
1!
1X
1Y
0O
0l
1c
0^
0z
0v
1Z
0_
1p
1\
1`
0A
0N
15
1q
1]
0b
#370000
0!
0X
0Y
1O
#375000
1!
1X
1Y
0O
1o!
0c
1^
0t
1s
0q
1d
0`
0Z
1_
13
1j
1b
0p
0\
1`
05
1k
0s
1q
0b
#380000
0!
0X
0Y
1O
#385000
1!
1X
1Y
0O
1l
1z
1v
0d
0`
0j
1b
1A
1N
0k
0]
#390000
0!
0X
0Y
1O
#395000
1!
1X
1Y
0O
0l
1c
0^
0z
0v
1Z
0_
1p
1\
1`
0A
0N
15
1s
0q
1]
0b
#400000
0!
0X
0Y
1O
#405000
1!
1X
1Y
0O
1n!
0o!
0c
1^
0u
1t
1q
1d
0`
0Z
1_
12
03
1u
1j
1b
0p
0\
1`
05
1k
0q
0b
#410000
0!
0X
0Y
1O
#415000
1!
1X
1Y
0O
1l
1z
1v
0d
0`
0j
1b
1A
1N
0k
0]
#420000
0!
0X
0Y
1O
#425000
1!
1X
1Y
0O
0l
1c
0^
0z
0v
1Z
0_
1p
1\
1`
0A
0N
15
1q
1]
0b
#430000
0!
0X
0Y
1O
#435000
1!
1X
1Y
0O
1o!
0c
1^
0t
0s
0q
1d
0`
0Z
1_
13
0u
1j
1b
0p
0\
1`
05
1k
1u
1s
1q
0b
#440000
0!
0X
0Y
1O
#445000
1!
1X
1Y
0O
1l
1z
1v
0d
0`
0j
1b
1A
1N
0k
0]
#450000
0!
0X
0Y
1O
#455000
1!
1X
1Y
0O
0l
1c
0^
0z
0v
1Z
0_
1p
1\
1`
0A
0N
15
0u
0s
0q
1]
0b
#460000
0!
0X
0Y
1O
#465000
1!
1X
1Y
0O
0m!
0n!
0o!
0c
1^
1t
1q
1d
0`
0Z
1_
01
02
03
1j
1b
0p
0\
1`
05
1k
0q
0b
#470000
0!
0X
0Y
1O
#475000
1!
1X
1Y
0O
1l
1z
1v
0d
0`
0j
1b
1A
1N
0k
0]
#480000
0!
0X
0Y
1O
#485000
1!
1X
1Y
0O
0l
1c
0^
0z
0v
1Z
0_
1p
1\
1`
0A
0N
15
1q
1]
0b
#490000
0!
0X
0Y
1O
#495000
1!
1X
1Y
0O
1o!
0c
1^
0t
1s
0q
1d
0`
0Z
1_
13
1j
1b
0p
0\
1`
05
1k
0s
1q
0b
#500000
0!
0X
0Y
1O
#505000
1!
1X
1Y
0O
1l
1z
1v
0d
0`
0j
1b
1A
1N
0k
0]
#510000
0!
0X
0Y
1O
#515000
1!
1X
1Y
0O
0l
1c
0^
0z
0v
1Z
0_
1p
1\
1`
0A
0N
15
1s
0q
1]
0b
#520000
0!
0X
0Y
1O
#525000
1!
1X
1Y
0O
1n!
0o!
0c
1^
1u
1t
1q
1d
0`
0Z
1_
12
03
0u
1j
1b
0p
0\
1`
05
1k
0q
0b
#530000
0!
0X
0Y
1O
#535000
1!
1X
1Y
0O
1l
1z
1v
0d
0`
0j
1b
1A
1N
0k
0]
#540000
0!
0X
0Y
1O
#545000
1!
1X
1Y
0O
0l
1c
0^
0z
0v
1Z
0_
1p
1\
1`
0A
0N
15
1q
1]
0b
#550000
0!
0X
0Y
1O
#555000
1!
1X
1Y
0O
1o!
0c
1^
0t
0s
0q
1d
0`
0Z
1_
13
1u
1j
1b
0p
0\
1`
05
1k
0u
1s
1q
0b
#560000
0!
0X
0Y
1O
#565000
1!
1X
1Y
0O
1l
1z
1v
0d
0`
0j
1b
1A
1N
0k
0]
#570000
0!
0X
0Y
1O
#575000
1!
1X
1Y
0O
0l
1c
0^
0z
0v
1Z
0_
1p
1\
1`
0A
0N
15
1u
0s
0q
1]
0b
#580000
0!
0X
0Y
1O
#585000
1!
1X
1Y
0O
1m!
0n!
0o!
0c
1^
1t
1q
1d
0`
0Z
1_
11
02
03
1j
1b
0p
0\
1`
05
1k
0q
0b
#590000
0!
0X
0Y
1O
#595000
1!
1X
1Y
0O
1l
1z
1v
0d
0`
0j
1b
1A
1N
0k
0]
#600000
0!
0X
0Y
1O
#605000
1!
1X
1Y
0O
0l
1c
0^
0z
0v
1Z
0_
1p
1\
1`
0A
0N
15
1q
1]
0b
#610000
0!
0X
0Y
1O
#615000
1!
1X
1Y
0O
1o!
0c
1^
0t
1s
0q
1d
0`
0Z
1_
13
1j
1b
0p
0\
1`
05
1k
0s
1q
0b
#620000
0!
0X
0Y
1O
#625000
1!
1X
1Y
0O
1l
1z
1v
0d
0`
0j
1b
1A
1N
0k
0]
#630000
0!
0X
0Y
1O
#635000
1!
1X
1Y
0O
0l
1c
0^
0z
0v
1Z
0_
1p
1\
1`
0A
0N
15
1s
0q
1]
0b
#640000
0!
0X
0Y
1O
#645000
1!
1X
1Y
0O
1n!
0o!
0c
1^
0u
1t
1q
1d
0`
0Z
1_
12
03
1u
1j
1b
0p
0\
1`
05
1k
0q
0b
#650000
0!
0X
0Y
1O
#655000
1!
1X
1Y
0O
1l
1z
1v
0d
0`
0j
1b
1A
1N
0k
0]
#660000
0!
0X
0Y
1O
#665000
1!
1X
1Y
0O
0l
1c
0^
0z
0v
1Z
0_
1p
1\
1`
0A
0N
15
1q
1]
0b
#670000
0!
0X
0Y
1O
#675000
1!
1X
1Y
0O
1o!
0c
1^
0t
0s
0q
1d
0`
0Z
1_
13
0u
1j
1b
0p
0\
1`
05
1k
1u
1s
1q
0b
#680000
0!
0X
0Y
1O
#685000
1!
1X
1Y
0O
1l
1z
1v
0d
0`
0j
1b
1A
1N
0k
0]
#690000
0!
0X
0Y
1O
#695000
1!
1X
1Y
0O
0l
1c
0^
0z
0v
1Z
0_
1p
1\
1`
0A
0N
15
0u
0s
0q
1]
0b
#700000
0!
0X
0Y
1O
#705000
1!
1X
1Y
0O
0m!
0n!
0o!
0c
1^
1t
1q
1d
0`
0Z
1_
01
02
03
1j
1b
0p
0\
1`
05
1k
0q
0b
#710000
0!
0X
0Y
1O
#715000
1!
1X
1Y
0O
1l
1z
1v
0d
0`
0j
1b
1A
1N
0k
0]
#720000
0!
0X
0Y
1O
#725000
1!
1X
1Y
0O
0l
1c
0^
0z
0v
1Z
0_
1p
1\
1`
0A
0N
15
1q
1]
0b
#730000
0!
0X
0Y
1O
#735000
1!
1X
1Y
0O
1o!
0c
1^
0t
1s
0q
1d
0`
0Z
1_
13
1j
1b
0p
0\
1`
05
1k
0s
1q
0b
#740000
0!
0X
0Y
1O
#745000
1!
1X
1Y
0O
1l
1z
1v
0d
0`
0j
1b
1A
1N
0k
0]
#750000
0!
0X
0Y
1O
#755000
1!
1X
1Y
0O
0l
1c
0^
0z
0v
1Z
0_
1p
1\
1`
0A
0N
15
1s
0q
1]
0b
#760000
0!
0X
0Y
1O
#765000
1!
1X
1Y
0O
1n!
0o!
0c
1^
1u
1t
1q
1d
0`
0Z
1_
12
03
0u
1j
1b
0p
0\
1`
05
1k
0q
0b
#770000
0!
0X
0Y
1O
#775000
1!
1X
1Y
0O
1l
1z
1v
0d
0`
0j
1b
1A
1N
0k
0]
#780000
0!
0X
0Y
1O
#785000
1!
1X
1Y
0O
0l
1c
0^
0z
0v
1Z
0_
1p
1\
1`
0A
0N
15
1q
1]
0b
#790000
0!
0X
0Y
1O
#795000
1!
1X
1Y
0O
1o!
0c
1^
0t
0s
0q
1d
0`
0Z
1_
13
1u
1j
1b
0p
0\
1`
05
1k
0u
1s
1q
0b
#800000
0!
0X
0Y
1O
#805000
1!
1X
1Y
0O
1l
1z
1v
0d
0`
0j
1b
1A
1N
0k
0]
#810000
0!
0X
0Y
1O
#815000
1!
1X
1Y
0O
0l
1c
0^
0z
0v
1Z
0_
1p
1\
1`
0A
0N
15
1u
0s
0q
1]
0b
#820000
0!
0X
0Y
1O
#825000
1!
1X
1Y
0O
1m!
0n!
0o!
0c
1^
1t
1q
1d
0`
0Z
1_
11
02
03
1j
1b
0p
0\
1`
05
1k
0q
0b
#830000
0!
0X
0Y
1O
#835000
1!
1X
1Y
0O
1l
1z
1v
0d
0`
0j
1b
1A
1N
0k
0]
#840000
0!
0X
0Y
1O
#845000
1!
1X
1Y
0O
0l
1c
0^
0z
0v
1Z
0_
1p
1\
1`
0A
0N
15
1q
1]
0b
#850000
0!
0X
0Y
1O
#855000
1!
1X
1Y
0O
1o!
0c
1^
0t
1s
0q
1d
0`
0Z
1_
13
1j
1b
0p
0\
1`
05
1k
0s
1q
0b
#860000
0!
0X
0Y
1O
#865000
1!
1X
1Y
0O
1l
1z
1v
0d
0`
0j
1b
1A
1N
0k
0]
#870000
0!
0X
0Y
1O
#875000
1!
1X
1Y
0O
0l
1c
0^
0z
0v
1Z
0_
1p
1\
1`
0A
0N
15
1s
0q
1]
0b
#880000
0!
0X
0Y
1O
#885000
1!
1X
1Y
0O
1n!
0o!
0c
1^
0u
1t
1q
1d
0`
0Z
1_
12
03
1u
1j
1b
0p
0\
1`
05
1k
0q
0b
#890000
0!
0X
0Y
1O
#895000
1!
1X
1Y
0O
1l
1z
1v
0d
0`
0j
1b
1A
1N
0k
0]
#900000
0!
0X
0Y
1O
#905000
1!
1X
1Y
0O
0l
1c
0^
0z
0v
1Z
0_
1p
1\
1`
0A
0N
15
1q
1]
0b
#910000
0!
0X
0Y
1O
#915000
1!
1X
1Y
0O
1o!
0c
1^
0t
0s
0q
1d
0`
0Z
1_
13
0u
1j
1b
0p
0\
1`
05
1k
1u
1s
1q
0b
#920000
0!
0X
0Y
1O
#925000
1!
1X
1Y
0O
1l
1z
1v
0d
0`
0j
1b
1A
1N
0k
0]
#930000
0!
0X
0Y
1O
#935000
1!
1X
1Y
0O
0l
1c
0^
0z
0v
1Z
0_
1p
1\
1`
0A
0N
15
0u
0s
0q
1]
0b
#940000
0!
0X
0Y
1O
#945000
1!
1X
1Y
0O
0m!
0n!
0o!
0c
1^
1t
1q
1d
0`
0Z
1_
01
02
03
1j
1b
0p
0\
1`
05
1k
0q
0b
#950000
0!
0X
0Y
1O
#955000
1!
1X
1Y
0O
1l
1z
1v
0d
0`
0j
1b
1A
1N
0k
0]
#960000
0!
0X
0Y
1O
#965000
1!
1X
1Y
0O
0l
1c
0^
0z
0v
1Z
0_
1p
1\
1`
0A
0N
15
1q
1]
0b
#970000
0!
0X
0Y
1O
#975000
1!
1X
1Y
0O
1o!
0c
1^
0t
1s
0q
1d
0`
0Z
1_
13
1j
1b
0p
0\
1`
05
1k
0s
1q
0b
#980000
0!
0X
0Y
1O
#985000
1!
1X
1Y
0O
1l
1z
1v
0d
0`
0j
1b
1A
1N
0k
0]
#990000
0!
0X
0Y
1O
#995000
1!
1X
1Y
0O
0l
1c
0^
0z
0v
1Z
0_
1p
1\
1`
0A
0N
15
1s
0q
1]
0b
