Processador/Control Unit/simulation/qsim/unid_control.msim.vcd
$comment
	File created using the following command:
		vcd file unid_control.msim.vcd -direction
$end
$date
	Thu Jul 20 16:14:12 2023
$end
$version
	ModelSim Version 10.1d
$end
$timescale
	1ps
$end
$scope module unid_control_vlg_vec_tst $end
$var reg 1 ! clk $end
$var reg 1 " comp_ab $end
$var reg 16 # data_rom [15:0] $end
$var reg 1 $ rf_rp_zero $end
$var wire 1 % alu_s0 $end
$var wire 1 & alu_s1 $end
$var wire 1 ' d_addr [7] $end
$var wire 1 ( d_addr [6] $end
$var wire 1 ) d_addr [5] $end
$var wire 1 * d_addr [4] $end
$var wire 1 + d_addr [3] $end
$var wire 1 , d_addr [2] $end
$var wire 1 - d_addr [1] $end
$var wire 1 . d_addr [0] $end
$var wire 1 / d_rd $end
$var wire 1 0 d_wr $end
$var wire 1 1 pc_addr [3] $end
$var wire 1 2 pc_addr [2] $end
$var wire 1 3 pc_addr [1] $end
$var wire 1 4 pc_addr [0] $end
$var wire 1 5 rd $end
$var wire 1 6 rf_rp_addr [3] $end
$var wire 1 7 rf_rp_addr [2] $end
$var wire 1 8 rf_rp_addr [1] $end
$var wire 1 9 rf_rp_addr [0] $end
$var wire 1 : rf_rp_rd $end
$var wire 1 ; rf_rq_addr [3] $end
$var wire 1 < rf_rq_addr [2] $end
$var wire 1 = rf_rq_addr [1] $end
$var wire 1 > rf_rq_addr [0] $end
$var wire 1 ? rf_rq_rd $end
$var wire 1 @ rf_s0 $end
$var wire 1 A rf_s1 $end
$var wire 1 B rf_w_addr [3] $end
$var wire 1 C rf_w_addr [2] $end
$var wire 1 D rf_w_addr [1] $end
$var wire 1 E rf_w_addr [0] $end
$var wire 1 F rf_w_data [7] $end
$var wire 1 G rf_w_data [6] $end
$var wire 1 H rf_w_data [5] $end
$var wire 1 I rf_w_data [4] $end
$var wire 1 J rf_w_data [3] $end
$var wire 1 K rf_w_data [2] $end
$var wire 1 L rf_w_data [1] $end
$var wire 1 M rf_w_data [0] $end
$var wire 1 N rf_w_wr $end
$var wire 1 O sampler $end
$scope module i1 $end
$var wire 1 P gnd $end
$var wire 1 Q vcc $end
$var wire 1 R unknown $end
$var tri1 1 S devclrn $end
$var tri1 1 T devpor $end
$var tri1 1 U devoe $end
$var wire 1 V ctrl0|ctr0|cl|n0~2_combout $end
$var wire 1 W ctrl0|ctr0|cl|n1~1_combout $end
$var wire 1 X rf_rp_zero~combout $end
$var wire 1 Y clk~combout $end
$var wire 1 Z clk~clkctrl_outclk $end
$var wire 1 [ ctrl0|ctr0|cl|n0~9_combout $end
$var wire 1 \ comp_ab~combout $end
$var wire 1 ] ctrl0|ctr0|cl|n0~1_combout $end
$var wire 1 ^ ctrl0|ctr0|cl|n3~0_combout $end
$var wire 1 _ ctrl0|ctr0|cl|n3~1_combout $end
$var wire 1 ` ctrl0|ctr0|cl|n3~combout $end
$var wire 1 a ctrl0|ctr0|reg|FF3|q_reg~regout $end
$var wire 1 b ctrl0|ctr0|cl|n0~3_combout $end
$var wire 1 c ctrl0|ctr0|cl|n0~4_combout $end
$var wire 1 d ctrl0|ctr0|cl|n0~5_combout $end
$var wire 1 e ctrl0|ctr0|cl|n0~6_combout $end
$var wire 1 f ctrl0|ctr0|reg|FF0|q_reg~regout $end
$var wire 1 g ctrl0|ctr0|cl|n0~0_combout $end
$var wire 1 h ctrl0|ctr0|cl|n1~0_combout $end
$var wire 1 i ctrl0|ctr0|cl|n1~2_combout $end
$var wire 1 j ctrl0|ctr0|cl|n0~7_combout $end
$var wire 1 k ctrl0|ctr0|cl|n1~3_combout $end
$var wire 1 l ctrl0|ctr0|reg|FF1|q_reg~regout $end
$var wire 1 m ctrl0|ctr0|cl|pc_inc~0_combout $end
$var wire 1 n ctrl0|ctr0|cl|n0~8_combout $end
$var wire 1 o ctrl0|ctr0|cl|n2~0_combout $end
$var wire 1 p ctrl0|ctr0|reg|FF2|q_reg~regout $end
$var wire 1 q pc0|counter[0]~0_combout $end
$var wire 1 r ctrl0|ctr0|cl|pc_clr~0_combout $end
$var wire 1 s pc0|counter[1]~1_combout $end
$var wire 1 t pc0|counter[1]~2_combout $end
$var wire 1 u pc0|counter[2]~3_combout $end
$var wire 1 v pc0|counter[3]~4_combout $end
$var wire 1 w ctrl0|ctr0|cl|rf_w_wr~0_combout $end
$var wire 1 x ctrl0|ctr0|cl|rf_rp_rd~0_combout $end
$var wire 1 y ctrl0|ctr0|cl|rf_rq_rd~0_combout $end
$var wire 1 z ctrl0|ctr0|cl|rf_s0~0_combout $end
$var wire 1 { ctrl0|ctr0|cl|rf_s1~0_combout $end
$var wire 1 | ctrl0|ctr0|cl|d_wr~combout $end
$var wire 1 } ctrl0|ctr0|cl|alu_s0~0_combout $end
$var wire 1 ~ ir0|IR_reg[8]~feeder_combout $end
$var wire 1 !! ctrl0|dp|Ra|FF0|q_reg~feeder_combout $end
$var wire 1 "! ctrl0|dp|Ra|FF0|q_reg~regout $end
$var wire 1 #! ir0|IR_reg[9]~feeder_combout $end
$var wire 1 $! ctrl0|dp|Ra|FF1|q_reg~regout $end
$var wire 1 %! ir0|IR_reg[10]~feeder_combout $end
$var wire 1 &! ctrl0|dp|Ra|FF2|q_reg~feeder_combout $end
$var wire 1 '! ctrl0|dp|Ra|FF2|q_reg~regout $end
$var wire 1 (! ctrl0|dp|Ra|FF3|q_reg~regout $end
$var wire 1 )! ir0|IR_reg[4]~feeder_combout $end
$var wire 1 *! ctrl0|dp|Rb|FF0|q_reg~feeder_combout $end
$var wire 1 +! ctrl0|dp|Rb|FF0|q_reg~regout $end
$var wire 1 ,! ctrl0|dp|Rb|FF1|q_reg~regout $end
$var wire 1 -! ir0|IR_reg[6]~feeder_combout $end
$var wire 1 .! ctrl0|dp|Rb|FF2|q_reg~feeder_combout $end
$var wire 1 /! ctrl0|dp|Rb|FF2|q_reg~regout $end
$var wire 1 0! ir0|IR_reg[7]~feeder_combout $end
$var wire 1 1! ctrl0|dp|Rb|FF3|q_reg~feeder_combout $end
$var wire 1 2! ctrl0|dp|Rb|FF3|q_reg~regout $end
$var wire 1 3! ir0|IR_reg[0]~feeder_combout $end
$var wire 1 4! ctrl0|dp|Rc|FF0|q_reg~feeder_combout $end
$var wire 1 5! ctrl0|dp|Rc|FF0|q_reg~regout $end
$var wire 1 6! ctrl0|dp|Rc|FF1|q_reg~feeder_combout $end
$var wire 1 7! ctrl0|dp|Rc|FF1|q_reg~regout $end
$var wire 1 8! ir0|IR_reg[2]~feeder_combout $end
$var wire 1 9! ctrl0|dp|Rc|FF2|q_reg~feeder_combout $end
$var wire 1 :! ctrl0|dp|Rc|FF2|q_reg~regout $end
$var wire 1 ;! ctrl0|dp|Rc|FF3|q_reg~feeder_combout $end
$var wire 1 <! ctrl0|dp|Rc|FF3|q_reg~regout $end
$var wire 1 =! ctrl0|dp|d|FF0|q_reg~feeder_combout $end
$var wire 1 >! ctrl0|dp|d|FF0|q_reg~regout $end
$var wire 1 ?! ctrl0|dp|d|FF1|q_reg~feeder_combout $end
$var wire 1 @! ctrl0|dp|d|FF1|q_reg~regout $end
$var wire 1 A! ctrl0|dp|d|FF2|q_reg~feeder_combout $end
$var wire 1 B! ctrl0|dp|d|FF2|q_reg~regout $end
$var wire 1 C! ctrl0|dp|d|FF3|q_reg~feeder_combout $end
$var wire 1 D! ctrl0|dp|d|FF3|q_reg~regout $end
$var wire 1 E! ctrl0|dp|d|FF4|q_reg~feeder_combout $end
$var wire 1 F! ctrl0|dp|d|FF4|q_reg~regout $end
$var wire 1 G! ctrl0|dp|d|FF5|q_reg~feeder_combout $end
$var wire 1 H! ctrl0|dp|d|FF5|q_reg~regout $end
$var wire 1 I! ctrl0|dp|d|FF6|q_reg~feeder_combout $end
$var wire 1 J! ctrl0|dp|d|FF6|q_reg~regout $end
$var wire 1 K! ctrl0|dp|d|FF7|q_reg~feeder_combout $end
$var wire 1 L! ctrl0|dp|d|FF7|q_reg~regout $end
$var wire 1 M! data_rom~combout [15] $end
$var wire 1 N! data_rom~combout [14] $end
$var wire 1 O! data_rom~combout [13] $end
$var wire 1 P! data_rom~combout [12] $end
$var wire 1 Q! data_rom~combout [11] $end
$var wire 1 R! data_rom~combout [10] $end
$var wire 1 S! data_rom~combout [9] $end
$var wire 1 T! data_rom~combout [8] $end
$var wire 1 U! data_rom~combout [7] $end
$var wire 1 V! data_rom~combout [6] $end
$var wire 1 W! data_rom~combout [5] $end
$var wire 1 X! data_rom~combout [4] $end
$var wire 1 Y! data_rom~combout [3] $end
$var wire 1 Z! data_rom~combout [2] $end
$var wire 1 [! data_rom~combout [1] $end
$var wire 1 \! data_rom~combout [0] $end
$var wire 1 ]! pc0|counter [3] $end
$var wire 1 ^! pc0|counter [2] $end
$var wire 1 _! pc0|counter [1] $end
$var wire 1 `! pc0|counter [0] $end
$var wire 1 a! ir0|IR_reg [15] $end
$var wire 1 b! ir0|IR_reg [14] $end
$var wire 1 c! ir0|IR_reg [13] $end
$var wire 1 d! ir0|IR_reg [12] $end
$var wire 1 e! ir0|IR_reg [11] $end
$var wire 1 f! ir0|IR_reg [10] $end
$var wire 1 g! ir0|IR_reg [9] $end
$var wire 1 h! ir0|IR_reg [8] $end
$var wire 1 i! ir0|IR_reg [7] $end
$var wire 1 j! ir0|IR_reg [6] $end
$var wire 1 k! ir0|IR_reg [5] $end
$var wire 1 l! ir0|IR_reg [4] $end
$var wire 1 m! ir0|IR_reg [3] $end
$var wire 1 n! ir0|IR_reg [2] $end
$var wire 1 o! ir0|IR_reg [1] $end
$var wire 1 p! ir0|IR_reg [0] $end
$upscope $end
$upscope $end
$enddefinitions $end
#0
$dumpvars
0!
0"
b11000000000010 #
0$
07!
08!
09!
0:!
0;!
0<!
0=!
0>!
0?!
0@!
0A!
0B!
0C!
0D!
0E!
0F!
0G!
0H!
0I!
0J!
0K!
0L!
0\!
1[!
0Z!
0Y!
0X!
0W!
0V!
0U!
0T!
0S!
0R!
0Q!
1P!
1O!
0N!
0M!
0`!
0_!
0^!
0]!
0p!
0o!
0n!
0m!
0l!
0k!
0j!
0i!
0h!
0g!
0f!
0e!
0d!
0c!
0b!
0a!
0%
0&
0.
0-
0,
0+
0*
0)
0(
0'
0/
00
04
03
02
01
05
09
08
07
06
0:
0>
0=
0<
0;
0?
0@
0A
0E
0D
0C
0B
0M
0L
0K
0J
0I
0H
0G
0F
0N
xO
0P
1Q
xR
1S
1T
1U
1V
1W
0X
0Y
0Z
0[
0\
0]
0^
0_
0`
0a
0b
0c
0d
1e
0f
0g
0h
0i
0j
0k
0l
0m
0n
0o
0p
0q
1r
0s
0t
0u
0v
0w
0x
0y
0z
0{
1|
0}
0~
0!!
0"!
0#!
0$!
0%!
0&!
0'!
0(!
0)!
0*!
0+!
0,!
0-!
0.!
0/!
00!
01!
02!
03!
04!
05!
06!
$end
#5000
1!
1Y
1Z
0O
1f
0r
1m
1d
1i
0e
15
1k
#10000
0!
0Y
0Z
1O
#15000
1!
1Y
1Z
0O
1o!
1d!
1l
0f
1c!
1?!
16!
0W
0m
1g
1c
0d
0i
1j
1d
1e
05
1o
0e
#20000
0!
0Y
0Z
1O
#25000
1!
1Y
1Z
0O
1@!
17!
1p
1{
1w
0g
0d
1-
1L
1=
0j
1e
1A
1N
0o
0k
#30000
0!
0Y
0Z
1O
#35000
1!
1Y
1Z
0O
0p
0l
1f
0{
0w
1m
0c
1i
1d
0A
0N
15
1k
0e
#40000
0!
0Y
0Z
1O
#45000
1!
1Y
1Z
0O
1l
0f
0m
1g
1c
0d
0i
1j
1d
1e
05
1o
0e
#50000
0!
0Y
0Z
1O
#55000
1!
1Y
1Z
0O
1p
1{
1w
0g
0d
0j
1e
1A
1N
0o
0k
#60000
0!
0Y
0Z
1O
#65000
1!
1Y
1Z
0O
0p
0l
1f
0{
0w
1m
0c
1i
1d
0A
0N
15
1k
0e
#70000
0!
0Y
0Z
1O
#75000
1!
1Y
1Z
0O
1l
0f
0m
1g
1c
0d
0i
1j
1d
1e
05
1o
0e
#80000
0!
0Y
0Z
1O
#85000
1!
1Y
1Z
0O
1p
1{
1w
0g
0d
0j
1e
1A
1N
0o
0k
#90000
0!
0Y
0Z
1O
#95000
1!
1Y
1Z
0O
0p
0l
1f
0{
0w
1m
0c
1i
1d
0A
0N
15
1k
0e
#100000
b11000100000010 #
b11000100000011 #
0!
1\!
1T!
0Y
0Z
1O
13!
1~
#105000
1!
1Y
1Z
0O
1p!
1h!
1l
0f
1=!
14!
1!!
0m
1g
1c
0d
0i
1j
1d
1e
05
1o
0e
#110000
0!
0Y
0Z
1O
#115000
1!
1Y
1Z
0O
1>!
15!
1"!
1p
1{
1w
0g
0d
1.
1M
1>
1E
0j
1e
1A
1N
0o
0k
#120000
0!
0Y
0Z
1O
#125000
1!
1Y
1Z
0O
0p
0l
1f
0{
0w
1m
0c
1i
1d
0A
0N
15
1k
0e
#130000
0!
0Y
0Z
1O
#135000
1!
1Y
1Z
0O
1l
0f
0m
1g
1c
0d
0i
1j
1d
1e
05
1o
0e
#140000
0!
0Y
0Z
1O
#145000
1!
1Y
1Z
0O
1p
1{
1w
0g
0d
0j
1e
1A
1N
0o
0k
#150000
0!
0Y
0Z
1O
#155000
1!
1Y
1Z
0O
0p
0l
1f
0{
0w
1m
0c
1i
1d
0A
0N
15
1k
0e
#160000
0!
0Y
0Z
1O
#165000
1!
1Y
1Z
0O
1l
0f
0m
1g
1c
0d
0i
1j
1d
1e
05
1o
0e
#170000
0!
0Y
0Z
1O
#175000
1!
1Y
1Z
0O
1p
1{
1w
0g
0d
0j
1e
1A
1N
0o
0k
#180000
0!
0Y
0Z
1O
#185000
1!
1Y
1Z
0O
0p
0l
1f
0{
0w
1m
0c
1i
1d
0A
0N
15
1k
0e
#190000
0!
0Y
0Z
1O
#195000
1!
1Y
1Z
0O
1l
0f
0m
1g
1c
0d
0i
1j
1d
1e
05
1o
0e
#200000
b10000100000011 #
b10001100000011 #
b10001100000001 #
b10001000000001 #
0!
0[!
0T!
1S!
0P!
0Y
0Z
1O
0~
1#!
#205000
1!
1Y
1Z
0O
1p
1{
1w
0g
0d
0j
1e
1A
1N
0o
0k
#210000
0!
0Y
0Z
1O
#215000
1!
1Y
1Z
0O
0p
0l
1f
0{
0w
1m
0c
1i
1d
0A
0N
15
1k
0e
#220000
0!
0Y
0Z
1O
#225000
1!
1Y
1Z
0O
0o!
1g!
0h!
0d!
1l
0f
0?!
06!
0!!
1^
1W
0m
1g
1c
0d
0i
1j
1b
1d
1e
05
0k
1o
#230000
0!
0Y
0Z
1O
#235000
1!
1Y
1Z
0O
0@!
07!
1$!
0"!
1p
0l
1f
1y
1x
1w
0g
0d
0c
0-
0L
0=
1D
0E
0j
0b
1?
1:
1N
0o
#240000
0!
0Y
0Z
1O
#245000
1!
1Y
1Z
0O
0p
0y
0x
0w
1m
1d
1i
0e
0?
0:
0N
15
1k
#250000
0!
0Y
0Z
1O
#255000
1!
1Y
1Z
0O
1l
0f
0m
1g
1c
0d
0i
1j
1b
1d
1e
05
0k
1o
#260000
0!
0Y
0Z
1O
#265000
1!
1Y
1Z
0O
1p
0l
1f
1y
1x
1w
0g
0d
0c
0j
0b
1?
1:
1N
0o
#270000
0!
0Y
0Z
1O
#275000
1!
1Y
1Z
0O
0p
0y
0x
0w
1m
1d
1i
0e
0?
0:
0N
15
1k
#280000
0!
0Y
0Z
1O
#285000
1!
1Y
1Z
0O
1l
0f
0m
1g
1c
0d
0i
1j
1b
1d
1e
05
0k
1o
#290000
0!
0Y
0Z
1O
#295000
1!
1Y
1Z
0O
1p
0l
1f
1y
1x
1w
0g
0d
0c
0j
0b
1?
1:
1N
0o
#300000
b1000000001 #
b1000000000 #
b0 #
0!
0\!
0S!
0O!
0Y
0Z
1O
03!
0#!
#305000
1!
1Y
1Z
0O
0p
0y
0x
0w
1m
1d
1i
0e
0?
0:
0N
15
1k
#310000
0!
0Y
0Z
1O
#315000
1!
1Y
1Z
0O
0p!
0g!
1l
0f
0c!
0=!
04!
0m
1g
1c
0d
0^
0i
1j
1b
1d
1e
05
#320000
0!
0Y
0Z
1O
#325000
1!
1Y
1Z
0O
0>!
05!
0$!
1f
1z
1w
0g
0d
0.
0M
0>
0D
0j
0b
1/
1@
1N
0k
#330000
0!
0Y
0Z
1O
#335000
1!
1Y
1Z
0O
0l
0z
0w
1m
0c
1i
1d
0/
0@
0N
15
1k
0e
#340000
0!
0Y
0Z
1O
#345000
1!
1Y
1Z
0O
1l
0f
0m
1g
1c
0d
0i
1j
1b
1d
1e
05
#350000
0!
0Y
0Z
1O
#355000
1!
1Y
1Z
0O
1f
1z
1w
0g
0d
0j
0b
1/
1@
1N
0k
#360000
0!
0Y
0Z
1O
#365000
1!
1Y
1Z
0O
0l
0z
0w
1m
0c
1i
1d
0/
0@
0N
15
1k
0e
#370000
0!
0Y
0Z
1O
#375000
1!
1Y
1Z
0O
1l
0f
0m
1g
1c
0d
0i
1j
1b
1d
1e
05
#380000
0!
0Y
0Z
1O
#385000
1!
1Y
1Z
0O
1f
1z
1w
0g
0d
0j
0b
1/
1@
1N
0k
#390000
0!
0Y
0Z
1O
#395000
1!
1Y
1Z
0O
0l
0z
0w
1m
0c
1i
1d
0/
0@
0N
15
1k
0e
#400000
b100 #
b1000000000100 #
b1000000000110 #
b11000000000110 #
0!
1[!
1Z!
1P!
1O!
0Y
0Z
1O
18!
#405000
1!
1Y
1Z
0O
1n!
1o!
1d!
1l
0f
1c!
1A!
19!
1?!
16!
0W
0m
1g
1c
0d
0i
1j
1d
1e
05
1o
0e
#410000
0!
0Y
0Z
1O
#415000
1!
1Y
1Z
0O
1B!
1@!
1:!
17!
1p
1{
1w
0g
0d
1,
1K
1-
1L
1<
1=
0j
1e
1A
1N
0o
0k
#420000
0!
0Y
0Z
1O
#425000
1!
1Y
1Z
0O
0p
0l
1f
0{
0w
1m
0c
1i
1d
0A
0N
15
1k
0e
#430000
0!
0Y
0Z
1O
#435000
1!
1Y
1Z
0O
1l
0f
0m
1g
1c
0d
0i
1j
1d
1e
05
1o
0e
#440000
0!
0Y
0Z
1O
#445000
1!
1Y
1Z
0O
1p
1{
1w
0g
0d
0j
1e
1A
1N
0o
0k
#450000
0!
0Y
0Z
1O
#455000
1!
1Y
1Z
0O
0p
0l
1f
0{
0w
1m
0c
1i
1d
0A
0N
15
1k
0e
#460000
0!
0Y
0Z
1O
#465000
1!
1Y
1Z
0O
1l
0f
0m
1g
1c
0d
0i
1j
1d
1e
05
1o
0e
#470000
0!
0Y
0Z
1O
#475000
1!
1Y
1Z
0O
1p
1{
1w
0g
0d
0j
1e
1A
1N
0o
0k
#480000
0!
0Y
0Z
1O
#485000
1!
1Y
1Z
0O
0p
0l
1f
0{
0w
1m
0c
1i
1d
0A
0N
15
1k
0e
#490000
0!
0Y
0Z
1O
#495000
1!
1Y
1Z
0O
1l
0f
0m
1g
1c
0d
0i
1j
1d
1e
05
1o
0e
#500000
b11000000000111 #
0!
1\!
0Y
0Z
1O
13!
#505000
1!
1Y
1Z
0O
1p
1{
1w
0g
0d
0j
1e
1A
1N
0o
0k
#510000
0!
0Y
0Z
1O
#515000
1!
1Y
1Z
0O
0p
0l
1f
0{
0w
1m
0c
1i
1d
0A
0N
15
1k
0e
#520000
0!
0Y
0Z
1O
#525000
1!
1Y
1Z
0O
1p!
1l
0f
1=!
14!
0m
1g
1c
0d
0i
1j
1d
1e
05
1o
0e
#530000
0!
0Y
0Z
1O
#535000
1!
1Y
1Z
0O
1>!
15!
1p
1{
1w
0g
0d
1.
1M
1>
0j
1e
1A
1N
0o
0k
#540000
0!
0Y
0Z
1O
#545000
1!
1Y
1Z
0O
0p
0l
1f
0{
0w
1m
0c
1i
1d
0A
0N
15
1k
0e
#550000
0!
0Y
0Z
1O
#555000
1!
1Y
1Z
0O
1l
0f
0m
1g
1c
0d
0i
1j
1d
1e
05
1o
0e
#560000
0!
0Y
0Z
1O
#565000
1!
1Y
1Z
0O
1p
1{
1w
0g
0d
0j
1e
1A
1N
0o
0k
#570000
0!
0Y
0Z
1O
#575000
1!
1Y
1Z
0O
0p
0l
1f
0{
0w
1m
0c
1i
1d
0A
0N
15
1k
0e
#580000
0!
0Y
0Z
1O
#585000
1!
1Y
1Z
0O
1l
0f
0m
1g
1c
0d
0i
1j
1d
1e
05
1o
0e
#590000
0!
0Y
0Z
1O
#595000
1!
1Y
1Z
0O
1p
1{
1w
0g
0d
0j
1e
1A
1N
0o
0k
#600000
b11000000001111 #
b11000000001011 #
b11000000001001 #
b11000000001000 #
0!
0\!
0[!
0Z!
1Y!
0Y
0Z
1O
03!
08!
#605000
1!
1Y
1Z
0O
0p
0l
1f
0{
0w
1m
0c
1i
1d
0A
0N
15
1k
0e
#610000
0!
0Y
0Z
1O
#615000
1!
1Y
1Z
0O
1m!
0n!
0o!
0p!
1l
0f
1C!
1;!
0A!
09!
0?!
06!
0=!
04!
0m
1g
1c
0d
0i
1j
1d
1e
05
1o
0e
#620000
0!
0Y
0Z
1O
#625000
1!
1Y
1Z
0O
1D!
0B!
0@!
0>!
1<!
0:!
07!
05!
1p
1{
1w
0g
0d
1+
1J
0,
0K
0-
0L
0.
0M
1;
0<
0=
0>
0j
1e
1A
1N
0o
0k
#630000
0!
0Y
0Z
1O
#635000
1!
1Y
1Z
0O
0p
0l
1f
0{
0w
1m
0c
1i
1d
0A
0N
15
1k
0e
#640000
0!
0Y
0Z
1O
#645000
1!
1Y
1Z
0O
1l
0f
0m
1g
1c
0d
0i
1j
1d
1e
05
1o
0e
#650000
0!
0Y
0Z
1O
#655000
1!
1Y
1Z
0O
1p
1{
1w
0g
0d
0j
1e
1A
1N
0o
0k
#660000
0!
0Y
0Z
1O
#665000
1!
1Y
1Z
0O
0p
0l
1f
0{
0w
1m
0c
1i
1d
0A
0N
15
1k
0e
#670000
0!
0Y
0Z
1O
#675000
1!
1Y
1Z
0O
1l
0f
0m
1g
1c
0d
0i
1j
1d
1e
05
1o
0e
#680000
0!
0Y
0Z
1O
#685000
1!
1Y
1Z
0O
1p
1{
1w
0g
0d
0j
1e
1A
1N
0o
0k
#690000
0!
0Y
0Z
1O
#695000
1!
1Y
1Z
0O
0p
0l
1f
0{
0w
1m
0c
1i
1d
0A
0N
15
1k
0e
#700000
b11000000001001 #
0!
1\!
0Y
0Z
1O
13!
#705000
1!
1Y
1Z
0O
1p!
1l
0f
1=!
14!
0m
1g
1c
0d
0i
1j
1d
1e
05
1o
0e
#710000
0!
0Y
0Z
1O
#715000
1!
1Y
1Z
0O
1>!
15!
1p
1{
1w
0g
0d
1.
1M
1>
0j
1e
1A
1N
0o
0k
#720000
0!
0Y
0Z
1O
#725000
1!
1Y
1Z
0O
0p
0l
1f
0{
0w
1m
0c
1i
1d
0A
0N
15
1k
0e
#730000
0!
0Y
0Z
1O
#735000
1!
1Y
1Z
0O
1l
0f
0m
1g
1c
0d
0i
1j
1d
1e
05
1o
0e
#740000
0!
0Y
0Z
1O
#745000
1!
1Y
1Z
0O
1p
1{
1w
0g
0d
0j
1e
1A
1N
0o
0k
#750000
0!
0Y
0Z
1O
#755000
1!
1Y
1Z
0O
0p
0l
1f
0{
0w
1m
0c
1i
1d
0A
0N
15
1k
0e
#760000
0!
0Y
0Z
1O
#765000
1!
1Y
1Z
0O
1l
0f
0m
1g
1c
0d
0i
1j
1d
1e
05
1o
0e
#770000
0!
0Y
0Z
1O
#775000
1!
1Y
1Z
0O
1p
1{
1w
0g
0d
0j
1e
1A
1N
0o
0k
#780000
0!
0Y
0Z
1O
#785000
1!
1Y
1Z
0O
0p
0l
1f
0{
0w
1m
0c
1i
1d
0A
0N
15
1k
0e
#790000
0!
0Y
0Z
1O
#795000
1!
1Y
1Z
0O
1l
0f
0m
1g
1c
0d
0i
1j
1d
1e
05
1o
0e
#800000
b11000000001011 #
b11000000001010 #
0!
0\!
1[!
0Y
0Z
1O
03!
#805000
1!
1Y
1Z
0O
1p
1{
1w
0g
0d
0j
1e
1A
1N
0o
0k
#810000
0!
0Y
0Z
1O
#815000
1!
1Y
1Z
0O
0p
0l
1f
0{
0w
1m
0c
1i
1d
0A
0N
15
1k
0e
#820000
0!
0Y
0Z
1O
#825000
1!
1Y
1Z
0O
1o!
0p!
1l
0f
1?!
16!
0=!
04!
0m
1g
1c
0d
0i
1j
1d
1e
05
1o
0e
#830000
0!
0Y
0Z
1O
#835000
1!
1Y
1Z
0O
1@!
0>!
17!
05!
1p
1{
1w
0g
0d
1-
1L
0.
0M
1=
0>
0j
1e
1A
1N
0o
0k
#840000
0!
0Y
0Z
1O
#845000
1!
1Y
1Z
0O
0p
0l
1f
0{
0w
1m
0c
1i
1d
0A
0N
15
1k
0e
#850000
0!
0Y
0Z
1O
#855000
1!
1Y
1Z
0O
1l
0f
0m
1g
1c
0d
0i
1j
1d
1e
05
1o
0e
#860000
0!
0Y
0Z
1O
#865000
1!
1Y
1Z
0O
1p
1{
1w
0g
0d
0j
1e
1A
1N
0o
0k
#870000
0!
0Y
0Z
1O
#875000
1!
1Y
1Z
0O
0p
0l
1f
0{
0w
1m
0c
1i
1d
0A
0N
15
1k
0e
#880000
0!
0Y
0Z
1O
#885000
1!
1Y
1Z
0O
1l
0f
0m
1g
1c
0d
0i
1j
1d
1e
05
1o
0e
#890000
0!
0Y
0Z
1O
#895000
1!
1Y
1Z
0O
1p
1{
1w
0g
0d
0j
1e
1A
1N
0o
0k
#900000
b11000000001011 #
0!
1\!
0Y
0Z
1O
13!
#905000
1!
1Y
1Z
0O
0p
0l
1f
0{
0w
1m
0c
1i
1d
0A
0N
15
1k
0e
#910000
0!
0Y
0Z
1O
#915000
1!
1Y
1Z
0O
1p!
1l
0f
1=!
14!
0m
1g
1c
0d
0i
1j
1d
1e
05
1o
0e
#920000
0!
0Y
0Z
1O
#925000
1!
1Y
1Z
0O
1>!
15!
1p
1{
1w
0g
0d
1.
1M
1>
0j
1e
1A
1N
0o
0k
#930000
0!
0Y
0Z
1O
#935000
1!
1Y
1Z
0O
0p
0l
1f
0{
0w
1m
0c
1i
1d
0A
0N
15
1k
0e
#940000
0!
0Y
0Z
1O
#945000
1!
1Y
1Z
0O
1l
0f
0m
1g
1c
0d
0i
1j
1d
1e
05
1o
0e
#950000
0!
0Y
0Z
1O
#955000
1!
1Y
1Z
0O
1p
1{
1w
0g
0d
0j
1e
1A
1N
0o
0k
#960000
0!
0Y
0Z
1O
#965000
1!
1Y
1Z
0O
0p
0l
1f
0{
0w
1m
0c
1i
1d
0A
0N
15
1k
0e
#970000
0!
0Y
0Z
1O
#975000
1!
1Y
1Z
0O
1l
0f
0m
1g
1c
0d
0i
1j
1d
1e
05
1o
0e
#980000
0!
0Y
0Z
1O
#985000
1!
1Y
1Z
0O
1p
1{
1w
0g
0d
0j
1e
1A
1N
0o
0k
#990000
0!
0Y
0Z
1O
#995000
1!
1Y
1Z
0O
0p
0l
1f
0{
0w
1m
0c
1i
1d
0A
0N
15
1k
0e
