Processador/Control Unit/Controller/Datapath/simulation/qsim/datapath.msim.vcd
$comment
	File created using the following command:
		vcd file datapath.msim.vcd -direction
$end
$date
	Thu Jul 20 15:18:10 2023
$end
$version
	ModelSim Version 10.1d
$end
$timescale
	1ps
$end
$scope module datapath_control_vlg_vec_tst $end
$var reg 1 ! clock $end
$var reg 12 " entrada [11:0] $end
$var wire 1 # d_addr [7] $end
$var wire 1 $ d_addr [6] $end
$var wire 1 % d_addr [5] $end
$var wire 1 & d_addr [4] $end
$var wire 1 ' d_addr [3] $end
$var wire 1 ( d_addr [2] $end
$var wire 1 ) d_addr [1] $end
$var wire 1 * d_addr [0] $end
$var wire 1 + rf_rp_addr [3] $end
$var wire 1 , rf_rp_addr [2] $end
$var wire 1 - rf_rp_addr [1] $end
$var wire 1 . rf_rp_addr [0] $end
$var wire 1 / rf_rq_addr [3] $end
$var wire 1 0 rf_rq_addr [2] $end
$var wire 1 1 rf_rq_addr [1] $end
$var wire 1 2 rf_rq_addr [0] $end
$var wire 1 3 rf_w_addr [3] $end
$var wire 1 4 rf_w_addr [2] $end
$var wire 1 5 rf_w_addr [1] $end
$var wire 1 6 rf_w_addr [0] $end
$var wire 1 7 rf_w_data [7] $end
$var wire 1 8 rf_w_data [6] $end
$var wire 1 9 rf_w_data [5] $end
$var wire 1 : rf_w_data [4] $end
$var wire 1 ; rf_w_data [3] $end
$var wire 1 < rf_w_data [2] $end
$var wire 1 = rf_w_data [1] $end
$var wire 1 > rf_w_data [0] $end
$var wire 1 ? sampler $end
$scope module i1 $end
$var wire 1 @ gnd $end
$var wire 1 A vcc $end
$var wire 1 B unknown $end
$var tri1 1 C devclrn $end
$var tri1 1 D devpor $end
$var tri1 1 E devoe $end
$var wire 1 F clock~combout $end
$var wire 1 G clock~clkctrl_outclk $end
$var wire 1 H Ra|FF0|q_reg~feeder_combout $end
$var wire 1 I Ra|FF0|q_reg~regout $end
$var wire 1 J Ra|FF1|q_reg~feeder_combout $end
$var wire 1 K Ra|FF1|q_reg~regout $end
$var wire 1 L Ra|FF2|q_reg~feeder_combout $end
$var wire 1 M Ra|FF2|q_reg~regout $end
$var wire 1 N Ra|FF3|q_reg~feeder_combout $end
$var wire 1 O Ra|FF3|q_reg~regout $end
$var wire 1 P Rb|FF0|q_reg~regout $end
$var wire 1 Q Rb|FF1|q_reg~feeder_combout $end
$var wire 1 R Rb|FF1|q_reg~regout $end
$var wire 1 S Rb|FF2|q_reg~feeder_combout $end
$var wire 1 T Rb|FF2|q_reg~regout $end
$var wire 1 U Rb|FF3|q_reg~feeder_combout $end
$var wire 1 V Rb|FF3|q_reg~regout $end
$var wire 1 W Rc|FF0|q_reg~feeder_combout $end
$var wire 1 X Rc|FF0|q_reg~regout $end
$var wire 1 Y Rc|FF1|q_reg~feeder_combout $end
$var wire 1 Z Rc|FF1|q_reg~regout $end
$var wire 1 [ Rc|FF2|q_reg~feeder_combout $end
$var wire 1 \ Rc|FF2|q_reg~regout $end
$var wire 1 ] Rc|FF3|q_reg~feeder_combout $end
$var wire 1 ^ Rc|FF3|q_reg~regout $end
$var wire 1 _ d|FF0|q_reg~feeder_combout $end
$var wire 1 ` d|FF0|q_reg~regout $end
$var wire 1 a d|FF1|q_reg~feeder_combout $end
$var wire 1 b d|FF1|q_reg~regout $end
$var wire 1 c d|FF2|q_reg~feeder_combout $end
$var wire 1 d d|FF2|q_reg~regout $end
$var wire 1 e d|FF3|q_reg~feeder_combout $end
$var wire 1 f d|FF3|q_reg~regout $end
$var wire 1 g d|FF4|q_reg~regout $end
$var wire 1 h d|FF5|q_reg~feeder_combout $end
$var wire 1 i d|FF5|q_reg~regout $end
$var wire 1 j d|FF6|q_reg~feeder_combout $end
$var wire 1 k d|FF6|q_reg~regout $end
$var wire 1 l d|FF7|q_reg~feeder_combout $end
$var wire 1 m d|FF7|q_reg~regout $end
$var wire 1 n entrada~combout [11] $end
$var wire 1 o entrada~combout [10] $end
$var wire 1 p entrada~combout [9] $end
$var wire 1 q entrada~combout [8] $end
$var wire 1 r entrada~combout [7] $end
$var wire 1 s entrada~combout [6] $end
$var wire 1 t entrada~combout [5] $end
$var wire 1 u entrada~combout [4] $end
$var wire 1 v entrada~combout [3] $end
$var wire 1 w entrada~combout [2] $end
$var wire 1 x entrada~combout [1] $end
$var wire 1 y entrada~combout [0] $end
$upscope $end
$upscope $end
$enddefinitions $end
#0
$dumpvars
0!
b10 "
0*
0)
0(
0'
0&
0%
0$
0#
0.
0-
0,
0+
02
01
00
0/
06
05
04
03
0>
0=
0<
0;
0:
09
08
07
x?
0@
1A
xB
1C
1D
1E
0F
0G
0H
0I
0J
0K
0L
0M
0N
0O
0P
0Q
0R
0S
0T
0U
0V
0W
0X
1Y
0Z
0[
0\
0]
0^
0_
0`
1a
0b
0c
0d
0e
0f
0g
0h
0i
0j
0k
0l
0m
0y
1x
0w
0v
0u
0t
0s
0r
0q
0p
0o
0n
$end
#5000
1!
1F
1G
0?
1b
1Z
1)
1=
11
#10000
0!
0F
0G
1?
#15000
1!
1F
1G
0?
#20000
0!
0F
0G
1?
#25000
1!
1F
1G
0?
#30000
0!
0F
0G
1?
#35000
1!
1F
1G
0?
#40000
0!
0F
0G
1?
#45000
1!
1F
1G
0?
#50000
0!
0F
0G
1?
#55000
1!
1F
1G
0?
#60000
0!
0F
0G
1?
#65000
1!
1F
1G
0?
#70000
0!
0F
0G
1?
#75000
1!
1F
1G
0?
#80000
0!
0F
0G
1?
#85000
1!
1F
1G
0?
#90000
0!
0F
0G
1?
#95000
1!
1F
1G
0?
#100000
0!
0F
0G
1?
#105000
1!
1F
1G
0?
#110000
0!
0F
0G
1?
#115000
1!
1F
1G
0?
#120000
0!
0F
0G
1?
#125000
1!
1F
1G
0?
#130000
0!
0F
0G
1?
#135000
1!
1F
1G
0?
#140000
0!
0F
0G
1?
#145000
1!
1F
1G
0?
#150000
0!
0F
0G
1?
#155000
1!
1F
1G
0?
#160000
0!
0F
0G
1?
#165000
1!
1F
1G
0?
#170000
0!
0F
0G
1?
#175000
1!
1F
1G
0?
#180000
0!
0F
0G
1?
#185000
1!
1F
1G
0?
#190000
0!
0F
0G
1?
#195000
1!
1F
1G
0?
#200000
0!
0F
0G
1?
#205000
1!
1F
1G
0?
#210000
0!
0F
0G
1?
#215000
1!
1F
1G
0?
#220000
0!
0F
0G
1?
#225000
1!
1F
1G
0?
#230000
0!
0F
0G
1?
#235000
1!
1F
1G
0?
#240000
0!
0F
0G
1?
#245000
1!
1F
1G
0?
#250000
0!
0F
0G
1?
#255000
1!
1F
1G
0?
#260000
0!
0F
0G
1?
#265000
1!
1F
1G
0?
#270000
0!
0F
0G
1?
#275000
1!
1F
1G
0?
#280000
0!
0F
0G
1?
#285000
1!
1F
1G
0?
#290000
0!
0F
0G
1?
#295000
1!
1F
1G
0?
#300000
0!
0F
0G
1?
#305000
1!
1F
1G
0?
#310000
0!
0F
0G
1?
#315000
1!
1F
1G
0?
#320000
0!
0F
0G
1?
#325000
1!
1F
1G
0?
#330000
0!
0F
0G
1?
#335000
1!
1F
1G
0?
#340000
0!
0F
0G
1?
#345000
1!
1F
1G
0?
#350000
0!
0F
0G
1?
#355000
1!
1F
1G
0?
#360000
0!
0F
0G
1?
#365000
1!
1F
1G
0?
#370000
0!
0F
0G
1?
#375000
1!
1F
1G
0?
#380000
0!
0F
0G
1?
#385000
1!
1F
1G
0?
#390000
0!
0F
0G
1?
#395000
1!
1F
1G
0?
#400000
0!
0F
0G
1?
#405000
1!
1F
1G
0?
#410000
0!
0F
0G
1?
#415000
1!
1F
1G
0?
#420000
0!
0F
0G
1?
#425000
1!
1F
1G
0?
#430000
0!
0F
0G
1?
#435000
1!
1F
1G
0?
#440000
0!
0F
0G
1?
#445000
1!
1F
1G
0?
#450000
0!
0F
0G
1?
#455000
1!
1F
1G
0?
#460000
0!
0F
0G
1?
#465000
1!
1F
1G
0?
#470000
0!
0F
0G
1?
#475000
1!
1F
1G
0?
#480000
0!
0F
0G
1?
#485000
1!
1F
1G
0?
#490000
0!
0F
0G
1?
#495000
1!
1F
1G
0?
#500000
0!
0F
0G
1?
#505000
1!
1F
1G
0?
#510000
0!
0F
0G
1?
#515000
1!
1F
1G
0?
#520000
0!
0F
0G
1?
#525000
1!
1F
1G
0?
#530000
0!
0F
0G
1?
#535000
1!
1F
1G
0?
#540000
0!
0F
0G
1?
#545000
1!
1F
1G
0?
#550000
0!
0F
0G
1?
#555000
1!
1F
1G
0?
#560000
0!
0F
0G
1?
#565000
1!
1F
1G
0?
#570000
0!
0F
0G
1?
#575000
1!
1F
1G
0?
#580000
0!
0F
0G
1?
#585000
1!
1F
1G
0?
#590000
0!
0F
0G
1?
#595000
1!
1F
1G
0?
#600000
0!
0F
0G
1?
#605000
1!
1F
1G
0?
#610000
0!
0F
0G
1?
#615000
1!
1F
1G
0?
#620000
0!
0F
0G
1?
#625000
1!
1F
1G
0?
#630000
0!
0F
0G
1?
#635000
1!
1F
1G
0?
#640000
0!
0F
0G
1?
#645000
1!
1F
1G
0?
#650000
0!
0F
0G
1?
#655000
1!
1F
1G
0?
#660000
0!
0F
0G
1?
#665000
1!
1F
1G
0?
#670000
0!
0F
0G
1?
#675000
1!
1F
1G
0?
#680000
0!
0F
0G
1?
#685000
1!
1F
1G
0?
#690000
0!
0F
0G
1?
#695000
1!
1F
1G
0?
#700000
0!
0F
0G
1?
#705000
1!
1F
1G
0?
#710000
0!
0F
0G
1?
#715000
1!
1F
1G
0?
#720000
0!
0F
0G
1?
#725000
1!
1F
1G
0?
#730000
0!
0F
0G
1?
#735000
1!
1F
1G
0?
#740000
0!
0F
0G
1?
#745000
1!
1F
1G
0?
#750000
0!
0F
0G
1?
#755000
1!
1F
1G
0?
#760000
0!
0F
0G
1?
#765000
1!
1F
1G
0?
#770000
0!
0F
0G
1?
#775000
1!
1F
1G
0?
#780000
0!
0F
0G
1?
#785000
1!
1F
1G
0?
#790000
0!
0F
0G
1?
#795000
1!
1F
1G
0?
#800000
0!
0F
0G
1?
#805000
1!
1F
1G
0?
#810000
0!
0F
0G
1?
#815000
1!
1F
1G
0?
#820000
0!
0F
0G
1?
#825000
1!
1F
1G
0?
#830000
0!
0F
0G
1?
#835000
1!
1F
1G
0?
#840000
0!
0F
0G
1?
#845000
1!
1F
1G
0?
#850000
0!
0F
0G
1?
#855000
1!
1F
1G
0?
#860000
0!
0F
0G
1?
#865000
1!
1F
1G
0?
#870000
0!
0F
0G
1?
#875000
1!
1F
1G
0?
#880000
0!
0F
0G
1?
#885000
1!
1F
1G
0?
#890000
0!
0F
0G
1?
#895000
1!
1F
1G
0?
#900000
0!
0F
0G
1?
#905000
1!
1F
1G
0?
#910000
0!
0F
0G
1?
#915000
1!
1F
1G
0?
#920000
0!
0F
0G
1?
#925000
1!
1F
1G
0?
#930000
0!
0F
0G
1?
#935000
1!
1F
1G
0?
#940000
0!
0F
0G
1?
#945000
1!
1F
1G
0?
#950000
0!
0F
0G
1?
#955000
1!
1F
1G
0?
#960000
0!
0F
0G
1?
#965000
1!
1F
1G
0?
#970000
0!
0F
0G
1?
#975000
1!
1F
1G
0?
#980000
0!
0F
0G
1?
#985000
1!
1F
1G
0?
#990000
0!
0F
0G
1?
#995000
1!
1F
1G
0?
