Projeto_RTL/Incrementer/simulation/qsim/incrementer.msim.vcd
$comment
	File created using the following command:
		vcd file incrementer.msim.vcd -direction
$end
$date
	Tue Jun 13 21:18:41 2023
$end
$version
	ModelSim Version 10.1d
$end
$timescale
	1ps
$end
$scope module counter_wload_6_vlg_vec_tst $end
$var reg 1 ! clk $end
$var reg 6 " in_data [5:0] $end
$var reg 1 # load $end
$var wire 1 $ out_data [5] $end
$var wire 1 % out_data [4] $end
$var wire 1 & out_data [3] $end
$var wire 1 ' out_data [2] $end
$var wire 1 ( out_data [1] $end
$var wire 1 ) out_data [0] $end
$var wire 1 * sig $end
$var wire 1 + sampler $end
$scope module i1 $end
$var wire 1 , gnd $end
$var wire 1 - vcc $end
$var wire 1 . unknown $end
$var tri1 1 / devclrn $end
$var tri1 1 0 devpor $end
$var tri1 1 1 devoe $end
$var wire 1 2 bit_register_6|inst2|Q~2_combout $end
$var wire 1 3 clk~combout $end
$var wire 1 4 clk~clkctrl_outclk $end
$var wire 1 5 load~combout $end
$var wire 1 6 bit_register_6|inst1|Q~0_combout $end
$var wire 1 7 bit_register_6|inst1|Q~1_combout $end
$var wire 1 8 bit_register_6|inst1|Q~regout $end
$var wire 1 9 bit_register_6|inst5|Q~1_combout $end
$var wire 1 : bit_register_6|inst4|Q~0_combout $end
$var wire 1 ; bit_register_6|inst4|Q~regout $end
$var wire 1 < comp0|eq~0_combout $end
$var wire 1 = bit_register_6|inst5|Q~2_combout $end
$var wire 1 > bit_register_6|inst5|Q~3_combout $end
$var wire 1 ? bit_register_6|inst5|Q~regout $end
$var wire 1 @ bit_register_6|inst2|Q~0_combout $end
$var wire 1 A bit_register_6|inst2|Q~1_combout $end
$var wire 1 B bit_register_6|inst2|Q~3_combout $end
$var wire 1 C bit_register_6|inst2|Q~regout $end
$var wire 1 D bit_register_6|inst5|Q~0_combout $end
$var wire 1 E bit_register_6|inst3|Q~0_combout $end
$var wire 1 F bit_register_6|inst3|Q~regout $end
$var wire 1 G comp0|eq~1_combout $end
$var wire 1 H bit_register_6|inst0|Q~0_combout $end
$var wire 1 I bit_register_6|inst0|Q~regout $end
$var wire 1 J in_data~combout [5] $end
$var wire 1 K in_data~combout [4] $end
$var wire 1 L in_data~combout [3] $end
$var wire 1 M in_data~combout [2] $end
$var wire 1 N in_data~combout [1] $end
$var wire 1 O in_data~combout [0] $end
$upscope $end
$upscope $end
$enddefinitions $end
#0
$dumpvars
1!
b0 "
1#
0)
0(
0'
0&
0%
0$
0*
x+
0,
1-
x.
1/
10
11
02
13
14
15
06
07
08
09
0:
0;
0<
0=
0>
0?
1@
0A
0B
0C
0D
0E
0F
0G
1H
0I
0O
0N
0M
0L
0K
0J
$end
#500
0!
03
04
0+
#3000
1!
13
14
1+
1I
0H
16
1)
17
#5500
0!
03
04
0+
#8000
1!
13
14
1+
0I
18
1H
06
07
0)
1(
17
#10500
0!
03
04
0+
#13000
1!
13
14
1+
1I
0H
1<
16
1)
1A
07
1B
#15500
0!
03
04
0+
#18000
1!
13
14
1+
0I
1C
08
1H
0<
06
12
17
0)
1'
0(
0A
07
#20500
0!
03
04
0+
#23000
1!
13
14
1+
1I
0H
16
1)
17
#25500
0!
03
04
0+
#28000
1!
13
14
1+
0I
18
1H
06
07
0)
1(
17
#30500
0!
03
04
0+
#33000
1!
13
14
1+
1I
0H
1D
16
02
1)
1E
1=
07
0B
#35500
0!
03
04
0+
#38000
1!
13
14
1+
0I
1F
0C
08
1H
0D
06
0E
19
17
0)
1&
0'
0(
1E
0=
09
07
1:
0:
#40500
0!
03
04
0+
#43000
1!
13
14
1+
1I
0H
16
1)
17
#45500
0!
03
04
0+
#48000
1!
13
14
1+
0I
18
1H
06
07
0)
1(
17
#50500
0!
03
04
0+
#53000
1!
13
14
1+
1I
0H
1<
16
1)
1A
07
1B
#55500
0!
03
04
0+
#58000
1!
13
14
1+
0I
1C
08
1H
0<
06
12
17
0)
1'
0(
0A
07
#60500
0!
03
04
0+
#63000
1!
13
14
1+
1I
0H
16
1)
17
#65500
0!
03
04
0+
#68000
1!
13
14
1+
0I
18
1H
06
07
0)
1(
17
#70500
0!
03
04
0+
#73000
1!
13
14
1+
1I
0H
1D
16
02
1)
0E
1=
19
07
0B
1:
#75500
0!
03
04
0+
#78000
1!
13
14
1+
0I
0F
0C
1;
08
1H
0D
06
1E
09
0:
17
0)
0&
0'
1%
0(
0E
0=
07
1:
#80500
0!
03
04
0+
#83000
1!
13
14
1+
1I
0H
16
1)
17
#85500
0!
03
04
0+
#88000
1!
13
14
1+
0I
18
1H
06
07
0)
1(
17
#90500
0!
03
04
0+
#93000
1!
13
14
1+
1I
0H
1<
16
1)
1A
07
1B
#95500
0!
03
04
0+
#98000
1!
13
14
1+
0I
1C
08
1H
0<
06
12
17
0)
1'
0(
0A
07
#100500
0!
03
04
0+
#103000
1!
13
14
1+
1I
0H
16
1)
17
#105500
0!
03
04
0+
#108000
1!
13
14
1+
0I
18
1H
06
07
0)
1(
17
#110500
0!
03
04
0+
#113000
1!
13
14
1+
1I
0H
1D
16
02
1)
1E
1=
07
0B
#115500
0!
03
04
0+
#118000
1!
13
14
1+
0I
1F
0C
08
1H
0D
06
0E
1>
19
17
0)
1&
0'
0(
1E
0=
09
07
0:
0>
1:
#120500
0!
03
04
0+
#123000
1!
13
14
1+
1I
0H
16
1)
17
#125500
0!
03
04
0+
#128000
1!
13
14
1+
0I
18
1H
06
07
0)
1(
17
#130500
0!
03
04
0+
#133000
1!
13
14
1+
1I
0H
1<
16
1)
1A
07
1B
#135500
0!
03
04
0+
#138000
1!
13
14
1+
0I
1C
08
1H
0<
06
12
17
0)
1'
0(
0A
07
#140500
0!
03
04
0+
#143000
1!
13
14
1+
1I
0H
16
1)
17
#145500
0!
03
04
0+
#148000
1!
13
14
1+
0I
18
1H
06
07
0)
1(
17
#150500
0!
03
04
0+
#153000
1!
13
14
1+
1I
0H
1D
16
02
1)
0E
1=
19
07
0B
1>
0:
#155500
0!
03
04
0+
#158000
1!
13
14
1+
0I
0F
0C
1?
0;
08
1H
0D
06
1E
09
1:
17
0)
0&
0'
1$
0%
0(
0E
0=
07
0:
#160500
0!
03
04
0+
#163000
1!
13
14
1+
1I
0H
16
1)
17
#165500
0!
03
04
0+
#168000
1!
13
14
1+
0I
18
1H
06
07
0)
1(
17
#170500
0!
03
04
0+
#173000
1!
13
14
1+
1I
0H
1<
16
1)
1A
1=
07
1B
#175500
0!
03
04
0+
#178000
1!
13
14
1+
0I
1C
08
1H
0<
06
12
17
0)
1'
0(
0A
0=
07
#180500
0!
03
04
0+
#183000
1!
13
14
1+
1I
0H
16
1)
17
#185500
0!
03
04
0+
#188000
1!
13
14
1+
0I
18
1H
06
07
0)
1(
17
#190500
0!
03
04
0+
#193000
1!
13
14
1+
1I
0H
1D
16
02
1)
1E
1=
07
0B
#195500
0!
03
04
0+
#198000
1!
13
14
1+
0I
1F
0C
08
1H
0D
06
0E
19
17
0)
1&
0'
0(
1E
0=
09
07
1:
0:
#200500
0!
03
04
0+
#203000
1!
13
14
1+
1I
0H
16
1)
17
#205500
0!
03
04
0+
#208000
1!
13
14
1+
0I
18
1H
06
07
0)
1(
17
#210500
0!
03
04
0+
#213000
1!
13
14
1+
1I
0H
1<
16
1)
1A
1=
07
1B
#215500
0!
03
04
0+
#218000
1!
13
14
1+
0I
1C
08
1H
0<
06
12
17
0)
1'
0(
0A
0=
07
#220500
0!
03
04
0+
#223000
1!
13
14
1+
1I
0H
16
1)
17
#225500
0!
03
04
0+
#228000
1!
13
14
1+
0I
18
1H
06
07
0)
1(
17
#230500
0!
03
04
0+
#233000
1!
13
14
1+
1I
0H
1D
16
02
1)
0E
1=
19
07
0B
1:
#235500
0!
03
04
0+
#238000
1!
13
14
1+
0I
0F
0C
1;
08
1H
0D
06
1E
09
0@
0:
17
0)
0&
0'
1%
0(
0E
0=
07
1:
#240500
0!
03
04
0+
#243000
1!
13
14
1+
1I
0H
16
1)
17
#245500
0!
03
04
0+
#248000
1!
13
14
1+
0I
18
1H
06
07
0)
1(
17
#250500
0!
03
04
0+
#253000
1!
13
14
1+
1I
0H
1<
16
1)
1A
1=
07
1B
#255500
0!
03
04
0+
#258000
1!
13
14
1+
0I
1C
08
1H
0<
06
12
17
0)
1'
0(
0A
0=
07
#260500
0!
03
04
0+
#263000
1!
13
14
1+
1I
0H
16
1)
17
#265500
0!
03
04
0+
#268000
1!
13
14
1+
0I
18
1H
06
07
0)
1(
17
#270500
0!
03
04
0+
#273000
1!
13
14
1+
1I
0H
1D
16
02
1)
1E
1=
07
0B
#275500
0!
03
04
0+
#278000
1!
13
14
1+
0I
1F
0C
08
1H
0D
06
0E
0>
19
17
0)
1&
0'
0(
1E
0=
09
07
0:
1>
1:
#280500
0!
03
04
0+
#283000
1!
13
14
1+
1I
0H
16
1)
17
#285500
0!
03
04
0+
#288000
1!
13
14
1+
0I
18
1H
06
07
0)
1(
17
#290500
0!
03
04
0+
#293000
1!
13
14
1+
1I
0H
1<
16
1)
1G
1=
07
0E
0:
0>
1*
#295500
0!
03
04
0+
#298000
1!
13
14
1+
0I
0F
0?
0;
08
1H
0<
06
0G
1A
1@
0=
17
0)
0&
0$
0%
0(
0A
07
1B
0*
0B
#300500
0!
03
04
0+
#303000
1!
13
14
1+
1I
0H
16
1)
17
#305500
0!
03
04
0+
#308000
1!
13
14
1+
0I
18
1H
06
07
0)
1(
17
#310500
0!
03
04
0+
#313000
1!
13
14
1+
1I
0H
1<
16
1)
1A
07
1B
#315500
0!
03
04
0+
#318000
1!
13
14
1+
0I
1C
08
1H
0<
06
12
17
0)
1'
0(
0A
07
#320500
0!
03
04
0+
#323000
1!
13
14
1+
1I
0H
16
1)
17
#325500
0!
03
04
0+
#328000
1!
13
14
1+
0I
18
1H
06
07
0)
1(
17
#330500
0!
03
04
0+
#333000
1!
13
14
1+
1I
0H
1D
16
02
1)
1E
1=
07
0B
#335500
0!
03
04
0+
#338000
1!
13
14
1+
0I
1F
0C
08
1H
0D
06
0E
19
17
0)
1&
0'
0(
1E
0=
09
07
1:
0:
#340500
0!
03
04
0+
#343000
1!
13
14
1+
1I
0H
16
1)
17
#345500
0!
03
04
0+
#348000
1!
13
14
1+
0I
18
1H
06
07
0)
1(
17
#350500
0!
03
04
0+
#353000
1!
13
14
1+
1I
0H
1<
16
1)
1A
07
1B
#355500
0!
03
04
0+
#358000
1!
13
14
1+
0I
1C
08
1H
0<
06
12
17
0)
1'
0(
0A
07
#360500
0!
03
04
0+
#363000
1!
13
14
1+
1I
0H
16
1)
17
#365500
0!
03
04
0+
#368000
1!
13
14
1+
0I
18
1H
06
07
0)
1(
17
#370500
0!
03
04
0+
#373000
1!
13
14
1+
1I
0H
1D
16
02
1)
0E
1=
19
07
0B
1:
#375500
0!
03
04
0+
#378000
1!
13
14
1+
0I
0F
0C
1;
08
1H
0D
06
1E
09
0:
17
0)
0&
0'
1%
0(
0E
0=
07
1:
#380500
0!
03
04
0+
#383000
1!
13
14
1+
1I
0H
16
1)
17
#385500
0!
03
04
0+
#388000
1!
13
14
1+
0I
18
1H
06
07
0)
1(
17
#390500
0!
03
04
0+
#393000
1!
13
14
1+
1I
0H
1<
16
1)
1A
07
1B
#395500
0!
03
04
0+
#398000
1!
13
14
1+
0I
1C
08
1H
0<
06
12
17
0)
1'
0(
0A
07
#400500
0!
03
04
0+
#403000
1!
13
14
1+
1I
0H
16
1)
17
#405500
0!
03
04
0+
#408000
1!
13
14
1+
0I
18
1H
06
07
0)
1(
17
#410500
0!
03
04
0+
#413000
1!
13
14
1+
1I
0H
1D
16
02
1)
1E
1=
07
0B
#415500
0!
03
04
0+
#418000
1!
13
14
1+
0I
1F
0C
08
1H
0D
06
0E
1>
19
17
0)
1&
0'
0(
1E
0=
09
07
0:
0>
1:
#420500
0!
03
04
0+
#423000
1!
13
14
1+
1I
0H
16
1)
17
#425500
0!
03
04
0+
#428000
1!
13
14
1+
0I
18
1H
06
07
0)
1(
17
#430500
0!
03
04
0+
#433000
1!
13
14
1+
1I
0H
1<
16
1)
1A
07
1B
#435500
0!
03
04
0+
#438000
1!
13
14
1+
0I
1C
08
1H
0<
06
12
17
0)
1'
0(
0A
07
#440500
0!
03
04
0+
#443000
1!
13
14
1+
1I
0H
16
1)
17
#445500
0!
03
04
0+
#448000
1!
13
14
1+
0I
18
1H
06
07
0)
1(
17
#450500
0!
03
04
0+
#453000
1!
13
14
1+
1I
0H
1D
16
02
1)
0E
1=
19
07
0B
1>
0:
#455500
0!
03
04
0+
#458000
1!
13
14
1+
0I
0F
0C
1?
0;
08
1H
0D
06
1E
09
1:
17
0)
0&
0'
1$
0%
0(
0E
0=
07
0:
#460500
0!
03
04
0+
#463000
1!
13
14
1+
1I
0H
16
1)
17
#465500
0!
03
04
0+
#468000
1!
13
14
1+
0I
18
1H
06
07
0)
1(
17
#470500
0!
03
04
0+
#473000
1!
13
14
1+
1I
0H
1<
16
1)
1A
1=
07
1B
#475500
0!
03
04
0+
#478000
1!
13
14
1+
0I
1C
08
1H
0<
06
12
17
0)
1'
0(
0A
0=
07
#480500
0!
03
04
0+
#483000
1!
13
14
1+
1I
0H
16
1)
17
#485500
0!
03
04
0+
#488000
1!
13
14
1+
0I
18
1H
06
07
0)
1(
17
#490500
0!
03
04
0+
#493000
1!
13
14
1+
1I
0H
1D
16
02
1)
1E
1=
07
0B
#495500
0!
03
04
0+
#498000
1!
13
14
1+
0I
1F
0C
08
1H
0D
06
0E
19
17
0)
1&
0'
0(
1E
0=
09
07
1:
0:
#500500
0!
03
04
0+
#503000
1!
13
14
1+
1I
0H
16
1)
17
#505500
0!
03
04
0+
#508000
1!
13
14
1+
0I
18
1H
06
07
0)
1(
17
#510500
0!
03
04
0+
#513000
1!
13
14
1+
1I
0H
1<
16
1)
1A
1=
07
1B
#515500
0!
03
04
0+
#518000
1!
13
14
1+
0I
1C
08
1H
0<
06
12
17
0)
1'
0(
0A
0=
07
#520500
0!
03
04
0+
#523000
1!
13
14
1+
1I
0H
16
1)
17
#525500
0!
03
04
0+
#528000
1!
13
14
1+
0I
18
1H
06
07
0)
1(
17
#530500
0!
03
04
0+
#533000
1!
13
14
1+
1I
0H
1D
16
02
1)
0E
1=
19
07
0B
1:
#535500
0!
03
04
0+
#538000
1!
13
14
1+
0I
0F
0C
1;
08
1H
0D
06
1E
09
0@
0:
17
0)
0&
0'
1%
0(
0E
0=
07
1:
#540500
0!
03
04
0+
#543000
1!
13
14
1+
1I
0H
16
1)
17
#545500
0!
03
04
0+
#548000
1!
13
14
1+
0I
18
1H
06
07
0)
1(
17
#550500
0!
03
04
0+
#553000
1!
13
14
1+
1I
0H
1<
16
1)
1A
1=
07
1B
#555500
0!
03
04
0+
#558000
1!
13
14
1+
0I
1C
08
1H
0<
06
12
17
0)
1'
0(
0A
0=
07
#560500
0!
03
04
0+
#563000
1!
13
14
1+
1I
0H
16
1)
17
#565500
0!
03
04
0+
#568000
1!
13
14
1+
0I
18
1H
06
07
0)
1(
17
#570500
0!
03
04
0+
#573000
1!
13
14
1+
1I
0H
1D
16
02
1)
1E
1=
07
0B
#575500
0!
03
04
0+
#578000
1!
13
14
1+
0I
1F
0C
08
1H
0D
06
0E
0>
19
17
0)
1&
0'
0(
1E
0=
09
07
0:
1>
1:
#580500
0!
03
04
0+
#583000
1!
13
14
1+
1I
0H
16
1)
17
#585500
0!
03
04
0+
#588000
1!
13
14
1+
0I
18
1H
06
07
0)
1(
17
#590500
0!
03
04
0+
#593000
1!
13
14
1+
1I
0H
1<
16
1)
1G
1=
07
0E
0:
0>
1*
#595500
0!
03
04
0+
#598000
1!
13
14
1+
0I
0F
0?
0;
08
1H
0<
06
0G
1A
1@
0=
17
0)
0&
0$
0%
0(
0A
07
1B
0*
0B
#600500
0!
03
04
0+
#603000
1!
13
14
1+
1I
0H
16
1)
17
#605500
0!
03
04
0+
#608000
1!
13
14
1+
0I
18
1H
06
07
0)
1(
17
#610500
0!
03
04
0+
#613000
1!
13
14
1+
1I
0H
1<
16
1)
1A
07
1B
#615500
0!
03
04
0+
#618000
1!
13
14
1+
0I
1C
08
1H
0<
06
12
17
0)
1'
0(
0A
07
#620500
0!
03
04
0+
#623000
1!
13
14
1+
1I
0H
16
1)
17
#625500
0!
03
04
0+
#628000
1!
13
14
1+
0I
18
1H
06
07
0)
1(
17
#630500
0!
03
04
0+
#633000
1!
13
14
1+
1I
0H
1D
16
02
1)
1E
1=
07
0B
#635500
0!
03
04
0+
#638000
1!
13
14
1+
0I
1F
0C
08
1H
0D
06
0E
19
17
0)
1&
0'
0(
1E
0=
09
07
1:
0:
#640500
0!
03
04
0+
#643000
1!
13
14
1+
1I
0H
16
1)
17
#645500
0!
03
04
0+
#648000
1!
13
14
1+
0I
18
1H
06
07
0)
1(
17
#650500
0!
03
04
0+
#653000
1!
13
14
1+
1I
0H
1<
16
1)
1A
07
1B
#655500
0!
03
04
0+
#658000
1!
13
14
1+
0I
1C
08
1H
0<
06
12
17
0)
1'
0(
0A
07
#660500
0!
03
04
0+
#663000
1!
13
14
1+
1I
0H
16
1)
17
#665500
0!
03
04
0+
#668000
1!
13
14
1+
0I
18
1H
06
07
0)
1(
17
#670500
0!
03
04
0+
#673000
1!
13
14
1+
1I
0H
1D
16
02
1)
0E
1=
19
07
0B
1:
#675500
0!
03
04
0+
#678000
1!
13
14
1+
0I
0F
0C
1;
08
1H
0D
06
1E
09
0:
17
0)
0&
0'
1%
0(
0E
0=
07
1:
#680500
0!
03
04
0+
#683000
1!
13
14
1+
1I
0H
16
1)
17
#685500
0!
03
04
0+
#688000
1!
13
14
1+
0I
18
1H
06
07
0)
1(
17
#690500
0!
03
04
0+
#693000
1!
13
14
1+
1I
0H
1<
16
1)
1A
07
1B
#695500
0!
03
04
0+
#698000
1!
13
14
1+
0I
1C
08
1H
0<
06
12
17
0)
1'
0(
0A
07
#700500
0!
03
04
0+
#703000
1!
13
14
1+
1I
0H
16
1)
17
#705500
0!
03
04
0+
#708000
1!
13
14
1+
0I
18
1H
06
07
0)
1(
17
#710500
0!
03
04
0+
#713000
1!
13
14
1+
1I
0H
1D
16
02
1)
1E
1=
07
0B
#715500
0!
03
04
0+
#718000
1!
13
14
1+
0I
1F
0C
08
1H
0D
06
0E
1>
19
17
0)
1&
0'
0(
1E
0=
09
07
0:
0>
1:
#720500
0!
03
04
0+
#723000
1!
13
14
1+
1I
0H
16
1)
17
#725500
0!
03
04
0+
#728000
1!
13
14
1+
0I
18
1H
06
07
0)
1(
17
#730500
0!
03
04
0+
#733000
1!
13
14
1+
1I
0H
1<
16
1)
1A
07
1B
#735500
0!
03
04
0+
#738000
1!
13
14
1+
0I
1C
08
1H
0<
06
12
17
0)
1'
0(
0A
07
#740500
0!
03
04
0+
#743000
1!
13
14
1+
1I
0H
16
1)
17
#745500
0!
03
04
0+
#748000
1!
13
14
1+
0I
18
1H
06
07
0)
1(
17
#750500
0!
03
04
0+
#753000
1!
13
14
1+
1I
0H
1D
16
02
1)
0E
1=
19
07
0B
1>
0:
#755500
0!
03
04
0+
#758000
1!
13
14
1+
0I
0F
0C
1?
0;
08
1H
0D
06
1E
09
1:
17
0)
0&
0'
1$
0%
0(
0E
0=
07
0:
#760500
0!
03
04
0+
#763000
1!
13
14
1+
1I
0H
16
1)
17
#765500
0!
03
04
0+
#768000
1!
13
14
1+
0I
18
1H
06
07
0)
1(
17
#770500
0!
03
04
0+
#773000
1!
13
14
1+
1I
0H
1<
16
1)
1A
1=
07
1B
#775500
0!
03
04
0+
#778000
1!
13
14
1+
0I
1C
08
1H
0<
06
12
17
0)
1'
0(
0A
0=
07
#780500
0!
03
04
0+
#783000
1!
13
14
1+
1I
0H
16
1)
17
#785500
0!
03
04
0+
#788000
1!
13
14
1+
0I
18
1H
06
07
0)
1(
17
#790500
0!
03
04
0+
#793000
1!
13
14
1+
1I
0H
1D
16
02
1)
1E
1=
07
0B
#795500
0!
03
04
0+
#798000
1!
13
14
1+
0I
1F
0C
08
1H
0D
06
0E
19
17
0)
1&
0'
0(
1E
0=
09
07
1:
0:
#800500
0!
03
04
0+
#803000
1!
13
14
1+
1I
0H
16
1)
17
#805500
0!
03
04
0+
#808000
1!
13
14
1+
0I
18
1H
06
07
0)
1(
17
#810500
0!
03
04
0+
#813000
1!
13
14
1+
1I
0H
1<
16
1)
1A
1=
07
1B
#815500
0!
03
04
0+
#818000
1!
13
14
1+
0I
1C
08
1H
0<
06
12
17
0)
1'
0(
0A
0=
07
#820500
0!
03
04
0+
#823000
1!
13
14
1+
1I
0H
16
1)
17
#825500
0!
03
04
0+
#828000
1!
13
14
1+
0I
18
1H
06
07
0)
1(
17
#830500
0!
03
04
0+
#833000
1!
13
14
1+
1I
0H
1D
16
02
1)
0E
1=
19
07
0B
1:
#835500
0!
03
04
0+
#838000
1!
13
14
1+
0I
0F
0C
1;
08
1H
0D
06
1E
09
0@
0:
17
0)
0&
0'
1%
0(
0E
0=
07
1:
#840500
0!
03
04
0+
#843000
1!
13
14
1+
1I
0H
16
1)
17
#845500
0!
03
04
0+
#848000
1!
13
14
1+
0I
18
1H
06
07
0)
1(
17
#850500
0!
03
04
0+
#853000
1!
13
14
1+
1I
0H
1<
16
1)
1A
1=
07
1B
#855500
0!
03
04
0+
#858000
1!
13
14
1+
0I
1C
08
1H
0<
06
12
17
0)
1'
0(
0A
0=
07
#860500
0!
03
04
0+
#863000
1!
13
14
1+
1I
0H
16
1)
17
#865500
0!
03
04
0+
#868000
1!
13
14
1+
0I
18
1H
06
07
0)
1(
17
#870500
0!
03
04
0+
#873000
1!
13
14
1+
1I
0H
1D
16
02
1)
1E
1=
07
0B
#875500
0!
03
04
0+
#878000
1!
13
14
1+
0I
1F
0C
08
1H
0D
06
0E
0>
19
17
0)
1&
0'
0(
1E
0=
09
07
0:
1>
1:
#880500
0!
03
04
0+
#883000
1!
13
14
1+
1I
0H
16
1)
17
#885500
0!
03
04
0+
#888000
1!
13
14
1+
0I
18
1H
06
07
0)
1(
17
#890500
0!
03
04
0+
#893000
1!
13
14
1+
1I
0H
1<
16
1)
1G
1=
07
0E
0:
0>
1*
#895500
0!
03
04
0+
#898000
1!
13
14
1+
0I
0F
0?
0;
08
1H
0<
06
0G
1A
1@
0=
17
0)
0&
0$
0%
0(
0A
07
1B
0*
0B
#900500
0!
03
04
0+
#903000
1!
13
14
1+
1I
0H
16
1)
17
#905500
0!
03
04
0+
#908000
1!
13
14
1+
0I
18
1H
06
07
0)
1(
17
#910500
0!
03
04
0+
#913000
1!
13
14
1+
1I
0H
1<
16
1)
1A
07
1B
#915500
0!
03
04
0+
#918000
1!
13
14
1+
0I
1C
08
1H
0<
06
12
17
0)
1'
0(
0A
07
#920500
0!
03
04
0+
#923000
1!
13
14
1+
1I
0H
16
1)
17
#925500
0!
03
04
0+
#928000
1!
13
14
1+
0I
18
1H
06
07
0)
1(
17
#930500
0!
03
04
0+
#933000
1!
13
14
1+
1I
0H
1D
16
02
1)
1E
1=
07
0B
#935500
0!
03
04
0+
#938000
1!
13
14
1+
0I
1F
0C
08
1H
0D
06
0E
19
17
0)
1&
0'
0(
1E
0=
09
07
1:
0:
#940500
0!
03
04
0+
#943000
1!
13
14
1+
1I
0H
16
1)
17
#945500
0!
03
04
0+
#948000
1!
13
14
1+
0I
18
1H
06
07
0)
1(
17
#950500
0!
03
04
0+
#953000
1!
13
14
1+
1I
0H
1<
16
1)
1A
07
1B
#955500
0!
03
04
0+
#958000
1!
13
14
1+
0I
1C
08
1H
0<
06
12
17
0)
1'
0(
0A
07
#960500
0!
03
04
0+
#963000
1!
13
14
1+
1I
0H
16
1)
17
#965500
0!
03
04
0+
#968000
1!
13
14
1+
0I
18
1H
06
07
0)
1(
17
#970500
0!
03
04
0+
#973000
1!
13
14
1+
1I
0H
1D
16
02
1)
0E
1=
19
07
0B
1:
#975500
0!
03
04
0+
#978000
1!
13
14
1+
0I
0F
0C
1;
08
1H
0D
06
1E
09
0:
17
0)
0&
0'
1%
0(
0E
0=
07
1:
#980500
0!
03
04
0+
#983000
1!
13
14
1+
1I
0H
16
1)
17
#985500
0!
03
04
0+
#988000
1!
13
14
1+
0I
18
1H
06
07
0)
1(
17
#990500
0!
03
04
0+
#993000
1!
13
14
1+
1I
0H
1<
16
1)
1A
07
1B
#995500
0!
03
04
0+
#998000
1!
13
14
1+
0I
1C
08
1H
0<
06
12
17
0)
1'
0(
0A
07
