data_path_projrtl1/simulation/qsim/datapath.msim.vcd
$comment
	File created using the following command:
		vcd file datapath.msim.vcd -direction
$end
$date
	Fri Jun 16 23:40:36 2023
$end
$version
	ModelSim Version 10.1d
$end
$timescale
	1ps
$end
$scope module datapath_vlg_vec_tst $end
$var reg 1 ! CLK $end
$var reg 3 " KEY [2:0] $end
$var reg 1 # LD_HOURS $end
$var reg 1 $ LD_LAST $end
$var reg 1 % RESET $end
$var reg 1 & SHOW $end
$var wire 1 ' E $end
$var wire 1 ( T $end
$var wire 1 ) sampler $end
$scope module i1 $end
$var wire 1 * gnd $end
$var wire 1 + vcc $end
$var wire 1 , unknown $end
$var tri1 1 - devclrn $end
$var tri1 1 . devpor $end
$var tri1 1 / devoe $end
$var wire 1 0 timer0|counter0|days|bit_register_5|inst2|Q~regout $end
$var wire 1 1 timer0|counter0|minutes|bit_register_6|inst2|Q~regout $end
$var wire 1 2 timer0|counter0|minutes|bit_register_6|inst5|Q~regout $end
$var wire 1 3 timer0|counter0|minutes|adder06|adder2|s~combout $end
$var wire 1 4 timer0|counter0|minutes|adder06|adder5|s~combout $end
$var wire 1 5 timer0|counter0|seconds|adder06|adder1|co~0_combout $end
$var wire 1 6 timer0|counter0|days|mux0|mux2|o~2_combout $end
$var wire 1 7 timer0|counter0|minutes|mux06|mux2|o~2_combout $end
$var wire 1 8 timer0|counter0|minutes|mux06|mux5|o~2_combout $end
$var wire 1 9 CLK~combout $end
$var wire 1 : CLK~clkctrl_outclk $end
$var wire 1 ; bf0_8x1|tsd0|out_data~1_combout $end
$var wire 1 < bf0_8x1|reg0_8x1|latchd0|q~feeder_combout $end
$var wire 1 = RESET~combout $end
$var wire 1 > bf0_8x1|reg1_8x1|latchd0|q~feeder_combout $end
$var wire 1 ? bf0_8x1|reg1_8x1|latchd0|process_0~0_combout $end
$var wire 1 @ bf0_8x1|reg1_8x1|latchd0|q~regout $end
$var wire 1 A bf0_8x1|reg0_8x1|latchd0|process_0~0_combout $end
$var wire 1 B bf0_8x1|reg0_8x1|latchd0|q~regout $end
$var wire 1 C bf0_8x1|tsd0|out_data~2_combout $end
$var wire 1 D timer0|counter0|seconds|bit_register_6|inst0|Q~0_combout $end
$var wire 1 E RESET~clkctrl_outclk $end
$var wire 1 F timer0|counter0|seconds|bit_register_6|inst0|Q~regout $end
$var wire 1 G timer0|counter0|seconds|mux06|mux2|o~2_combout $end
$var wire 1 H timer0|counter0|seconds|bit_register_6|inst2|Q~regout $end
$var wire 1 I timer0|counter0|seconds|mux06|mux3|o~0_combout $end
$var wire 1 J timer0|counter0|seconds|bit_register_6|inst3|Q~regout $end
$var wire 1 K timer0|counter0|seconds|mux06|mux1|o~0_combout $end
$var wire 1 L timer0|counter0|seconds|bit_register_6|inst1|Q~regout $end
$var wire 1 M timer0|counter0|seconds|adder06|adder3|co~combout $end
$var wire 1 N timer0|counter0|seconds|comp06|eq~0_combout $end
$var wire 1 O timer0|counter0|seconds|mux06|mux5|o~0_combout $end
$var wire 1 P timer0|counter0|seconds|bit_register_6|inst5|Q~regout $end
$var wire 1 Q timer0|counter0|seconds|mux06|mux4|o~0_combout $end
$var wire 1 R timer0|counter0|seconds|bit_register_6|inst4|Q~regout $end
$var wire 1 S timer0|counter0|seconds|comp06|eq~combout $end
$var wire 1 T timer0|counter0|minutes|mux06|mux1|o~0_combout $end
$var wire 1 U timer0|counter0|minutes|bit_register_6|inst1|Q~regout $end
$var wire 1 V timer0|counter0|minutes|adder06|adder2|co~0_combout $end
$var wire 1 W timer0|counter0|minutes|adder06|adder2|co~combout $end
$var wire 1 X timer0|counter0|minutes|mux06|mux4|o~0_combout $end
$var wire 1 Y timer0|counter0|minutes|bit_register_6|inst4|Q~regout $end
$var wire 1 Z timer0|counter0|minutes|mux06|mux3|o~0_combout $end
$var wire 1 [ timer0|counter0|minutes|bit_register_6|inst3|Q~regout $end
$var wire 1 \ timer0|counter0|minutes|mux06|mux0|o~0_combout $end
$var wire 1 ] timer0|counter0|minutes|bit_register_6|inst0|Q~regout $end
$var wire 1 ^ timer0|counter0|minutes|comp06|eq~0_combout $end
$var wire 1 _ timer0|counter0|minutes|comp06|eq~combout $end
$var wire 1 ` timer0|counter0|hours|mux0|mux0|o~2_combout $end
$var wire 1 a timer0|counter0|hours|register_5|inst0|Q~regout $end
$var wire 1 b timer0|counter0|hours|comp0|eq~combout $end
$var wire 1 c timer0|counter0|hours|mux0|mux1|o~0_combout $end
$var wire 1 d timer0|counter0|hours|register_5|inst1|Q~regout $end
$var wire 1 e timer0|counter0|hours|adder0|adder2|s~combout $end
$var wire 1 f timer0|counter0|hours|mux0|mux2|o~2_combout $end
$var wire 1 g timer0|counter0|hours|register_5|inst2|Q~regout $end
$var wire 1 h timer0|counter0|hours|comp0|eq~0_combout $end
$var wire 1 i timer0|counter0|hours|adder0|adder2|co~combout $end
$var wire 1 j timer0|counter0|hours|mux0|mux3|o~2_combout $end
$var wire 1 k timer0|counter0|hours|register_5|inst3|Q~regout $end
$var wire 1 l timer0|counter0|hours|mux0|mux4|o~2_combout $end
$var wire 1 m timer0|counter0|hours|register_5|inst4|Q~regout $end
$var wire 1 n timer0|counter0|days|mux0|mux0|o~4_combout $end
$var wire 1 o timer0|counter0|days|bit_register_5|inst0|Q~regout $end
$var wire 1 p timer0|counter0|days|adder0|adder1|co~combout $end
$var wire 1 q timer0|counter0|days|mux0|mux3|o~0_combout $end
$var wire 1 r timer0|counter0|days|bit_register_5|inst3|Q~regout $end
$var wire 1 s timer0|counter0|days|mux0|mux1|o~0_combout $end
$var wire 1 t timer0|counter0|days|bit_register_5|inst1|Q~regout $end
$var wire 1 u timer0|counter0|days|adder0|adder2|co~combout $end
$var wire 1 v timer0|counter0|days|mux0|mux4|o~2_combout $end
$var wire 1 w timer0|counter0|days|bit_register_5|inst4|Q~regout $end
$var wire 1 x timer0|counter0|days|comp0|eq~0_combout $end
$var wire 1 y timer0|counter0|days|comp0|eq~combout $end
$var wire 1 z KEY~combout [2] $end
$var wire 1 { KEY~combout [1] $end
$var wire 1 | KEY~combout [0] $end
$upscope $end
$upscope $end
$enddefinitions $end
#0
$dumpvars
0!
b0 "
0#
0$
0%
0&
0'
0(
x)
0*
1+
x,
1-
1.
1/
00
01
02
03
04
05
06
07
08
09
0:
1;
1<
0=
1>
0?
0@
1A
0B
0C
1D
0E
0F
0G
0H
0I
0J
0K
0L
0M
0N
0O
0P
0Q
0R
0S
0T
0U
0V
0W
0X
0Y
0Z
0[
0\
0]
0^
0_
0`
0a
0b
0c
0d
0e
0f
0g
0h
0i
0j
0k
0l
0m
0n
0o
0p
0q
0r
0s
0t
0u
0v
0w
0x
0y
0|
0{
0z
$end
#5000
1!
19
1:
0)
1F
1@
1K
0D
#10000
0!
09
0:
1)
#15000
1!
19
1:
0)
1L
0F
1D
#20000
0!
09
0:
1)
#25000
1!
19
1:
0)
1F
0K
1G
0D
15
#30000
1#
0!
09
0:
1)
#35000
1!
19
1:
0)
0L
1H
0F
05
1I
1D
0I
#40000
0!
09
0:
1)
#45000
1!
19
1:
0)
1F
1K
0D
#50000
0#
0!
09
0:
1)
#55000
1!
19
1:
0)
1L
0F
1D
#60000
0!
09
0:
1)
#65000
1!
19
1:
0)
1F
0K
0G
0D
15
1I
#70000
1#
0!
09
0:
1)
#75000
1!
19
1:
0)
0L
1J
0H
0F
05
1D
#80000
0#
0!
09
0:
1)
#85000
1!
19
1:
0)
1F
1K
0D
#90000
0!
09
0:
1)
#95000
1!
19
1:
0)
1L
0F
1D
#100000
1#
0!
09
0:
1)
#105000
1!
19
1:
0)
1F
1N
0K
1G
0D
15
#110000
0!
09
0:
1)
#115000
1!
19
1:
0)
0L
1H
0F
0N
05
0I
1D
1I
#120000
0#
0!
09
0:
1)
#125000
1!
19
1:
0)
1F
1K
0D
#130000
0!
09
0:
1)
#135000
1!
19
1:
0)
1L
0F
1D
#140000
0!
09
0:
1)
#145000
1!
19
1:
0)
1F
1M
0K
0G
0D
15
1Q
0I
#150000
0!
09
0:
1)
#155000
1!
19
1:
0)
1R
0L
0J
0H
0F
0Q
1O
0M
05
1D
1Q
0O
#160000
0!
09
0:
1)
#165000
1!
19
1:
0)
1F
1K
0D
#170000
1#
0!
09
0:
1)
#175000
1!
19
1:
0)
1L
0F
1D
#180000
0!
09
0:
1)
#185000
1!
19
1:
0)
1F
0K
1G
0D
15
#190000
0#
0!
09
0:
1)
#195000
1!
19
1:
0)
0L
1H
0F
05
1I
1D
0I
#200000
0!
09
0:
1)
#205000
1!
19
1:
0)
1F
1K
0D
#210000
1#
0!
09
0:
1)
#215000
1!
19
1:
0)
1L
0F
1D
#220000
0!
09
0:
1)
#225000
1!
19
1:
0)
1F
0K
0G
0D
15
1I
#230000
0!
09
0:
1)
#235000
1!
19
1:
0)
0L
1J
0H
0F
05
1D
#240000
0#
0!
09
0:
1)
#245000
1!
19
1:
0)
1F
1K
0D
#250000
0!
09
0:
1)
#255000
1!
19
1:
0)
1L
0F
1D
#260000
1#
0!
09
0:
1)
#265000
1!
19
1:
0)
1F
1N
0K
1G
0D
15
#270000
0#
0!
09
0:
1)
#275000
1!
19
1:
0)
0L
1H
0F
0N
05
0I
1D
1I
#280000
1#
0!
09
0:
1)
#285000
1!
19
1:
0)
1F
1K
0D
#290000
0!
09
0:
1)
#295000
1!
19
1:
0)
1L
0F
1D
#300000
0!
09
0:
1)
#305000
1!
19
1:
0)
1F
1M
0K
0G
0D
15
0Q
1O
0I
#310000
0#
0!
09
0:
1)
#315000
1!
19
1:
0)
0R
1P
0L
0J
0H
0F
1Q
0M
05
1D
0Q
#320000
0!
09
0:
1)
#325000
1!
19
1:
0)
1F
1K
0D
#330000
1#
0!
09
0:
1)
#335000
1!
19
1:
0)
1L
0F
1D
#340000
0!
09
0:
1)
#345000
1!
19
1:
0)
1F
0K
1G
0D
15
#350000
0#
0!
09
0:
1)
#355000
1!
19
1:
0)
0L
1H
0F
05
1I
1D
0I
#360000
0!
09
0:
1)
#365000
1!
19
1:
0)
1F
1K
0D
#370000
0!
09
0:
1)
#375000
1!
19
1:
0)
1L
0F
1D
#380000
0!
09
0:
1)
#385000
1!
19
1:
0)
1F
0K
0G
0D
15
1I
#390000
1#
0!
09
0:
1)
#395000
1!
19
1:
0)
0L
1J
0H
0F
05
1D
#400000
0!
09
0:
1)
#405000
1!
19
1:
0)
1F
1K
0D
#410000
0#
0!
09
0:
1)
#415000
1!
19
1:
0)
1L
0F
1D
#420000
1#
0!
09
0:
1)
#425000
1!
19
1:
0)
1F
1N
0K
1G
0D
15
#430000
0!
09
0:
1)
#435000
1!
19
1:
0)
0L
1H
0F
0N
05
0I
1D
1I
#440000
0!
09
0:
1)
#445000
1!
19
1:
0)
1F
1K
0D
#450000
0#
0!
09
0:
1)
#455000
1!
19
1:
0)
1L
0F
1D
#460000
0!
09
0:
1)
#465000
1!
19
1:
0)
1F
1M
0K
0G
0D
15
1Q
0I
#470000
0!
09
0:
1)
#475000
1!
19
1:
0)
1R
0L
0J
0H
0F
0Q
0O
0M
05
1D
1Q
1O
#480000
1#
0!
09
0:
1)
#485000
1!
19
1:
0)
1F
1K
0D
#490000
0!
09
0:
1)
#495000
1!
19
1:
0)
1L
0F
1D
#500000
0#
0!
09
0:
1)
#505000
1!
19
1:
0)
1F
0K
1G
0D
15
#510000
0!
09
0:
1)
#515000
1!
19
1:
0)
0L
1H
0F
05
1I
1D
0I
#520000
1#
0!
09
0:
1)
#525000
1!
19
1:
0)
1F
1K
0D
#530000
0#
0!
09
0:
1)
#535000
1!
19
1:
0)
1L
0F
1D
#540000
1#
0!
09
0:
1)
#545000
1!
19
1:
0)
1F
0K
0G
0D
15
1I
#550000
0#
0!
09
0:
1)
#555000
1!
19
1:
0)
0L
1J
0H
0F
05
1D
#560000
0!
09
0:
1)
#565000
1!
19
1:
0)
1F
1K
0D
#570000
1#
0!
09
0:
1)
#575000
1!
19
1:
0)
1L
0F
1D
#580000
0#
0!
09
0:
1)
#585000
1!
19
1:
0)
1F
1N
0K
1G
0D
15
1S
0Q
0O
1\
0I
0G
#590000
0!
09
0:
1)
#595000
1!
19
1:
0)
1]
0R
0P
0L
0J
0F
0\
1T
0S
0N
05
1D
1\
0T
#600000
1#
0!
09
0:
1)
#605000
1!
19
1:
0)
1F
1K
0D
#610000
0#
0!
09
0:
1)
#615000
1!
19
1:
0)
1L
0F
1D
#620000
1#
0!
09
0:
1)
#625000
1!
19
1:
0)
1F
0K
1G
0D
15
#630000
0!
09
0:
1)
#635000
1!
19
1:
0)
0L
1H
0F
05
1I
1D
0I
#640000
0#
0!
09
0:
1)
#645000
1!
19
1:
0)
1F
1K
0D
#650000
1#
0!
09
0:
1)
#655000
1!
19
1:
0)
1L
0F
1D
#660000
0!
09
0:
1)
#665000
1!
19
1:
0)
1F
0K
0G
0D
15
1I
#670000
0#
0!
09
0:
1)
#675000
1!
19
1:
0)
0L
1J
0H
0F
05
1D
#680000
0!
09
0:
1)
#685000
1!
19
1:
0)
1F
1K
0D
#690000
0!
09
0:
1)
#695000
1!
19
1:
0)
1L
0F
1D
#700000
0!
09
0:
1)
#705000
1!
19
1:
0)
1F
1N
0K
1G
0D
15
#710000
0!
09
0:
1)
#715000
1!
19
1:
0)
0L
1H
0F
0N
05
0I
1D
1I
#720000
0!
09
0:
1)
#725000
1!
19
1:
0)
1F
1K
0D
#730000
1#
0!
09
0:
1)
#735000
1!
19
1:
0)
1L
0F
1D
#740000
0#
0!
09
0:
1)
#745000
1!
19
1:
0)
1F
1M
0K
0G
0D
15
1Q
0I
#750000
0!
09
0:
1)
#755000
1!
19
1:
0)
1R
0L
0J
0H
0F
0Q
1O
0M
05
1D
1Q
0O
#760000
0!
09
0:
1)
#765000
1!
19
1:
0)
1F
1K
0D
#770000
0!
09
0:
1)
#775000
1!
19
1:
0)
1L
0F
1D
#780000
1#
0!
09
0:
1)
#785000
1!
19
1:
0)
1F
0K
1G
0D
15
#790000
0#
0!
09
0:
1)
#795000
1!
19
1:
0)
0L
1H
0F
05
1I
1D
0I
#800000
0!
09
0:
1)
#805000
1!
19
1:
0)
1F
1K
0D
#810000
1#
0!
09
0:
1)
#815000
1!
19
1:
0)
1L
0F
1D
#820000
0!
09
0:
1)
#825000
1!
19
1:
0)
1F
0K
0G
0D
15
1I
#830000
0!
09
0:
1)
#835000
1!
19
1:
0)
0L
1J
0H
0F
05
1D
#840000
0!
09
0:
1)
#845000
1!
19
1:
0)
1F
1K
0D
#850000
0#
0!
09
0:
1)
#855000
1!
19
1:
0)
1L
0F
1D
#860000
0!
09
0:
1)
#865000
1!
19
1:
0)
1F
1N
0K
1G
0D
15
#870000
0!
09
0:
1)
#875000
1!
19
1:
0)
0L
1H
0F
0N
05
0I
1D
1I
#880000
0!
09
0:
1)
#885000
1!
19
1:
0)
1F
1K
0D
#890000
0!
09
0:
1)
#895000
1!
19
1:
0)
1L
0F
1D
#900000
1#
0!
09
0:
1)
#905000
1!
19
1:
0)
1F
1M
0K
0G
0D
15
0Q
1O
0I
#910000
0!
09
0:
1)
#915000
1!
19
1:
0)
0R
1P
0L
0J
0H
0F
1Q
0M
05
1D
0Q
#920000
0!
09
0:
1)
#925000
1!
19
1:
0)
1F
1K
0D
#930000
0#
0!
09
0:
1)
#935000
1!
19
1:
0)
1L
0F
1D
#940000
1#
0!
09
0:
1)
#945000
1!
19
1:
0)
1F
0K
1G
0D
15
#950000
0!
09
0:
1)
#955000
1!
19
1:
0)
0L
1H
0F
05
1I
1D
0I
#960000
0!
09
0:
1)
#965000
1!
19
1:
0)
1F
1K
0D
#970000
0!
09
0:
1)
#975000
1!
19
1:
0)
1L
0F
1D
#980000
0#
0!
09
0:
1)
#985000
1!
19
1:
0)
1F
0K
0G
0D
15
1I
#990000
1#
0!
09
0:
1)
#995000
1!
19
1:
0)
0L
1J
0H
0F
05
1D
